[
    {
        "clock": "0.5",
        "crowd": "id pose 2 (-17.266 0.831) 3 (-21.837 3.033) 4 (-19.715 1.179) 5 (-18.570 -1.223) 6 (-20.798 1.592) 7 (-22.764 -1.294) 8 (-19.960 -0.399) 9 (-21.066 -3.832) 10 (-18.852 1.679) 11 (-22.019 0.109) 12 (-21.801 2.022) 13 (-19.062 -1.778) 14 (-22.736 -3.899) 15 (-18.927 2.725) 16 (-22.655 0.745) 17 (-19.407 3.744) 18 (-23.311 1.573) 19 (-21.134 1.032) 20 (-22.247 -0.870) 21 (-19.389 3.142) 22 (-23.130 3.401) 23 (-19.399 -1.220) 24 (-16.583 3.882) 25 (-16.258 0.727) 26 (-16.185 -1.172) 27 (-20.382 2.014) 28 (-20.407 -3.041) 29 (-18.057 -1.698) 30 (-16.249 -3.974) 31 (-16.174 2.822) 32 (-21.859 -4.490) 33 (-18.372 -3.936) 34 (-17.653 -1.929) 35 (-23.610 -1.263) 36 (-23.703 0.076) 37 (-17.217 -3.965) 38 (-20.607 3.295) 39 (-17.222 2.210) 40 (-19.832 2.568) 41 (-20.480 -3.817) 42 (-16.495 1.386) 43 (-19.418 -3.274) 44 (-16.125 -1.647) 45 (-21.916 -1.462) 46 (-22.576 1.502) 47 (-15.476 3.691) 48 (-15.717 -0.107) 49 (-19.992 0.343) 50 (-17.975 -0.192) 51 (-16.561 -0.551) 52 (-22.956 -0.311) 53 (-16.770 -2.719) 54 (-20.983 3.893) 55 (-16.951 -1.987) 56 (-18.008 0.816) 57 (-23.048 -3.225) 58 (-18.530 3.715) 59 (-21.086 0.009) 60 (-17.713 3.025) 61 (-17.750 4.163) 62 (-21.745 -2.999) 63 (-15.884 1.674) 64 (-17.294 -0.631) 65 (-15.785 4.356) 66 (-18.675 -0.176) 67 (-18.058 1.477) 68 (-22.418 2.765) 69 (-23.846 2.723) 70 (-21.014 -1.167) 71 (-16.875 0.428) 72 (-12.189 2.521) 73 (-8.394 -0.542) 74 (-11.342 -2.747) 75 (-9.914 3.539) 76 (-10.010 -3.077) 77 (-8.450 -4.491) 78 (-6.175 -4.058) 79 (-14.313 -2.378) 80 (-6.770 1.044) 81 (-7.418 3.681) 82 (-8.889 0.989) 83 (-10.996 0.431) 84 (-14.518 0.109) 85 (-8.423 4.231) 86 (-5.437 -1.482) 87 (-10.454 2.060) 88 (-12.154 -0.145) 89 (-10.549 3.274) 90 (-12.931 2.165) 91 (-10.780 -3.565) 92 (-12.624 1.539) 93 (-10.115 0.530) 94 (-7.272 1.800) 95 (-12.942 -1.856) 96 (-14.039 -3.568) 97 (-5.404 -0.381) 98 (-10.064 -2.180) 99 (-6.158 1.339) 100 (-8.722 -2.847) 101 (-10.276 -4.179) 102 (-5.514 1.731) 103 (-6.745 -3.029) 104 (-6.207 -1.631) 105 (-13.696 -0.151) 106 (-13.522 3.865) 107 (-8.728 2.984) 108 (-13.979 -1.568) 109 (-11.244 -0.273) 110 (-11.986 3.164) 111 (-12.899 3.541) 112 (-9.130 -1.225) 113 (-13.324 -0.707) 114 (-7.156 -0.954) 115 (-10.206 1.480) 116 (-11.165 1.203) 117 (-13.236 1.378) 118 (-8.119 2.121) 119 (-11.339 3.298) 120 (-7.872 -2.847) 121 (-11.357 -1.510) 122 (-12.256 -2.266) 123 (-9.711 -1.538) 124 (-5.872 2.678) 125 (-8.823 0.062) 126 (-13.010 -1.258) 127 (-6.460 -0.208) 128 (-5.905 0.827) 129 (-13.240 -3.337) 130 (-6.781 2.477) 131 (-12.671 -2.945) 132 (-6.950 -1.747) 133 (-14.312 1.248) 134 (-6.258 -2.535) 135 (-6.576 3.575) 136 (-11.972 0.817) 137 (-12.666 -0.343) 138 (-9.441 1.391) 139 (-7.275 0.004) 140 (-13.588 2.247) 141 (-7.214 -4.223) 142 (-1.265 1.016) 143 (-0.666 1.394) 144 (0.901 -3.130) 145 (4.241 -4.242) 146 (1.485 1.134) 147 (-1.493 -3.795) 148 (3.108 -0.966) 149 (2.057 0.234) 150 (-0.530 -2.474) 151 (-1.703 3.596) 152 (4.392 2.393) 153 (-0.498 -3.619) 154 (2.865 0.356) 155 (-1.281 2.285) 156 (-4.393 2.732) 157 (-1.515 -2.228) 158 (0.498 2.829) 159 (-2.662 -1.466) 160 (1.437 -0.663) 161 (-0.193 -1.156) 162 (-2.853 1.983) 163 (-3.886 0.919) 164 (1.423 0.559) 165 (-0.402 1.975) 166 (-3.340 4.182) 167 (2.788 3.129) 168 (-3.775 -2.726) 169 (2.886 1.991) 170 (0.114 -4.073) 171 (2.180 1.060) 172 (3.441 -2.557) 173 (-0.644 0.135) 174 (-0.451 0.722) 175 (-2.176 1.831) 176 (-3.016 -2.354) 177 (0.735 -2.293) 178 (1.209 4.157) 179 (3.872 2.980) 180 (0.323 -0.861) 181 (-3.891 1.794) 182 (-0.446 -4.431) 183 (4.115 -2.077) 184 (2.045 -2.804) 185 (-1.936 0.116) 186 (-2.372 -0.821) 187 (-2.330 -2.741) 188 (0.025 -2.678) 189 (-1.125 -0.193) 190 (0.965 1.558) 191 (-3.856 -3.435) 192 (-0.726 2.677) 193 (-3.006 0.634) 194 (-2.800 3.443) 195 (0.264 3.921) 196 (-1.611 -1.073) 197 (-0.986 -1.656) 198 (2.296 2.550) 199 (4.199 -0.982) 200 (-3.794 0.156) 201 (1.488 1.950) 202 (1.597 2.978) 203 (-3.729 -1.704) 204 (2.929 1.150) 205 (2.216 -3.729) 206 (0.268 0.222) 207 (2.869 3.893) 208 (4.370 0.327) 209 (1.087 -1.108) 210 (1.367 -1.779) 211 (0.585 0.957) 212 (7.539 -0.699) 213 (8.847 3.346) 214 (13.782 4.060) 215 (9.192 -0.411) 216 (13.466 -3.733) 217 (9.321 1.191) 218 (9.596 4.485) 219 (11.506 2.507) 220 (7.774 1.516) 221 (7.009 2.284) 222 (12.382 1.655) 223 (6.029 1.863) 224 (11.763 1.870) 225 (10.587 4.025) 226 (9.016 -3.888) 227 (11.805 3.513) 228 (13.369 3.266) 229 (13.983 0.520) 230 (7.980 3.263) 231 (8.397 0.916) 232 (9.616 -2.856) 233 (12.048 -0.431) 234 (12.702 -1.437) 235 (9.891 -1.170) 236 (5.325 1.781) 237 (8.377 -4.735) 238 (11.847 -3.110) 239 (7.091 0.691) 240 (10.815 -2.574) 241 (11.033 3.085) 242 (8.605 2.142) 243 (13.025 -2.275) 244 (5.874 0.634) 245 (12.966 0.069) 246 (7.900 -1.516) 247 (7.523 -4.274) 248 (12.409 2.975) 249 (13.200 -4.378) 250 (11.380 0.093) 251 (6.799 3.547) 252 (6.940 1.467) 253 (9.034 -2.773) 254 (12.228 4.343) 255 (14.042 1.864) 256 (10.707 -0.955) 257 (8.244 -0.303) 258 (10.341 2.787) 259 (10.476 -3.577) 260 (7.550 -3.050) 261 (13.872 -2.397) 262 (6.213 3.910) 263 (6.186 2.633) 264 (8.656 -2.008) 265 (11.118 -4.225) 266 (11.210 1.403) 267 (8.804 -0.849) 268 (9.935 -0.358) 269 (11.447 4.548) 270 (7.332 3.116) 271 (9.434 2.439) 272 (10.478 0.223) 273 (5.539 3.101) 274 (7.922 2.404) 275 (11.330 -1.661) 276 (8.999 0.648) 277 (8.185 -3.582) 278 (10.007 3.703) 279 (12.664 -3.771) 280 (9.568 -4.517) 281 (8.463 4.425) 282 (23.448 -0.149) 283 (18.982 -0.840) 284 (21.310 -0.917) 285 (22.085 1.785) 286 (20.013 2.872) 287 (22.295 -1.946) 288 (20.602 -4.299) 289 (16.216 1.342) 290 (14.961 1.690) 291 (17.982 -3.271) 292 (20.479 -0.684) 293 (19.945 -0.335) 294 (16.416 -4.261) 295 (15.722 3.669) 296 (23.878 3.343) 297 (15.765 -1.018) 298 (16.661 -3.392) 299 (22.686 -0.192) 300 (21.692 -2.504) 301 (21.702 0.221) 302 (16.541 2.173) 303 (23.275 3.952) 304 (16.848 0.716) 305 (19.597 2.261) 306 (19.310 0.740) 307 (21.867 3.123) 308 (18.535 2.789) 309 (15.712 0.979) 310 (19.654 -4.292) 311 (21.767 1.040) 312 (20.543 4.444) 313 (22.637 2.930) 314 (22.774 0.566) 315 (17.932 -4.576) 316 (18.722 3.767) 317 (24.089 1.490) 318 (23.184 1.053) 319 (17.352 -0.594) 320 (18.463 -1.347) 321 (20.212 -2.705) 322 (21.090 1.355) 323 (18.299 -0.270) 324 (15.310 -1.875) 325 (22.590 2.266) 326 (23.590 -2.639) 327 (17.243 3.966) 328 (15.273 0.090) 329 (17.389 -3.170) 330 (17.094 -1.622) 331 (16.701 -0.821) 332 (16.342 3.428) 333 (20.652 2.812) 334 (19.390 3.213) 335 (21.312 -0.285) 336 (18.940 0.113) 337 (15.083 2.629) 338 (21.667 2.391) 339 (22.926 -3.292) 340 (22.472 -2.683) 341 (23.206 -1.488) 342 (16.108 -0.264) 343 (15.804 -3.082) 344 (19.438 1.565) 345 (21.410 3.620) 346 (20.927 2.046) 347 (17.272 2.940) 348 (20.496 0.980) 349 (22.497 4.150) 350 (18.356 2.138) 351 (16.363 -2.478)",
        "odom": "pose 13631810000000.000 2268670000000.000 70.416 43329060000000.000 -105731900000000.000 2489.732",
        "report": ""
    },
    {
        "clock": "0.6",
        "crowd": "id pose 2 (-17.295 0.902) 3 (-21.858 3.065) 4 (-19.659 1.230) 5 (-18.680 -1.231) 6 (-20.838 1.620) 7 (-22.737 -1.401) 8 (-19.920 -0.438) 9 (-21.019 -3.923) 10 (-18.807 1.696) 11 (-21.993 0.098) 12 (-21.833 2.072) 13 (-19.091 -1.872) 14 (-22.661 -3.898) 15 (-18.883 2.839) 16 (-22.628 0.724) 17 (-19.426 3.755) 18 (-23.383 1.559) 19 (-21.148 1.032) 20 (-22.247 -0.924) 21 (-19.468 3.175) 22 (-23.084 3.531) 23 (-19.430 -1.303) 24 (-16.687 3.900) 25 (-16.235 0.787) 26 (-16.163 -1.163) 27 (-20.301 1.986) 28 (-20.402 -2.994) 29 (-18.187 -1.743) 30 (-16.370 -4.039) 31 (-16.261 2.906) 32 (-21.837 -4.608) 33 (-18.341 -4.068) 34 (-17.617 -1.933) 35 (-23.581 -1.220) 36 (-23.699 0.154) 37 (-17.237 -3.888) 38 (-20.564 3.420) 39 (-17.240 2.277) 40 (-19.890 2.598) 41 (-20.428 -3.816) 42 (-16.503 1.437) 43 (-19.473 -3.254) 44 (-16.083 -1.719) 45 (-21.894 -1.496) 46 (-22.611 1.455) 47 (-15.518 3.667) 48 (-15.715 -0.123) 49 (-19.971 0.306) 50 (-17.956 -0.149) 51 (-16.616 -0.563) 52 (-22.907 -0.325) 53 (-16.781 -2.690) 54 (-20.884 4.029) 55 (-16.974 -1.948) 56 (-18.123 0.794) 57 (-23.085 -3.345) 58 (-18.493 3.799) 59 (-21.128 -0.077) 60 (-17.769 3.067) 61 (-17.822 4.279) 62 (-21.651 -2.914) 63 (-15.840 1.682) 64 (-17.342 -0.653) 65 (-15.829 4.325) 66 (-18.661 -0.189) 67 (-18.023 1.497) 68 (-22.385 2.862) 69 (-23.763 2.644) 70 (-21.015 -1.197) 71 (-16.804 0.439) 72 (-12.147 2.541) 73 (-8.391 -0.556) 74 (-11.312 -2.664) 75 (-9.902 3.436) 76 (-9.981 -3.220) 77 (-8.478 -4.649) 78 (-6.221 -3.997) 79 (-14.328 -2.342) 80 (-6.765 0.965) 81 (-7.480 3.803) 82 (-8.918 0.936) 83 (-10.934 0.374) 84 (-14.549 0.167) 85 (-8.470 4.347) 86 (-5.399 -1.630) 87 (-10.479 2.015) 88 (-12.107 -0.148) 89 (-10.606 3.365) 90 (-12.961 2.182) 91 (-10.829 -3.672) 92 (-12.603 1.570) 93 (-10.091 0.536) 94 (-7.287 1.710) 95 (-12.862 -1.842) 96 (-13.995 -3.675) 97 (-5.366 -0.334) 98 (-10.007 -2.298) 99 (-6.171 1.276) 100 (-8.702 -2.971) 101 (-10.353 -4.296) 102 (-5.499 1.672) 103 (-6.771 -2.933) 104 (-6.225 -1.661) 105 (-13.619 -0.075) 106 (-13.435 3.961) 107 (-8.677 3.096) 108 (-13.938 -1.644) 109 (-11.095 -0.327) 110 (-11.973 3.187) 111 (-12.887 3.477) 112 (-9.164 -1.290) 113 (-13.330 -0.671) 114 (-7.186 -0.993) 115 (-10.224 1.401) 116 (-11.202 1.171) 117 (-13.230 1.405) 118 (-8.188 2.231) 119 (-11.303 3.217) 120 (-7.839 -2.804) 121 (-11.330 -1.436) 122 (-12.325 -2.357) 123 (-9.712 -1.535) 124 (-5.925 2.592) 125 (-8.841 0.026) 126 (-12.920 -1.216) 127 (-6.536 -0.239) 128 (-5.870 0.745) 129 (-13.164 -3.393) 130 (-6.839 2.553) 131 (-12.579 -3.034) 132 (-7.022 -1.755) 133 (-14.280 1.191) 134 (-6.191 -2.494) 135 (-6.561 3.511) 136 (-11.968 0.915) 137 (-12.672 -0.360) 138 (-9.435 1.370) 139 (-7.360 -0.136) 140 (-13.621 2.196) 141 (-7.234 -4.237) 142 (-1.333 1.051) 143 (-0.680 1.351) 144 (0.901 -3.071) 145 (4.210 -4.369) 146 (1.559 1.152) 147 (-1.528 -3.716) 148 (3.055 -0.992) 149 (2.188 0.328) 150 (-0.584 -2.492) 151 (-1.654 3.718) 152 (4.372 2.377) 153 (-0.485 -3.721) 154 (2.897 0.285) 155 (-1.316 2.398) 156 (-4.347 2.655) 157 (-1.496 -2.242) 158 (0.522 2.825) 159 (-2.733 -1.496) 160 (1.431 -0.660) 161 (-0.251 -1.128) 162 (-2.834 2.101) 163 (-3.923 0.922) 164 (1.391 0.511) 165 (-0.463 1.984) 166 (-3.231 4.286) 167 (2.814 3.228) 168 (-3.716 -2.701) 169 (2.947 2.044) 170 (0.044 -4.221) 171 (2.227 1.127) 172 (3.431 -2.671) 173 (-0.563 0.157) 174 (-0.428 0.766) 175 (-2.179 1.902) 176 (-2.954 -2.323) 177 (0.897 -2.320) 178 (1.247 4.262) 179 (3.853 3.009) 180 (0.305 -0.875) 181 (-3.800 1.687) 182 (-0.544 -4.520) 183 (4.095 -2.048) 184 (2.006 -2.930) 185 (-1.959 0.081) 186 (-2.448 -0.851) 187 (-2.333 -2.864) 188 (0.084 -2.633) 189 (-1.068 -0.169) 190 (0.967 1.582) 191 (-3.775 -3.411) 192 (-0.674 2.659) 193 (-2.981 0.519) 194 (-2.848 3.563) 195 (0.247 4.027) 196 (-1.592 -0.969) 197 (-0.997 -1.658) 198 (2.290 2.633) 199 (4.128 -1.007) 200 (-3.782 0.197) 201 (1.374 1.932) 202 (1.628 3.111) 203 (-3.734 -1.602) 204 (3.025 1.127) 205 (2.091 -3.807) 206 (0.286 0.187) 207 (2.821 4.081) 208 (4.340 0.240) 209 (1.084 -1.130) 210 (1.407 -1.780) 211 (0.572 0.981) 212 (7.572 -0.733) 213 (8.892 3.428) 214 (13.783 4.026) 215 (9.246 -0.358) 216 (13.365 -3.821) 217 (9.297 1.190) 218 (9.570 4.549) 219 (11.527 2.400) 220 (7.824 1.534) 221 (7.026 2.224) 222 (12.430 1.559) 223 (5.982 1.805) 224 (11.792 1.771) 225 (10.570 4.060) 226 (9.101 -3.945) 227 (11.746 3.603) 228 (13.519 3.235) 229 (13.978 0.627) 230 (7.962 3.234) 231 (8.370 0.820) 232 (9.656 -2.769) 233 (12.024 -0.494) 234 (12.680 -1.447) 235 (9.919 -1.162) 236 (5.308 1.658) 237 (8.433 4.635) 238 (11.856 -3.045) 239 (7.063 0.582) 240 (10.761 -2.530) 241 (11.036 3.097) 242 (8.640 2.243) 243 (13.025 -2.239) 244 (5.923 0.694) 245 (12.960 -0.008) 246 (7.872 -1.530) 247 (7.615 -4.395) 248 (12.383 2.935) 249 (13.120 -4.467) 250 (11.406 0.062) 251 (6.910 3.630) 252 (6.988 1.425) 253 (8.986 -2.868) 254 (12.142 4.423) 255 (13.989 1.952) 256 (10.719 -0.989) 257 (8.163 -0.282) 258 (10.358 2.741) 259 (10.467 -3.507) 260 (7.550 -3.178) 261 (13.867 -2.286) 262 (6.292 3.981) 263 (6.212 2.661) 264 (8.677 -1.936) 265 (11.032 -4.309) 266 (11.203 1.319) 267 (8.841 -0.810) 268 (10.006 -0.373) 269 (11.369 4.651) 270 (7.319 3.060) 271 (9.417 2.405) 272 (10.469 0.281) 273 (5.563 3.049) 274 (7.914 2.383) 275 (11.325 -1.739) 276 (8.992 0.656) 277 (8.202 -3.675) 278 (10.011 3.707) 279 (12.571 -3.820) 280 (9.591 -4.640) 281 (8.454 4.570) 282 (23.387 -0.145) 283 (18.949 -0.870) 284 (21.340 -0.936) 285 (22.102 1.854) 286 (19.996 2.947) 287 (22.282 -2.016) 288 (20.524 -4.409) 289 (16.242 1.273) 290 (14.896 1.762) 291 (18.087 -3.198) 292 (20.490 -0.680) 293 (19.939 -0.302) 294 (16.463 -4.458) 295 (15.675 3.660) 296 (23.877 3.458) 297 (15.711 -0.971) 298 (16.722 -3.517) 299 (22.650 -0.292) 300 (21.617 -2.598) 301 (21.709 0.201) 302 (16.588 2.092) 303 (23.247 4.053) 304 (16.942 0.817) 305 (19.583 2.337) 306 (19.297 0.771) 307 (21.824 3.194) 308 (18.465 2.854) 309 (15.694 0.867) 310 (19.566 -4.372) 311 (21.742 1.015) 312 (20.575 4.580) 313 (22.674 3.048) 314 (22.926 0.540) 315 (17.867 -4.677) 316 (18.709 3.836) 317 (24.085 1.443) 318 (23.224 1.185) 319 (17.403 -0.580) 320 (18.424 -1.426) 321 (20.211 -2.833) 322 (21.026 1.326) 323 (18.307 -0.183) 324 (15.377 -1.806) 325 (22.593 2.377) 326 (23.597 -2.757) 327 (17.309 4.075) 328 (15.182 -0.100) 329 (17.483 -3.094) 330 (17.160 -1.732) 331 (16.769 -0.873) 332 (16.341 3.444) 333 (20.666 2.845) 334 (19.348 3.242) 335 (21.282 -0.248) 336 (18.965 0.029) 337 (15.141 2.536) 338 (21.672 2.439) 339 (22.934 -3.275) 340 (22.419 -2.803) 341 (23.198 -1.420) 342 (16.166 -0.304) 343 (15.789 -3.006) 344 (19.446 1.612) 345 (21.363 3.685) 346 (20.945 2.002) 347 (17.268 3.087) 348 (20.448 0.951) 349 (22.487 4.274) 350 (18.259 2.202) 351 (16.414 -2.584)",
        "odom": "pose 14316390000000.000 12953720000000.000 174.916 6845797000000.000 106850500000000.000 1045.006",
        "report": ""
    },
    {
        "clock": "0.7",
        "crowd": "id pose 2 (-17.303 0.947) 3 (-21.796 3.110) 4 (-19.594 1.320) 5 (-18.789 -1.237) 6 (-20.885 1.669) 7 (-22.695 -1.499) 8 (-19.870 -0.467) 9 (-20.962 -4.019) 10 (-18.767 1.685) 11 (-21.963 0.078) 12 (-21.905 2.133) 13 (-19.128 -1.967) 14 (-22.574 -3.862) 15 (-18.853 2.959) 16 (-22.593 0.708) 17 (-19.434 3.769) 18 (-23.455 1.546) 19 (-21.136 1.010) 20 (-22.248 -0.978) 21 (-19.538 3.184) 22 (-23.037 3.661) 23 (-19.470 -1.393) 24 (-16.787 3.912) 25 (-16.211 0.851) 26 (-16.146 -1.140) 27 (-20.240 1.948) 28 (-20.420 -2.960) 29 (-18.301 -1.786) 30 (-16.492 -4.103) 31 (-16.348 2.990) 32 (-21.815 -4.726) 33 (-18.309 -4.201) 34 (-17.575 -1.932) 35 (-23.542 -1.156) 36 (-23.695 0.232) 37 (-17.300 -3.783) 38 (-20.501 3.549) 39 (-17.255 2.351) 40 (-19.911 2.604) 41 (-20.381 -3.804) 42 (-16.515 1.474) 43 (-19.529 -3.237) 44 (-16.051 -1.804) 45 (-21.873 -1.530) 46 (-22.645 1.407) 47 (-15.565 3.638) 48 (-15.750 -0.131) 49 (-19.949 0.270) 50 (-17.943 -0.127) 51 (-16.672 -0.574) 52 (-22.867 -0.355) 53 (-16.763 -2.660) 54 (-20.790 4.165) 55 (-16.994 -1.911) 56 (-18.187 0.781) 57 (-23.112 -3.474) 58 (-18.452 3.882) 59 (-21.168 -0.162) 60 (-17.816 3.100) 61 (-17.888 4.394) 62 (-21.571 -2.838) 63 (-15.796 1.686) 64 (-17.391 -0.673) 65 (-15.884 4.288) 66 (-18.657 -0.211) 67 (-17.985 1.543) 68 (-22.377 2.941) 69 (-23.678 2.555) 70 (-21.017 -1.225) 71 (-16.777 0.470) 72 (-12.102 2.562) 73 (-8.390 -0.565) 74 (-11.268 -2.565) 75 (-9.905 3.318) 76 (-9.952 -3.363) 77 (-8.506 4.693) 78 (-6.266 -3.923) 79 (-14.358 -2.277) 80 (-6.747 0.855) 81 (-7.543 3.924) 82 (-8.944 0.882) 83 (-10.869 0.310) 84 (-14.574 0.229) 85 (-8.517 4.462) 86 (-5.360 -1.779) 87 (-10.508 1.950) 88 (-12.030 -0.129) 89 (-10.672 3.452) 90 (-12.992 2.202) 91 (-10.878 -3.779) 92 (-12.586 1.594) 93 (-10.075 0.524) 94 (-7.298 1.605) 95 (-12.792 -1.818) 96 (-13.952 -3.781) 97 (-5.320 -0.290) 98 (-9.944 -2.429) 99 (-6.190 1.230) 100 (-8.683 -3.096) 101 (-10.433 -4.409) 102 (-5.497 1.600) 103 (-6.794 -2.842) 104 (-6.241 -1.689) 105 (-13.531 0.010) 106 (-13.347 4.058) 107 (-8.626 3.216) 108 (-13.894 -1.729) 109 (-10.945 -0.382) 110 (-11.942 3.209) 111 (-12.875 3.415) 112 (-9.199 -1.371) 113 (-13.336 -0.637) 114 (-7.215 -1.033) 115 (-10.252 1.328) 116 (-11.242 1.127) 117 (-13.224 1.432) 118 (-8.253 2.362) 119 (-11.264 3.135) 120 (-7.805 -2.765) 121 (-11.298 -1.365) 122 (-12.393 -2.451) 123 (-9.747 -1.549) 124 (-5.982 2.502) 125 (-8.856 -0.008) 126 (-12.834 -1.162) 127 (-6.611 -0.277) 128 (-5.840 0.658) 129 (-13.085 -3.448) 130 (-6.917 2.640) 131 (-12.487 -3.122) 132 (-7.093 -1.764) 133 (-14.253 1.133) 134 (-6.125 -2.454) 135 (-6.537 3.422) 136 (-11.960 1.013) 137 (-12.683 -0.370) 138 (-9.426 1.349) 139 (-7.444 -0.271) 140 (-13.657 2.126) 141 (-7.277 -4.209) 142 (-1.398 1.110) 143 (-0.692 1.321) 144 (0.920 -3.021) 145 (4.179 -4.495) 146 (1.613 1.229) 147 (-1.562 -3.637) 148 (3.006 -1.014) 149 (2.290 0.384) 150 (-0.582 -2.509) 151 (-1.606 3.840) 152 (4.364 2.373) 153 (-0.474 -3.826) 154 (2.953 0.253) 155 (-1.352 2.512) 156 (-4.308 2.577) 157 (-1.489 -2.248) 158 (0.542 2.815) 159 (-2.803 -1.526) 160 (1.440 -0.640) 161 (-0.302 -1.107) 162 (-2.815 2.219) 163 (-3.959 0.925) 164 (1.365 0.470) 165 (-0.511 1.982) 166 (-3.122 4.390) 167 (2.834 3.331) 168 (-3.651 -2.668) 169 (3.008 2.097) 170 (-0.027 -4.364) 171 (2.282 1.212) 172 (3.420 -2.785) 173 (-0.472 0.182) 174 (-0.411 0.802) 175 (-2.176 1.990) 176 (-2.892 -2.292) 177 (1.075 -2.356) 178 (1.285 4.367) 179 (3.804 3.028) 180 (0.308 -0.913) 181 (-3.711 1.584) 182 (-0.643 -4.608) 183 (4.070 -2.021) 184 (1.963 -3.060) 185 (-1.981 0.044) 186 (-2.517 -0.883) 187 (-2.336 -2.986) 188 (0.113 -2.584) 189 (-1.034 -0.145) 190 (0.900 1.560) 191 (-3.695 -3.383) 192 (-0.619 2.651) 193 (-2.955 0.402) 194 (-2.896 3.686) 195 (0.230 4.132) 196 (-1.581 -0.891) 197 (-1.015 -1.662) 198 (2.293 2.738) 199 (4.052 -1.039) 200 (-3.769 0.238) 201 (1.302 1.970) 202 (1.660 3.244) 203 (-3.728 -1.495) 204 (3.127 1.105) 205 (1.968 -3.883) 206 (0.302 0.140) 207 (2.765 4.259) 208 (4.314 0.156) 209 (1.053 -1.170) 210 (1.434 -1.775) 211 (0.565 1.001) 212 (7.610 -0.769) 213 (8.948 3.492) 214 (13.785 3.991) 215 (9.308 -0.312) 216 (13.265 -3.908) 217 (9.275 1.181) 218 (9.544 4.604) 219 (11.547 2.294) 220 (7.872 1.550) 221 (7.042 2.164) 222 (12.481 1.526) 223 (5.935 1.748) 224 (11.817 1.669) 225 (10.568 4.071) 226 (9.185 -4.002) 227 (11.686 3.694) 228 (13.656 3.206) 229 (13.975 0.733) 230 (7.942 3.203) 231 (8.334 0.728) 232 (9.667 -2.682) 233 (12.002 -0.559) 234 (12.657 -1.454) 235 (9.932 -1.142) 236 (5.293 1.536) 237 (8.377 -4.633) 238 (11.866 -2.983) 239 (7.043 0.460) 240 (10.727 -2.483) 241 (11.037 3.141) 242 (8.655 2.310) 243 (13.024 -2.207) 244 (5.973 0.754) 245 (12.940 -0.068) 246 (7.845 -1.544) 247 (7.710 -4.522) 248 (12.346 2.868) 249 (13.040 -4.556) 250 (11.432 0.019) 251 (7.021 3.713) 252 (7.053 1.396) 253 (8.954 -2.965) 254 (12.052 4.502) 255 (13.935 2.041) 256 (10.734 -1.015) 257 (8.082 -0.262) 258 (10.360 2.729) 259 (10.469 -3.428) 260 (7.558 -3.308) 261 (13.862 -2.175) 262 (6.371 4.053) 263 (6.238 2.674) 264 (8.702 -1.862) 265 (10.946 -4.393) 266 (11.203 1.235) 267 (8.876 -0.768) 268 (10.075 -0.392) 269 (11.290 -4.746) 270 (7.306 2.999) 271 (9.403 2.366) 272 (10.466 0.334) 273 (5.587 2.979) 274 (7.905 2.362) 275 (11.307 -1.843) 276 (8.986 0.653) 277 (8.250 -3.758) 278 (10.009 3.719) 279 (12.478 -3.870) 280 (9.615 4.743) 281 (8.554 4.410) 282 (23.324 -0.148) 283 (18.910 -0.894) 284 (21.356 -0.940) 285 (22.126 1.938) 286 (19.972 3.061) 287 (22.279 -2.122) 288 (20.446 -4.520) 289 (16.244 1.196) 290 (14.831 1.836) 291 (18.197 -3.130) 292 (20.492 -0.663) 293 (19.945 -0.275) 294 (16.514 -4.651) 295 (15.651 3.649) 296 (23.865 3.587) 297 (15.653 -0.941) 298 (16.782 -3.642) 299 (22.614 -0.395) 300 (21.527 -2.692) 301 (21.719 0.184) 302 (16.635 2.012) 303 (23.190 4.133) 304 (17.036 0.921) 305 (19.571 2.413) 306 (19.281 0.822) 307 (21.775 3.256) 308 (18.401 2.950) 309 (15.687 0.762) 310 (19.478 -4.453) 311 (21.722 0.985) 312 (20.623 4.689) 313 (22.711 3.167) 314 (23.095 0.522) 315 (17.802 4.723) 316 (18.692 3.886) 317 (24.054 1.386) 318 (23.234 1.323) 319 (17.445 -0.580) 320 (18.372 -1.495) 321 (20.211 -2.960) 322 (20.973 1.293) 323 (18.313 -0.077) 324 (15.446 -1.725) 325 (22.596 2.487) 326 (23.603 -2.875) 327 (17.376 4.183) 328 (15.090 -0.291) 329 (17.567 -3.018) 330 (17.216 -1.840) 331 (16.805 -0.936) 332 (16.331 3.451) 333 (20.663 2.894) 334 (19.294 3.249) 335 (21.229 -0.221) 336 (18.988 -0.055) 337 (15.205 2.437) 338 (21.684 2.509) 339 (22.941 -3.257) 340 (22.341 -2.927) 341 (23.185 -1.358) 342 (16.226 -0.323) 343 (15.798 -2.919) 344 (19.480 1.680) 345 (21.307 3.738) 346 (20.941 1.963) 347 (17.275 3.244) 348 (20.389 0.928) 349 (22.477 4.398) 350 (18.167 2.273) 351 (16.487 -2.693)",
        "odom": "pose 13077560000000.000 31717940000000.000 -39.834 -12388370000000.000 187642100000000.000 -2147.499",
        "report": ""
    },
    {
        "clock": "0.8",
        "crowd": "id pose 2 (-17.311 0.964) 3 (-21.736 3.148) 4 (-19.530 1.393) 5 (-18.899 -1.240) 6 (-20.931 1.750) 7 (-22.649 -1.594) 8 (-19.824 -0.491) 9 (-20.892 -4.117) 10 (-18.726 1.692) 11 (-21.937 0.048) 12 (-21.975 2.214) 13 (-19.170 -2.054) 14 (-22.488 -3.810) 15 (-18.827 3.087) 16 (-22.542 0.698) 17 (-19.431 3.792) 18 (-23.526 1.534) 19 (-21.104 0.961) 20 (-22.251 -1.034) 21 (-19.582 3.169) 22 (-22.990 3.790) 23 (-19.502 -1.496) 24 (-16.887 3.924) 25 (-16.183 0.896) 26 (-16.145 -1.142) 27 (-20.214 1.896) 28 (-20.452 -2.937) 29 (-18.388 -1.841) 30 (-16.614 -4.167) 31 (-16.433 3.073) 32 (-21.793 4.656) 33 (-18.277 -4.333) 34 (-17.600 -1.917) 35 (-23.502 -1.083) 36 (-23.690 0.311) 37 (-17.372 -3.658) 38 (-20.424 3.677) 39 (-17.269 2.429) 40 (-19.947 2.588) 41 (-20.336 -3.798) 42 (-16.531 1.504) 43 (-19.591 -3.220) 44 (-16.023 -1.835) 45 (-21.852 -1.565) 46 (-22.679 1.360) 47 (-15.602 3.619) 48 (-15.804 -0.151) 49 (-19.950 0.258) 50 (-17.940 -0.119) 51 (-16.727 -0.585) 52 (-22.829 -0.393) 53 (-16.735 -2.621) 54 (-20.702 4.299) 55 (-16.976 -1.877) 56 (-18.226 0.778) 57 (-23.134 -3.605) 58 (-18.410 3.964) 59 (-21.207 -0.246) 60 (-17.867 3.131) 61 (-17.950 4.509) 62 (-21.497 -2.767) 63 (-15.753 1.691) 64 (-17.439 -0.694) 65 (-15.943 4.246) 66 (-18.653 -0.232) 67 (-17.958 1.589) 68 (-22.348 3.032) 69 (-23.595 2.463) 70 (-21.019 -1.248) 71 (-16.766 0.513) 72 (-12.052 2.582) 73 (-8.387 -0.564) 74 (-11.221 -2.461) 75 (-9.918 3.190) 76 (-9.923 -3.507) 77 (-8.321 4.715) 78 (-6.308 -3.844) 79 (-14.395 -2.198) 80 (-6.728 0.746) 81 (-7.605 4.046) 82 (-8.966 0.831) 83 (-10.806 0.241) 84 (-14.600 0.289) 85 (-8.702 4.440) 86 (-5.321 -1.927) 87 (-10.547 1.878) 88 (-11.966 -0.109) 89 (-10.748 3.531) 90 (-13.059 2.292) 91 (-10.927 -3.886) 92 (-12.573 1.615) 93 (-10.063 0.506) 94 (-7.294 1.486) 95 (-12.724 -1.759) 96 (-13.908 -3.888) 97 (-5.272 -0.248) 98 (-9.880 -2.560) 99 (-6.201 1.164) 100 (-8.663 -3.221) 101 (-10.512 -4.521) 102 (-5.507 1.509) 103 (-6.816 -2.755) 104 (-6.255 -1.717) 105 (-13.430 0.098) 106 (-13.259 4.154) 107 (-8.536 3.326) 108 (-13.845 -1.821) 109 (-10.828 -0.439) 110 (-11.888 3.228) 111 (-12.864 3.352) 112 (-9.218 -1.452) 113 (-13.345 -0.611) 114 (-7.243 -1.073) 115 (-10.271 1.266) 116 (-11.278 1.081) 117 (-13.218 1.463) 118 (-8.358 2.490) 119 (-11.224 3.042) 120 (-7.777 -2.731) 121 (-11.268 -1.300) 122 (-12.462 -2.550) 123 (-9.804 -1.574) 124 (-6.039 2.412) 125 (-8.869 -0.041) 126 (-12.745 -1.115) 127 (-6.688 -0.319) 128 (-5.824 0.586) 129 (-13.004 -3.501) 130 (-6.997 2.741) 131 (-12.395 -3.211) 132 (-7.163 -1.777) 133 (-14.227 1.077) 134 (-6.059 -2.413) 135 (-6.522 3.323) 136 (-11.950 1.112) 137 (-12.676 -0.362) 138 (-9.420 1.322) 139 (-7.527 -0.401) 140 (-13.696 2.047) 141 (-7.323 -4.143) 142 (-1.446 1.190) 143 (-0.727 1.325) 144 (0.935 -2.970) 145 (4.148 -4.621) 146 (1.642 1.342) 147 (-1.595 -3.559) 148 (2.959 -1.032) 149 (2.352 0.375) 150 (-0.572 -2.494) 151 (-1.557 3.962) 152 (4.342 2.356) 153 (-0.466 -3.932) 154 (3.010 0.215) 155 (-1.389 2.626) 156 (-4.273 2.501) 157 (-1.481 -2.255) 158 (0.586 2.813) 159 (-2.873 -1.555) 160 (1.442 -0.645) 161 (-0.333 -1.085) 162 (-2.797 2.338) 163 (-3.996 0.929) 164 (1.339 0.431) 165 (-0.538 1.979) 166 (-3.013 4.494) 167 (2.854 3.433) 168 (-3.585 -2.634) 169 (3.068 2.149) 170 (-0.105 -4.505) 171 (2.336 1.302) 172 (3.410 -2.899) 173 (-0.404 0.188) 174 (-0.380 0.846) 175 (-2.170 2.087) 176 (-2.830 -2.261) 177 (1.267 -2.399) 178 (1.323 4.472) 179 (3.736 3.042) 180 (0.291 -0.957) 181 (-3.622 1.484) 182 (-0.738 -4.695) 183 (4.043 -1.997) 184 (1.920 -3.192) 185 (-2.004 0.005) 186 (-2.584 -0.917) 187 (-2.338 -3.108) 188 (0.131 -2.552) 189 (-0.992 -0.114) 190 (0.830 1.519) 191 (-3.620 -3.351) 192 (-0.601 2.645) 193 (-2.931 0.285) 194 (-2.943 3.812) 195 (0.212 4.238) 196 (-1.561 -0.826) 197 (-1.033 -1.664) 198 (2.301 2.855) 199 (3.976 -1.071) 200 (-3.753 0.277) 201 (1.313 2.029) 202 (1.692 3.377) 203 (-3.710 -1.386) 204 (3.223 1.097) 205 (1.850 -3.961) 206 (0.324 0.084) 207 (2.703 4.431) 208 (4.284 0.077) 209 (1.039 -1.203) 210 (1.453 -1.766) 211 (0.557 1.038) 212 (7.652 -0.807) 213 (9.021 3.534) 214 (13.785 3.961) 215 (9.354 -0.267) 216 (13.165 -3.995) 217 (9.265 1.179) 218 (9.268 4.594) 219 (11.568 2.188) 220 (7.918 1.565) 221 (7.059 2.104) 222 (12.521 1.542) 223 (5.890 1.693) 224 (11.836 1.563) 225 (10.567 4.082) 226 (9.268 -4.060) 227 (11.625 3.784) 228 (13.788 3.178) 229 (13.972 0.838) 230 (7.918 3.169) 231 (8.300 0.637) 232 (9.644 -2.630) 233 (11.979 -0.623) 234 (12.636 -1.461) 235 (9.952 -1.124) 236 (5.282 1.415) 237 (8.362 -4.514) 238 (11.874 -2.923) 239 (7.025 0.334) 240 (10.694 -2.435) 241 (11.028 3.174) 242 (8.669 2.375) 243 (13.030 -2.165) 244 (6.021 0.812) 245 (12.912 -0.125) 246 (7.797 -1.585) 247 (7.740 -4.664) 248 (12.305 2.785) 249 (12.962 -4.644) 250 (11.456 -0.031) 251 (7.132 3.796) 252 (7.120 1.366) 253 (8.922 -3.062) 254 (11.961 4.582) 255 (13.882 2.129) 256 (10.751 -1.039) 257 (7.998 -0.243) 258 (10.384 2.734) 259 (10.470 -3.354) 260 (7.556 -3.442) 261 (13.858 -2.065) 262 (6.450 4.124) 263 (6.263 2.675) 264 (8.729 -1.788) 265 (10.787 -4.403) 266 (11.211 1.150) 267 (8.919 -0.717) 268 (10.140 -0.413) 269 (11.289 -4.706) 270 (7.293 2.941) 271 (9.391 2.323) 272 (10.450 0.386) 273 (5.609 2.890) 274 (7.895 2.341) 275 (11.290 -1.938) 276 (8.964 0.637) 277 (8.355 -3.797) 278 (10.025 3.704) 279 (12.386 -3.919) 280 (9.876 -4.526) 281 (8.624 4.285) 282 (23.262 -0.151) 283 (18.870 -0.916) 284 (21.358 -0.928) 285 (22.153 2.032) 286 (19.931 3.204) 287 (22.281 -2.263) 288 (20.369 -4.630) 289 (16.227 1.116) 290 (14.754 1.907) 291 (18.279 -3.078) 292 (20.488 -0.649) 293 (19.943 -0.253) 294 (16.602 4.691) 295 (15.635 3.637) 296 (23.829 3.730) 297 (15.595 -0.910) 298 (16.838 -3.764) 299 (22.570 -0.491) 300 (21.435 -2.787) 301 (21.726 0.171) 302 (16.682 1.933) 303 (23.124 4.207) 304 (17.131 1.025) 305 (19.574 2.506) 306 (19.277 0.898) 307 (21.725 3.318) 308 (18.340 3.064) 309 (15.681 0.656) 310 (19.396 -4.535) 311 (21.692 0.944) 312 (20.673 -4.703) 313 (22.748 3.285) 314 (23.274 0.507) 315 (17.763 4.738) 316 (18.691 3.916) 317 (24.021 1.328) 318 (23.235 1.466) 319 (17.477 -0.585) 320 (18.303 -1.566) 321 (20.211 -3.088) 322 (20.920 1.261) 323 (18.317 0.039) 324 (15.514 -1.646) 325 (22.599 2.598) 326 (23.610 -2.993) 327 (17.245 4.453) 328 (14.995 -0.494) 329 (17.651 -2.946) 330 (17.262 -1.941) 331 (16.813 -1.011) 332 (16.318 3.449) 333 (20.652 2.951) 334 (19.236 3.249) 335 (21.176 -0.198) 336 (19.012 -0.139) 337 (15.268 2.338) 338 (21.701 2.590) 339 (22.943 -3.209) 340 (22.252 -3.047) 341 (23.172 -1.297) 342 (16.289 -0.317) 343 (15.835 -2.824) 344 (19.520 1.763) 345 (21.240 3.781) 346 (20.936 1.924) 347 (17.234 3.396) 348 (20.331 0.905) 349 (22.467 4.522) 350 (18.064 2.319) 351 (16.560 -2.803)",
        "odom": "pose 42910390000000.000 46500080000000.000 -166.093 298328300000000.000 147821400000000.000 -1262.595",
        "report": ""
    },
    {
        "clock": "0.9",
        "crowd": "id pose 2 (-17.321 0.959) 3 (-21.639 3.188) 4 (-19.483 1.429) 5 (-19.011 -1.240) 6 (-21.003 1.840) 7 (-22.603 -1.689) 8 (-19.789 -0.500) 9 (-20.808 -4.212) 10 (-18.685 1.700) 11 (-21.914 0.011) 12 (-22.041 2.314) 13 (-19.212 -2.142) 14 (-22.405 -3.762) 15 (-18.804 3.223) 16 (-22.470 0.698) 17 (-19.444 3.786) 18 (-23.597 1.523) 19 (-21.075 0.889) 20 (-22.254 -1.092) 21 (-19.603 3.175) 22 (-22.944 3.920) 23 (-19.538 -1.601) 24 (-16.987 3.939) 25 (-16.156 0.923) 26 (-16.139 -1.153) 27 (-20.177 1.831) 28 (-20.483 -2.914) 29 (-18.456 -1.908) 30 (-16.735 -4.232) 31 (-16.515 3.156) 32 (-21.764 4.588) 33 (-18.245 -4.465) 34 (-17.631 -1.897) 35 (-23.462 -1.008) 36 (-23.686 0.389) 37 (-17.453 -3.531) 38 (-20.341 3.801) 39 (-17.283 2.509) 40 (-19.993 2.550) 41 (-20.263 -3.789) 42 (-16.555 1.527) 43 (-19.656 -3.205) 44 (-15.987 -1.840) 45 (-21.829 -1.601) 46 (-22.713 1.313) 47 (-15.630 3.614) 48 (-15.867 -0.179) 49 (-19.931 0.257) 50 (-17.941 -0.118) 51 (-16.777 -0.609) 52 (-22.791 -0.433) 53 (-16.714 -2.582) 54 (-20.619 4.430) 55 (-16.947 -1.834) 56 (-18.266 0.796) 57 (-23.156 -3.737) 58 (-18.370 4.047) 59 (-21.245 -0.329) 60 (-17.927 3.162) 61 (-18.006 4.623) 62 (-21.430 -2.700) 63 (-15.711 1.698) 64 (-17.487 -0.716) 65 (-16.001 4.203) 66 (-18.649 -0.251) 67 (-17.929 1.625) 68 (-22.351 3.102) 69 (-23.512 2.369) 70 (-21.024 -1.270) 71 (-16.759 0.561) 72 (-11.998 2.601) 73 (-8.372 -0.536) 74 (-11.186 -2.364) 75 (-9.930 3.062) 76 (-9.893 -3.650) 77 (-8.089 -4.644) 78 (-6.347 -3.765) 79 (-14.432 -2.119) 80 (-6.709 0.636) 81 (-7.725 4.137) 82 (-8.986 0.781) 83 (-10.743 0.172) 84 (-14.624 0.347) 85 (-8.950 4.380) 86 (-5.282 -2.076) 87 (-10.592 1.807) 88 (-11.904 -0.090) 89 (-10.824 3.611) 90 (-13.131 2.391) 91 (-10.976 -3.993) 92 (-12.564 1.633) 93 (-10.054 0.483) 94 (-7.287 1.355) 95 (-12.654 -1.689) 96 (-13.865 -3.995) 97 (-5.233 -0.208) 98 (-9.816 -2.692) 99 (-6.224 1.099) 100 (-8.644 -3.345) 101 (-10.593 -4.631) 102 (-5.519 1.419) 103 (-6.836 -2.677) 104 (-6.268 -1.742) 105 (-13.311 0.202) 106 (-13.171 4.251) 107 (-8.486 3.444) 108 (-13.794 -1.920) 109 (-10.734 -0.502) 110 (-11.811 3.239) 111 (-12.854 3.293) 112 (-9.250 -1.540) 113 (-13.345 -0.582) 114 (-7.269 -1.113) 115 (-10.287 1.211) 116 (-11.309 1.039) 117 (-13.212 1.494) 118 (-8.425 2.638) 119 (-11.191 2.941) 120 (-7.759 -2.705) 121 (-11.238 -1.237) 122 (-12.540 -2.662) 123 (-9.861 -1.603) 124 (-6.096 2.322) 125 (-8.886 -0.077) 126 (-12.659 -1.060) 127 (-6.766 -0.364) 128 (-5.803 0.514) 129 (-12.921 -3.554) 130 (-7.077 2.842) 131 (-12.303 -3.300) 132 (-7.232 -1.791) 133 (-14.202 1.024) 134 (-5.992 -2.372) 135 (-6.512 3.221) 136 (-11.940 1.214) 137 (-12.660 -0.349) 138 (-9.419 1.289) 139 (-7.610 -0.525) 140 (-13.735 1.965) 141 (-7.368 -4.058) 142 (-1.478 1.284) 143 (-0.778 1.345) 144 (0.957 -2.918) 145 (4.117 -4.748) 146 (1.668 1.437) 147 (-1.626 -3.482) 148 (2.912 -1.048) 149 (2.374 0.346) 150 (-0.570 -2.468) 151 (-1.507 4.083) 152 (4.307 2.328) 153 (-0.458 -4.041) 154 (3.061 0.173) 155 (-1.424 2.740) 156 (-4.243 2.426) 157 (-1.474 -2.262) 158 (0.619 2.787) 159 (-2.943 -1.584) 160 (1.440 -0.661) 161 (-0.352 -1.057) 162 (-2.779 2.456) 163 (-4.027 0.935) 164 (1.316 0.389) 165 (-0.548 1.975) 166 (-2.905 4.599) 167 (2.874 3.536) 168 (-3.522 -2.600) 169 (3.129 2.202) 170 (-0.185 -4.644) 171 (2.395 1.399) 172 (3.399 -3.013) 173 (-0.329 0.206) 174 (-0.336 0.871) 175 (-2.161 2.188) 176 (-2.768 -2.229) 177 (1.429 -2.432) 178 (1.361 4.576) 179 (3.667 3.055) 180 (0.281 -0.999) 181 (-3.530 1.387) 182 (-0.833 4.718) 183 (4.013 -1.976) 184 (1.876 -3.325) 185 (-2.022 -0.040) 186 (-2.651 -0.951) 187 (-2.340 -3.229) 188 (0.147 -2.523) 189 (-0.958 -0.084) 190 (0.840 1.572) 191 (-3.549 -3.316) 192 (-0.555 2.637) 193 (-2.908 0.171) 194 (-2.990 3.940) 195 (0.195 4.344) 196 (-1.551 -0.779) 197 (-1.049 -1.667) 198 (2.312 2.977) 199 (3.902 -1.101) 200 (-3.733 0.316) 201 (1.336 2.119) 202 (1.724 3.509) 203 (-3.686 -1.278) 204 (3.282 1.095) 205 (1.745 -4.048) 206 (0.347 0.027) 207 (2.639 4.600) 208 (4.257 0.000) 209 (1.022 -1.226) 210 (1.469 -1.757) 211 (0.521 1.044) 212 (7.700 -0.867) 213 (9.106 3.568) 214 (13.783 3.935) 215 (9.403 -0.230) 216 (13.065 -4.083) 217 (9.259 1.178) 218 (9.145 4.622) 219 (11.590 2.082) 220 (7.962 1.579) 221 (7.075 2.043) 222 (12.550 1.585) 223 (5.850 1.643) 224 (11.851 1.453) 225 (10.571 4.092) 226 (9.350 -4.086) 227 (11.565 3.874) 228 (13.904 3.152) 229 (13.973 0.944) 230 (7.894 3.135) 231 (8.270 0.543) 232 (9.625 -2.627) 233 (11.957 -0.683) 234 (12.614 -1.466) 235 (9.956 -1.112) 236 (5.275 1.294) 237 (8.350 -4.438) 238 (11.881 -2.849) 239 (7.007 0.206) 240 (10.652 -2.380) 241 (11.019 3.207) 242 (8.676 2.436) 243 (13.045 -2.095) 244 (6.066 0.867) 245 (12.884 -0.180) 246 (7.769 -1.613) 247 (7.824 4.707) 248 (12.262 2.693) 249 (12.885 -4.733) 250 (11.479 -0.085) 251 (7.245 3.845) 252 (7.185 1.335) 253 (8.905 -3.136) 254 (11.869 4.662) 255 (13.828 2.218) 256 (10.768 -1.063) 257 (7.912 -0.220) 258 (10.408 2.746) 259 (10.471 -3.282) 260 (7.564 -3.575) 261 (13.853 -1.954) 262 (6.517 4.224) 263 (6.289 2.672) 264 (8.759 -1.709) 265 (10.654 -4.456) 266 (11.224 1.064) 267 (8.952 -0.659) 268 (10.205 -0.435) 269 (11.303 -4.692) 270 (7.280 2.889) 271 (9.381 2.284) 272 (10.430 0.435) 273 (5.632 2.796) 274 (7.886 2.320) 275 (11.274 -2.025) 276 (8.946 0.619) 277 (8.503 -3.826) 278 (10.041 3.685) 279 (12.326 -3.945) 280 (10.011 -4.376) 281 (8.682 4.121) 282 (23.213 -0.130) 283 (18.830 -0.939) 284 (21.352 -0.905) 285 (22.181 2.129) 286 (19.889 3.348) 287 (22.283 -2.419) 288 (20.080 -4.689) 289 (16.206 1.028) 290 (14.673 1.976) 291 (18.340 -3.025) 292 (20.478 -0.637) 293 (19.936 -0.236) 294 (16.606 4.583) 295 (15.621 3.625) 296 (23.777 3.872) 297 (15.537 -0.880) 298 (16.889 -3.883) 299 (22.517 -0.581) 300 (21.331 -2.880) 301 (21.727 0.153) 302 (16.729 1.853) 303 (23.056 4.281) 304 (17.226 1.130) 305 (19.577 2.606) 306 (19.282 0.995) 307 (21.673 3.380) 308 (18.286 3.167) 309 (15.677 0.549) 310 (19.318 -4.619) 311 (21.655 0.900) 312 (20.913 -4.680) 313 (22.786 3.403) 314 (23.375 0.477) 315 (17.766 -4.702) 316 (18.697 3.930) 317 (23.989 1.270) 318 (23.234 1.611) 319 (17.498 -0.597) 320 (18.228 -1.638) 321 (20.211 -3.215) 322 (20.867 1.228) 323 (18.329 0.154) 324 (15.584 -1.566) 325 (22.602 2.708) 326 (23.611 -3.111) 327 (17.214 4.677) 328 (14.897 -0.708) 329 (17.728 -2.876) 330 (17.300 -2.043) 331 (16.822 -1.083) 332 (16.302 3.450) 333 (20.641 3.007) 334 (19.183 3.249) 335 (21.129 -0.172) 336 (19.035 -0.222) 337 (15.313 2.233) 338 (21.721 2.675) 339 (22.947 -3.118) 340 (22.172 -3.173) 341 (23.161 -1.237) 342 (16.344 -0.298) 343 (15.873 -2.720) 344 (19.554 1.856) 345 (21.168 3.822) 346 (20.932 1.885) 347 (17.226 3.507) 348 (20.275 0.882) 349 (22.458 4.645) 350 (17.959 2.359) 351 (16.633 -2.912)",
        "odom": "pose 81941720000000.000 7792354000000.000 116.954 390313400000000.000 -387077400000000.000 2830.471",
        "report": ""
    },
    {
        "clock": "1.0",
        "crowd": "id pose 2 (-17.336 0.941) 3 (-21.555 3.224) 4 (-19.436 1.458) 5 (-19.111 -1.229) 6 (-21.071 1.935) 7 (-22.557 -1.784) 8 (-19.754 -0.497) 9 (-20.714 -4.300) 10 (-18.645 1.713) 11 (-21.889 -0.027) 12 (-22.108 2.410) 13 (-19.246 -2.243) 14 (-22.326 -3.720) 15 (-18.780 3.359) 16 (-22.367 0.712) 17 (-19.450 3.752) 18 (-23.668 1.512) 19 (-21.040 0.804) 20 (-22.257 -1.151) 21 (-19.638 3.156) 22 (-22.897 4.050) 23 (-19.584 -1.711) 24 (-17.088 3.956) 25 (-16.130 0.914) 26 (-16.128 -1.168) 27 (-20.145 1.767) 28 (-20.513 -2.891) 29 (-18.521 -1.979) 30 (-16.857 -4.296) 31 (-16.598 3.238) 32 (-21.731 4.502) 33 (-18.214 -4.598) 34 (-17.651 -1.878) 35 (-23.421 -0.935) 36 (-23.682 0.467) 37 (-17.538 -3.406) 38 (-20.256 3.922) 39 (-17.298 2.590) 40 (-20.044 2.488) 41 (-20.193 -3.786) 42 (-16.578 1.551) 43 (-19.721 -3.190) 44 (-15.943 -1.834) 45 (-21.806 -1.636) 46 (-22.747 1.267) 47 (-15.657 3.609) 48 (-15.934 -0.209) 49 (-19.899 0.254) 50 (-17.940 -0.125) 51 (-16.825 -0.643) 52 (-22.753 -0.474) 53 (-16.730 -2.543) 54 (-20.542 4.555) 55 (-16.933 -1.798) 56 (-18.295 0.823) 57 (-23.177 -3.869) 58 (-18.330 4.129) 59 (-21.282 -0.411) 60 (-17.991 3.195) 61 (-18.059 4.735) 62 (-21.366 -2.634) 63 (-15.676 1.706) 64 (-17.533 -0.735) 65 (-16.059 4.161) 66 (-18.645 -0.270) 67 (-17.900 1.662) 68 (-22.341 3.176) 69 (-23.430 2.273) 70 (-21.030 -1.293) 71 (-16.751 0.609) 72 (-11.941 2.620) 73 (-8.344 -0.474) 74 (-11.155 -2.268) 75 (-9.942 2.935) 76 (-9.864 -3.793) 77 (-7.944 -4.635) 78 (-6.386 -3.678) 79 (-14.440 -2.023) 80 (-6.691 0.526) 81 (-7.786 4.260) 82 (-9.005 0.731) 83 (-10.681 0.103) 84 (-14.647 0.403) 85 (-9.116 4.382) 86 (-5.243 -2.225) 87 (-10.636 1.738) 88 (-11.845 -0.070) 89 (-10.903 3.694) 90 (-13.203 2.489) 91 (-11.025 -4.100) 92 (-12.556 1.648) 93 (-10.045 0.457) 94 (-7.283 1.219) 95 (-12.582 -1.625) 96 (-13.821 -4.102) 97 (-5.195 -0.168) 98 (-9.753 -2.824) 99 (-6.256 1.033) 100 (-8.625 -3.470) 101 (-10.673 -4.740) 102 (-5.538 1.326) 103 (-6.854 -2.611) 104 (-6.279 -1.766) 105 (-13.190 0.307) 106 (-13.083 4.347) 107 (-8.317 3.560) 108 (-13.772 -2.027) 109 (-10.657 -0.568) 110 (-11.715 3.241) 111 (-12.845 3.236) 112 (-9.292 -1.633) 113 (-13.337 -0.544) 114 (-7.292 -1.153) 115 (-10.299 1.161) 116 (-11.344 0.994) 117 (-13.207 1.523) 118 (-8.482 2.785) 119 (-11.159 2.838) 120 (-7.743 -2.682) 121 (-11.200 -1.173) 122 (-12.615 -2.780) 123 (-9.911 -1.635) 124 (-6.154 2.233) 125 (-8.904 -0.116) 126 (-12.576 -0.994) 127 (-6.847 -0.412) 128 (-5.780 0.443) 129 (-12.838 -3.607) 130 (-7.158 2.944) 131 (-12.210 -3.388) 132 (-7.302 -1.809) 133 (-14.178 0.971) 134 (-5.926 -2.332) 135 (-6.509 3.113) 136 (-11.930 1.308) 137 (-12.642 -0.328) 138 (-9.421 1.252) 139 (-7.690 -0.642) 140 (-13.774 1.882) 141 (-7.409 -3.949) 142 (-1.508 1.384) 143 (-0.823 1.335) 144 (0.976 -2.863) 145 (4.086 4.626) 146 (1.682 1.527) 147 (-1.656 -3.407) 148 (2.865 -1.060) 149 (2.368 0.305) 150 (-0.569 -2.431) 151 (-1.504 4.159) 152 (4.271 2.300) 153 (-0.454 -4.149) 154 (3.090 0.122) 155 (-1.488 2.913) 156 (-4.217 2.353) 157 (-1.466 -2.269) 158 (0.649 2.791) 159 (-3.014 -1.613) 160 (1.435 -0.682) 161 (-0.363 -1.022) 162 (-2.764 2.574) 163 (-4.069 0.963) 164 (1.322 0.366) 165 (-0.541 1.969) 166 (-2.799 4.704) 167 (2.893 3.638) 168 (-3.469 -2.569) 169 (3.189 2.255) 170 (-0.278 4.712) 171 (2.457 1.500) 172 (3.389 -3.126) 173 (-0.260 0.228) 174 (-0.317 0.888) 175 (-2.124 2.288) 176 (-2.709 -2.197) 177 (1.564 -2.490) 178 (1.399 4.681) 179 (3.597 3.068) 180 (0.280 -1.039) 181 (-3.437 1.289) 182 (-0.868 4.717) 183 (3.982 -1.956) 184 (1.832 -3.457) 185 (-2.040 -0.086) 186 (-2.719 -0.984) 187 (-2.339 -3.349) 188 (0.167 -2.497) 189 (-0.950 -0.032) 190 (0.854 1.632) 191 (-3.483 -3.280) 192 (-0.502 2.628) 193 (-2.888 0.060) 194 (-3.035 4.075) 195 (0.177 4.450) 196 (-1.544 -0.754) 197 (-1.062 -1.671) 198 (2.325 3.103) 199 (3.829 -1.130) 200 (-3.709 0.356) 201 (1.359 2.207) 202 (1.756 3.642) 203 (-3.661 -1.172) 204 (3.298 1.083) 205 (1.643 -4.137) 206 (0.371 -0.030) 207 (2.574 -4.733) 208 (4.234 -0.076) 209 (1.005 -1.246) 210 (1.481 -1.745) 211 (0.511 1.037) 212 (7.766 -0.936) 213 (9.210 3.600) 214 (13.783 3.909) 215 (9.460 -0.196) 216 (12.965 -4.170) 217 (9.250 1.172) 218 (9.110 4.658) 219 (11.613 1.975) 220 (8.005 1.592) 221 (7.090 1.981) 222 (12.574 1.641) 223 (5.804 1.588) 224 (11.866 1.340) 225 (10.582 4.100) 226 (9.450 -4.108) 227 (11.506 3.964) 228 (14.005 3.126) 229 (13.975 1.049) 230 (7.871 3.101) 231 (8.247 0.437) 232 (9.603 -2.664) 233 (11.932 -0.738) 234 (12.599 -1.471) 235 (9.950 -1.098) 236 (5.279 1.180) 237 (8.324 -4.351) 238 (11.888 -2.775) 239 (6.989 0.075) 240 (10.595 -2.326) 241 (11.010 3.238) 242 (8.672 2.469) 243 (13.064 -2.017) 244 (6.109 0.918) 245 (12.856 -0.232) 246 (7.740 -1.641) 247 (7.942 4.570) 248 (12.218 2.597) 249 (12.809 4.678) 250 (11.501 -0.139) 251 (7.336 3.889) 252 (7.249 1.304) 253 (8.895 -3.193) 254 (11.776 4.741) 255 (13.775 2.306) 256 (10.783 -1.087) 257 (7.844 -0.236) 258 (10.434 2.760) 259 (10.473 -3.204) 260 (7.577 -3.707) 261 (13.848 -1.843) 262 (6.583 4.328) 263 (6.314 2.670) 264 (8.793 -1.627) 265 (10.575 -4.530) 266 (11.236 0.981) 267 (8.978 -0.603) 268 (10.257 -0.457) 269 (11.306 -4.693) 270 (7.266 2.839) 271 (9.365 2.241) 272 (10.401 0.478) 273 (5.655 2.702) 274 (7.877 2.298) 275 (11.262 -2.072) 276 (8.935 0.606) 277 (8.603 -3.853) 278 (10.064 3.664) 279 (12.273 -3.954) 280 (10.135 -4.266) 281 (8.729 3.991) 282 (23.154 -0.060) 283 (18.789 -0.962) 284 (21.342 -0.877) 285 (22.208 2.227) 286 (19.846 3.493) 287 (22.287 -2.575) 288 (19.942 4.675) 289 (16.184 0.934) 290 (14.589 2.044) 291 (18.395 -2.968) 292 (20.468 -0.624) 293 (19.928 -0.220) 294 (16.575 4.521) 295 (15.607 3.613) 296 (23.716 4.013) 297 (15.480 -0.850) 298 (16.807 -3.976) 299 (22.463 -0.670) 300 (21.239 -2.977) 301 (21.737 0.126) 302 (16.777 1.773) 303 (22.988 4.356) 304 (17.320 1.233) 305 (19.579 2.703) 306 (19.287 1.101) 307 (21.620 3.446) 308 (18.228 3.264) 309 (15.675 0.439) 310 (19.195 4.681) 311 (21.617 0.856) 312 (21.132 -4.643) 313 (22.823 3.521) 314 (23.440 0.457) 315 (17.782 -4.657) 316 (18.709 3.936) 317 (23.957 1.214) 318 (23.231 1.762) 319 (17.497 -0.626) 320 (18.147 -1.710) 321 (20.211 -3.343) 322 (20.814 1.195) 323 (18.365 0.255) 324 (15.655 -1.488) 325 (22.605 2.819) 326 (23.598 -3.280) 327 (17.281 -4.661) 328 (14.793 -0.945) 329 (17.792 -2.811) 330 (17.342 -2.139) 331 (16.831 -1.152) 332 (16.283 3.447) 333 (20.629 3.064) 334 (19.131 3.252) 335 (21.083 -0.146) 336 (19.063 -0.309) 337 (15.318 2.122) 338 (21.743 2.763) 339 (22.949 -3.002) 340 (22.088 -3.293) 341 (23.139 -1.184) 342 (16.399 -0.278) 343 (15.912 -2.611) 344 (19.581 1.957) 345 (21.100 3.865) 346 (20.927 1.846) 347 (17.235 3.663) 348 (20.218 0.860) 349 (22.448 -4.731) 350 (17.857 2.376) 351 (16.693 -3.025)",
        "odom": "pose 24854530000000.000 27612930000000.000 22.402 -570871800000000.000 198205700000000.000 -945.520",
        "report": ""
    },
    {
        "clock": "1.1",
        "crowd": "id pose 2 (-17.354 0.912) 3 (-21.475 3.251) 4 (-19.389 1.486) 5 (-19.217 -1.218) 6 (-21.138 2.029) 7 (-22.511 -1.879) 8 (-19.720 -0.494) 9 (-20.620 -4.389) 10 (-18.606 1.727) 11 (-21.864 -0.064) 12 (-22.174 2.506) 13 (-19.276 -2.352) 14 (-22.250 -3.690) 15 (-18.756 3.494) 16 (-22.288 0.726) 17 (-19.441 3.708) 18 (-23.738 1.501) 19 (-20.996 0.719) 20 (-22.260 -1.213) 21 (-19.690 3.121) 22 (-22.850 4.179) 23 (-19.625 -1.818) 24 (-17.189 3.974) 25 (-16.102 0.858) 26 (-16.121 -1.185) 27 (-20.130 1.696) 28 (-20.547 -2.870) 29 (-18.584 -2.054) 30 (-16.979 -4.360) 31 (-16.681 3.320) 32 (-21.699 4.415) 33 (-18.182 -4.730) 34 (-17.672 -1.861) 35 (-23.381 -0.865) 36 (-23.678 0.545) 37 (-17.622 -3.280) 38 (-20.171 4.042) 39 (-17.313 2.671) 40 (-20.078 2.426) 41 (-20.114 -3.788) 42 (-16.599 1.577) 43 (-19.788 -3.181) 44 (-15.884 -1.817) 45 (-21.787 -1.675) 46 (-22.781 1.222) 47 (-15.684 3.604) 48 (-16.006 -0.240) 49 (-19.845 0.259) 50 (-17.941 -0.135) 51 (-16.870 -0.677) 52 (-22.715 -0.514) 53 (-16.756 -2.498) 54 (-20.468 4.671) 55 (-16.922 -1.764) 56 (-18.305 0.850) 57 (-23.199 -4.001) 58 (-18.289 4.211) 59 (-21.320 -0.492) 60 (-18.061 3.231) 61 (-18.107 -4.654) 62 (-21.298 -2.564) 63 (-15.673 1.711) 64 (-17.576 -0.754) 65 (-16.116 4.119) 66 (-18.641 -0.286) 67 (-17.871 1.700) 68 (-22.324 3.250) 69 (-23.347 2.178) 70 (-21.034 -1.310) 71 (-16.744 0.656) 72 (-11.886 2.639) 73 (-8.309 -0.390) 74 (-11.122 -2.174) 75 (-9.952 2.807) 76 (-9.835 -3.936) 77 (-7.860 4.732) 78 (-6.422 -3.605) 79 (-14.431 -1.925) 80 (-6.672 0.417) 81 (-7.847 4.383) 82 (-9.023 0.680) 83 (-10.620 0.034) 84 (-14.671 0.457) 85 (-9.228 4.418) 86 (-5.205 -2.374) 87 (-10.683 1.670) 88 (-11.786 -0.048) 89 (-10.981 3.776) 90 (-13.274 2.588) 91 (-11.074 -4.207) 92 (-12.551 1.660) 93 (-10.038 0.429) 94 (-7.280 1.084) 95 (-12.509 -1.565) 96 (-13.777 -4.209) 97 (-5.156 -0.118) 98 (-9.689 -2.955) 99 (-6.296 0.966) 100 (-8.605 -3.595) 101 (-10.754 4.651) 102 (-5.564 1.229) 103 (-6.869 -2.551) 104 (-6.288 -1.789) 105 (-13.068 0.413) 106 (-12.995 4.443) 107 (-8.250 3.680) 108 (-13.762 -2.143) 109 (-10.585 -0.635) 110 (-11.619 3.243) 111 (-12.836 3.182) 112 (-9.337 -1.729) 113 (-13.321 -0.480) 114 (-7.315 -1.195) 115 (-10.308 1.113) 116 (-11.383 0.957) 117 (-13.202 1.550) 118 (-8.540 2.932) 119 (-11.128 2.737) 120 (-7.725 -2.655) 121 (-11.158 -1.109) 122 (-12.689 -2.900) 123 (-9.962 -1.665) 124 (-6.211 2.143) 125 (-8.922 -0.153) 126 (-12.500 -0.926) 127 (-6.928 -0.460) 128 (-5.757 0.373) 129 (-12.755 -3.660) 130 (-7.238 3.046) 131 (-12.118 -3.477) 132 (-7.366 -1.814) 133 (-14.155 0.919) 134 (-5.859 -2.291) 135 (-6.540 3.015) 136 (-11.918 1.399) 137 (-12.631 -0.297) 138 (-9.426 1.212) 139 (-7.784 -0.781) 140 (-13.813 1.800) 141 (-7.450 -3.854) 142 (-1.547 1.498) 143 (-0.878 1.301) 144 (0.987 -2.809) 145 (4.090 4.574) 146 (1.692 1.616) 147 (-1.684 -3.332) 148 (2.819 -1.071) 149 (2.350 0.256) 150 (-0.566 -2.379) 151 (-1.518 4.249) 152 (4.237 2.273) 153 (-0.451 -4.258) 154 (3.103 0.061) 155 (-1.539 3.065) 156 (-4.193 2.284) 157 (-1.457 -2.276) 158 (0.675 2.807) 159 (-3.085 -1.641) 160 (1.431 -0.703) 161 (-0.362 -0.961) 162 (-2.745 2.692) 163 (-4.111 0.990) 164 (1.350 0.377) 165 (-0.522 1.963) 166 (-2.690 -4.692) 167 (2.913 3.741) 168 (-3.424 -2.542) 169 (3.271 2.319) 170 (-0.371 4.612) 171 (2.504 1.591) 172 (3.378 -3.240) 173 (-0.192 0.242) 174 (-0.304 0.909) 175 (-2.098 2.399) 176 (-2.652 -2.161) 177 (1.682 -2.535) 178 (1.437 -4.714) 179 (3.524 3.080) 180 (0.282 -1.076) 181 (-3.344 1.193) 182 (-0.921 4.701) 183 (3.950 -1.939) 184 (1.787 -3.588) 185 (-2.057 -0.134) 186 (-2.783 -1.019) 187 (-2.334 -3.470) 188 (0.191 -2.475) 189 (-0.939 0.032) 190 (0.865 1.680) 191 (-3.418 -3.245) 192 (-0.445 2.619) 193 (-2.871 -0.045) 194 (-3.080 4.214) 195 (0.233 4.513) 196 (-1.532 -0.751) 197 (-1.071 -1.668) 198 (2.339 3.231) 199 (3.757 -1.157) 200 (-3.683 0.398) 201 (1.382 2.294) 202 (1.787 3.775) 203 (-3.635 -1.070) 204 (3.246 1.097) 205 (1.547 -4.231) 206 (0.396 -0.075) 207 (2.515 -4.605) 208 (4.213 -0.150) 209 (0.993 -1.265) 210 (1.492 -1.733) 211 (0.524 1.060) 212 (7.848 -1.011) 213 (9.294 3.607) 214 (13.791 3.876) 215 (9.530 -0.173) 216 (12.864 -4.257) 217 (9.237 1.163) 218 (9.080 4.695) 219 (11.636 1.865) 220 (8.040 1.601) 221 (7.102 1.919) 222 (12.593 1.702) 223 (5.759 1.532) 224 (11.881 1.228) 225 (10.550 4.131) 226 (9.543 -4.130) 227 (11.450 4.055) 228 (14.096 3.103) 229 (13.976 1.155) 230 (7.842 3.066) 231 (8.227 0.326) 232 (9.574 -2.709) 233 (11.906 -0.792) 234 (12.586 -1.475) 235 (9.943 -1.084) 236 (5.285 1.067) 237 (8.273 -4.291) 238 (11.894 -2.715) 239 (6.970 -0.053) 240 (10.530 -2.271) 241 (11.009 3.263) 242 (8.653 2.515) 243 (13.087 -1.937) 244 (6.149 0.965) 245 (12.831 -0.280) 246 (7.712 -1.670) 247 (8.052 4.445) 248 (12.174 2.497) 249 (12.750 4.636) 250 (11.519 -0.191) 251 (7.432 3.934) 252 (7.312 1.273) 253 (8.882 -3.235) 254 (11.683 -4.679) 255 (13.723 2.394) 256 (10.795 -1.112) 257 (7.792 -0.282) 258 (10.464 2.775) 259 (10.474 -3.120) 260 (7.584 -3.840) 261 (13.843 -1.732) 262 (6.654 4.405) 263 (6.339 2.669) 264 (8.830 -1.547) 265 (10.567 -4.650) 266 (11.248 0.899) 267 (8.998 -0.549) 268 (10.298 -0.480) 269 (11.314 -4.693) 270 (7.255 2.792) 271 (9.349 2.199) 272 (10.365 0.515) 273 (5.677 2.608) 274 (7.866 2.276) 275 (11.251 -2.113) 276 (8.917 0.586) 277 (8.732 -3.856) 278 (10.096 3.643) 279 (12.222 -3.962) 280 (10.163 -4.133) 281 (8.772 3.871) 282 (23.067 -0.001) 283 (18.747 -0.982) 284 (21.333 -0.848) 285 (22.235 2.325) 286 (19.885 3.674) 287 (22.254 -2.714) 288 (19.864 4.646) 289 (16.161 0.838) 290 (14.505 2.112) 291 (18.464 -2.916) 292 (20.456 -0.612) 293 (19.918 -0.204) 294 (16.563 4.465) 295 (15.592 3.601) 296 (23.647 4.154) 297 (15.418 -0.810) 298 (16.761 -4.061) 299 (22.410 -0.759) 300 (21.147 -3.075) 301 (21.753 0.071) 302 (16.825 1.695) 303 (22.884 4.474) 304 (17.413 1.323) 305 (19.579 2.798) 306 (19.294 1.209) 307 (21.567 3.513) 308 (18.156 3.377) 309 (15.673 0.329) 310 (19.068 4.552) 311 (21.580 0.812) 312 (21.282 -4.665) 313 (22.860 3.639) 314 (23.495 0.460) 315 (17.920 -4.693) 316 (18.712 3.894) 317 (23.926 1.167) 318 (23.227 1.913) 319 (17.493 -0.675) 320 (18.063 -1.778) 321 (20.211 -3.470) 322 (20.760 1.165) 323 (18.431 0.355) 324 (15.725 -1.411) 325 (22.608 2.929) 326 (23.587 -3.452) 327 (17.259 -4.553) 328 (14.744 -1.114) 329 (17.845 -2.755) 330 (17.350 -2.232) 331 (16.840 -1.219) 332 (16.265 3.432) 333 (20.622 3.116) 334 (19.091 3.245) 335 (21.038 -0.122) 336 (19.086 -0.390) 337 (15.317 1.995) 338 (21.766 2.852) 339 (22.951 -2.878) 340 (22.005 -3.411) 341 (23.111 -1.109) 342 (16.459 -0.261) 343 (15.952 -2.500) 344 (19.604 2.061) 345 (21.033 3.909) 346 (20.932 1.803) 347 (17.243 3.819) 348 (20.162 0.838) 349 (22.480 -4.602) 350 (17.780 2.409) 351 (16.750 -3.137)",
        "odom": "pose 14985630000000.000 26785840000000.000 -34.175 -98688990000000.000 -8270898000000.000 -565.766",
        "report": ""
    },
    {
        "clock": "1.2",
        "crowd": "id pose 2 (-17.374 0.878) 3 (-21.400 3.266) 4 (-19.369 1.504) 5 (-19.326 -1.203) 6 (-21.205 2.122) 7 (-22.464 -1.975) 8 (-19.702 -0.483) 9 (-20.528 -4.480) 10 (-18.567 1.742) 11 (-21.838 -0.102) 12 (-22.239 2.605) 13 (-19.308 -2.461) 14 (-22.177 -3.673) 15 (-18.732 3.627) 16 (-22.224 0.757) 17 (-19.427 3.652) 18 (-23.807 1.491) 19 (-20.939 0.625) 20 (-22.264 -1.277) 21 (-19.739 3.086) 22 (-22.803 4.309) 23 (-19.678 -1.883) 24 (-17.290 3.994) 25 (-16.077 0.782) 26 (-16.118 -1.205) 27 (-20.114 1.604) 28 (-20.562 -2.839) 29 (-18.647 -2.133) 30 (-17.098 -4.422) 31 (-16.764 3.402) 32 (-21.667 4.329) 33 (-18.393 4.392) 34 (-17.690 -1.850) 35 (-23.341 -0.796) 36 (-23.675 0.622) 37 (-17.705 -3.155) 38 (-20.088 4.165) 39 (-17.328 2.752) 40 (-20.106 2.353) 41 (-20.030 -3.801) 42 (-16.617 1.603) 43 (-19.858 -3.167) 44 (-15.825 -1.801) 45 (-21.776 -1.721) 46 (-22.816 1.178) 47 (-15.711 3.600) 48 (-16.079 -0.270) 49 (-19.794 0.283) 50 (-17.942 -0.147) 51 (-16.915 -0.710) 52 (-22.677 -0.554) 53 (-16.786 -2.452) 54 (-20.384 -4.706) 55 (-16.910 -1.730) 56 (-18.310 0.880) 57 (-23.221 -4.132) 58 (-18.254 4.310) 59 (-21.358 -0.573) 60 (-18.119 3.255) 61 (-17.895 -4.285) 62 (-21.230 -2.491) 63 (-15.678 1.699) 64 (-17.617 -0.771) 65 (-16.173 4.078) 66 (-18.636 -0.300) 67 (-17.843 1.739) 68 (-22.301 3.325) 69 (-23.265 2.083) 70 (-21.039 -1.326) 71 (-16.737 0.703) 72 (-11.831 2.659) 73 (-8.302 -0.356) 74 (-11.088 -2.082) 75 (-9.962 2.680) 76 (-9.806 -4.079) 77 (-7.691 -4.624) 78 (-6.456 -3.535) 79 (-14.419 -1.824) 80 (-6.654 0.307) 81 (-8.005 4.319) 82 (-9.041 0.630) 83 (-10.561 -0.036) 84 (-14.696 0.515) 85 (-9.313 4.501) 86 (-5.166 -2.523) 87 (-10.730 1.606) 88 (-11.728 -0.022) 89 (-11.116 3.850) 90 (-13.344 2.687) 91 (-11.123 -4.314) 92 (-12.546 1.671) 93 (-10.030 0.402) 94 (-7.276 0.949) 95 (-12.439 -1.499) 96 (-13.734 -4.316) 97 (-5.117 -0.063) 98 (-9.625 -3.087) 99 (-6.341 0.895) 100 (-8.586 -3.719) 101 (-10.803 4.584) 102 (-5.590 1.132) 103 (-6.884 -2.496) 104 (-6.296 -1.812) 105 (-12.946 0.518) 106 (-12.907 4.540) 107 (-8.212 3.804) 108 (-13.753 -2.264) 109 (-10.513 -0.702) 110 (-11.523 3.244) 111 (-12.827 3.131) 112 (-9.388 -1.827) 113 (-13.311 -0.390) 114 (-7.328 -1.226) 115 (-10.314 1.064) 116 (-11.423 0.926) 117 (-13.199 1.575) 118 (-8.597 3.079) 119 (-11.098 2.636) 120 (-7.706 -2.630) 121 (-11.114 -1.047) 122 (-12.761 -3.023) 123 (-10.010 -1.693) 124 (-6.268 2.053) 125 (-8.930 -0.205) 126 (-12.426 -0.860) 127 (-7.009 -0.510) 128 (-5.734 0.303) 129 (-12.670 -3.712) 130 (-7.331 3.137) 131 (-12.026 -3.566) 132 (-7.430 -1.841) 133 (-14.127 0.858) 134 (-5.793 -2.249) 135 (-6.585 2.916) 136 (-11.899 1.483) 137 (-12.628 -0.298) 138 (-9.432 1.169) 139 (-7.903 -0.890) 140 (-13.852 1.719) 141 (-7.493 -3.762) 142 (-1.593 1.624) 143 (-0.942 1.254) 144 (1.000 -2.757) 145 (4.076 4.511) 146 (1.698 1.705) 147 (-1.713 -3.255) 148 (2.775 -1.078) 149 (2.325 0.203) 150 (-0.556 -2.297) 151 (-1.567 4.392) 152 (4.205 2.245) 153 (-0.451 -4.368) 154 (3.111 -0.008) 155 (-1.593 3.211) 156 (-4.171 2.216) 157 (-1.449 -2.280) 158 (0.695 2.824) 159 (-3.156 -1.670) 160 (1.429 -0.720) 161 (-0.351 -0.880) 162 (-2.726 2.810) 163 (-4.153 1.017) 164 (1.368 0.413) 165 (-0.498 1.958) 166 (-2.567 -4.640) 167 (2.933 3.843) 168 (-3.386 -2.517) 169 (3.333 2.368) 170 (-0.400 4.475) 171 (2.567 1.694) 172 (3.368 -3.354) 173 (-0.135 0.265) 174 (-0.292 0.929) 175 (-2.086 2.502) 176 (-2.598 -2.117) 177 (1.789 -2.589) 178 (1.439 4.695) 179 (3.449 3.095) 180 (0.281 -1.114) 181 (-3.249 1.094) 182 (-1.011 4.705) 183 (3.916 -1.923) 184 (1.699 -3.668) 185 (-2.067 -0.188) 186 (-2.836 -1.064) 187 (-2.334 -3.530) 188 (0.215 -2.457) 189 (-0.927 0.098) 190 (0.876 1.728) 191 (-3.355 -3.211) 192 (-0.390 2.609) 193 (-2.858 -0.145) 194 (-3.125 4.353) 195 (0.249 4.614) 196 (-1.499 -0.754) 197 (-1.078 -1.656) 198 (2.353 3.359) 199 (3.688 -1.181) 200 (-3.657 0.441) 201 (1.404 2.381) 202 (1.819 3.908) 203 (-3.607 -0.971) 204 (3.197 1.137) 205 (1.478 -4.227) 206 (0.422 -0.117) 207 (2.464 -4.465) 208 (4.197 -0.226) 209 (0.984 -1.280) 210 (1.502 -1.722) 211 (0.529 1.097) 212 (7.930 -1.086) 213 (9.407 3.600) 214 (13.799 3.844) 215 (9.597 -0.165) 216 (12.765 -4.346) 217 (9.221 1.148) 218 (9.050 4.732) 219 (11.659 1.755) 220 (8.071 1.606) 221 (7.113 1.855) 222 (12.610 1.764) 223 (5.714 1.476) 224 (11.897 1.116) 225 (10.521 4.156) 226 (9.583 -4.181) 227 (11.388 4.152) 228 (14.178 3.080) 229 (13.976 1.261) 230 (7.819 3.033) 231 (8.206 0.215) 232 (9.556 -2.765) 233 (11.880 -0.844) 234 (12.574 -1.479) 235 (9.949 -1.075) 236 (5.296 0.958) 237 (8.227 -4.214) 238 (11.900 -2.665) 239 (6.951 -0.178) 240 (10.453 -2.211) 241 (11.016 3.293) 242 (8.629 2.556) 243 (13.114 -1.858) 244 (6.188 1.007) 245 (12.812 -0.325) 246 (7.686 -1.699) 247 (8.162 4.326) 248 (12.129 2.394) 249 (12.688 4.655) 250 (11.533 -0.241) 251 (7.529 3.978) 252 (7.372 1.239) 253 (8.862 -3.316) 254 (11.777 -4.578) 255 (13.674 2.485) 256 (10.806 -1.135) 257 (7.747 -0.343) 258 (10.499 2.786) 259 (10.469 -3.027) 260 (7.568 -3.972) 261 (13.841 -1.623) 262 (6.733 4.475) 263 (6.356 2.658) 264 (8.866 -1.468) 265 (10.494 -4.740) 266 (11.260 0.814) 267 (9.022 -0.491) 268 (10.331 -0.503) 269 (11.142 -4.700) 270 (7.238 2.744) 271 (9.333 2.158) 272 (10.326 0.544) 273 (5.701 2.518) 274 (7.857 2.255) 275 (11.238 -2.173) 276 (8.892 0.559) 277 (8.824 -3.887) 278 (10.133 3.622) 279 (12.170 -3.968) 280 (10.208 -4.021) 281 (8.786 3.767) 282 (22.988 0.082) 283 (18.704 -0.999) 284 (21.326 -0.822) 285 (22.262 2.423) 286 (19.938 3.844) 287 (22.222 -2.852) 288 (19.745 4.610) 289 (16.138 0.739) 290 (14.421 2.181) 291 (18.524 -2.874) 292 (20.444 -0.599) 293 (19.908 -0.189) 294 (16.565 4.410) 295 (15.576 3.589) 296 (23.577 4.295) 297 (15.355 -0.766) 298 (16.697 -4.114) 299 (22.356 -0.849) 300 (21.055 -3.173) 301 (21.776 -0.007) 302 (16.876 1.619) 303 (22.781 4.592) 304 (17.505 1.408) 305 (19.587 2.888) 306 (19.301 1.318) 307 (21.513 3.580) 308 (18.082 3.494) 309 (15.672 0.218) 310 (18.970 4.467) 311 (21.543 0.770) 312 (21.411 -4.674) 313 (22.897 3.757) 314 (23.533 0.454) 315 (17.987 4.703) 316 (18.669 3.838) 317 (23.900 1.142) 318 (23.224 2.065) 319 (17.492 -0.735) 320 (17.965 -1.845) 321 (20.213 -3.615) 322 (20.707 1.137) 323 (18.517 0.466) 324 (15.795 -1.334) 325 (22.611 3.040) 326 (23.574 -3.623) 327 (17.237 -4.516) 328 (14.761 -1.241) 329 (17.894 -2.701) 330 (17.359 -2.321) 331 (16.850 -1.282) 332 (16.247 3.414) 333 (20.616 3.168) 334 (19.027 3.225) 335 (20.993 -0.097) 336 (19.104 -0.467) 337 (15.314 1.857) 338 (21.789 2.941) 339 (22.939 -2.764) 340 (21.923 -3.528) 341 (23.065 -1.023) 342 (16.522 -0.249) 343 (15.991 -2.391) 344 (19.626 2.165) 345 (20.968 3.956) 346 (20.940 1.755) 347 (17.252 3.975) 348 (20.106 0.816) 349 (22.509 -4.486) 350 (17.700 2.439) 351 (16.856 -3.225)",
        "odom": "pose 29229620000000.000 2634612000000.000 103.749 142439800000000.000 -241512300000000.000 1379.232",
        "report": ""
    },
    {
        "clock": "1.3",
        "crowd": "id pose 2 (-17.391 0.839) 3 (-21.327 3.274) 4 (-19.353 1.506) 5 (-19.432 -1.188) 6 (-21.272 2.216) 7 (-22.418 -2.070) 8 (-19.675 -0.462) 9 (-20.712 -4.354) 10 (-18.541 1.787) 11 (-21.825 -0.132) 12 (-22.304 2.707) 13 (-19.357 -2.548) 14 (-22.106 -3.661) 15 (-18.797 3.612) 16 (-22.167 0.828) 17 (-19.457 3.577) 18 (-23.876 1.482) 19 (-20.883 0.533) 20 (-22.252 -1.358) 21 (-19.789 3.050) 22 (-22.757 4.438) 23 (-19.721 -1.953) 24 (-17.389 4.017) 25 (-16.061 0.726) 26 (-16.080 -1.210) 27 (-20.090 1.508) 28 (-20.579 -2.808) 29 (-18.703 -2.175) 30 (-17.217 -4.481) 31 (-16.848 3.484) 32 (-21.635 4.243) 33 (-18.761 4.363) 34 (-17.706 -1.842) 35 (-23.301 -0.729) 36 (-23.672 0.698) 37 (-17.789 -3.029) 38 (-20.006 4.288) 39 (-17.343 2.832) 40 (-20.138 2.303) 41 (-19.923 -3.804) 42 (-16.634 1.631) 43 (-19.927 -3.152) 44 (-15.767 -1.786) 45 (-21.760 -1.763) 46 (-22.850 1.133) 47 (-15.738 3.595) 48 (-16.150 -0.301) 49 (-19.741 0.317) 50 (-17.942 -0.159) 51 (-16.961 -0.742) 52 (-22.639 -0.584) 53 (-16.839 -2.396) 54 (-20.088 4.609) 55 (-16.909 -1.700) 56 (-18.318 0.915) 57 (-23.243 -4.264) 58 (-17.950 4.252) 59 (-21.396 -0.653) 60 (-18.176 3.280) 61 (-17.743 -4.035) 62 (-21.159 -2.415) 63 (-15.688 1.662) 64 (-17.658 -0.790) 65 (-16.230 4.036) 66 (-18.639 -0.318) 67 (-17.816 1.780) 68 (-22.276 3.400) 69 (-23.182 1.989) 70 (-21.042 -1.341) 71 (-16.735 0.747) 72 (-11.778 2.683) 73 (-8.300 -0.353) 74 (-11.054 -1.991) 75 (-9.970 2.556) 76 (-9.777 -4.222) 77 (-7.577 -4.614) 78 (-6.487 -3.463) 79 (-14.410 -1.723) 80 (-6.635 0.198) 81 (-8.096 4.402) 82 (-9.058 0.572) 83 (-10.502 -0.107) 84 (-14.723 0.582) 85 (-9.359 4.631) 86 (-5.167 -2.667) 87 (-10.776 1.546) 88 (-11.672 0.005) 89 (-11.240 3.904) 90 (-13.412 2.788) 91 (-11.172 -4.421) 92 (-12.552 1.675) 93 (-10.021 0.376) 94 (-7.273 0.815) 95 (-12.374 -1.430) 96 (-13.690 -4.422) 97 (-5.077 -0.007) 98 (-9.562 -3.218) 99 (-6.382 0.815) 100 (-8.566 -3.844) 101 (-10.848 4.515) 102 (-5.616 1.036) 103 (-6.895 -2.448) 104 (-6.295 -1.847) 105 (-12.830 0.617) 106 (-12.820 4.636) 107 (-8.191 3.879) 108 (-13.743 -2.390) 109 (-10.441 -0.769) 110 (-11.407 3.230) 111 (-12.818 3.083) 112 (-9.444 -1.925) 113 (-13.303 -0.288) 114 (-7.353 -1.237) 115 (-10.319 1.017) 116 (-11.469 0.890) 117 (-13.213 1.617) 118 (-8.700 3.182) 119 (-11.068 2.535) 120 (-7.688 -2.610) 121 (-11.068 -0.987) 122 (-12.833 -3.148) 123 (-10.055 -1.717) 124 (-6.325 1.963) 125 (-8.942 -0.263) 126 (-12.344 -0.824) 127 (-7.089 -0.556) 128 (-5.711 0.233) 129 (-12.586 -3.765) 130 (-7.411 3.240) 131 (-11.934 -3.654) 132 (-7.510 -1.877) 133 (-14.100 0.803) 134 (-5.726 -2.191) 135 (-6.669 2.807) 136 (-11.885 1.572) 137 (-12.642 -0.313) 138 (-9.437 1.127) 139 (-8.009 -1.009) 140 (-13.872 1.641) 141 (-7.528 -3.682) 142 (-1.626 1.745) 143 (-1.011 1.201) 144 (1.013 -2.707) 145 (4.065 4.454) 146 (1.706 1.785) 147 (-1.743 -3.179) 148 (2.732 -1.085) 149 (2.298 0.152) 150 (-0.540 -2.204) 151 (-1.558 4.511) 152 (4.174 2.216) 153 (-0.437 -4.470) 154 (3.115 -0.078) 155 (-1.669 3.357) 156 (-4.150 2.152) 157 (-1.444 -2.276) 158 (0.707 2.841) 159 (-3.226 -1.698) 160 (1.427 -0.737) 161 (-0.333 -0.792) 162 (-2.715 2.916) 163 (-4.194 1.043) 164 (1.377 0.470) 165 (-0.477 1.953) 166 (-2.445 -4.588) 167 (2.953 3.946) 168 (-3.353 -2.494) 169 (3.389 2.413) 170 (-0.430 4.318) 171 (2.623 1.796) 172 (3.358 -3.468) 173 (-0.073 0.302) 174 (-0.280 0.949) 175 (-2.071 2.613) 176 (-2.545 -2.075) 177 (1.895 -2.641) 178 (1.448 4.700) 179 (3.377 3.109) 180 (0.278 -1.150) 181 (-3.150 0.992) 182 (-1.072 4.724) 183 (3.881 -1.908) 184 (1.665 -3.775) 185 (-2.078 -0.242) 186 (-2.884 -1.113) 187 (-2.314 -3.572) 188 (0.239 -2.441) 189 (-0.915 0.163) 190 (0.890 1.775) 191 (-3.293 -3.177) 192 (-0.336 2.599) 193 (-2.846 -0.240) 194 (-3.169 4.492) 195 (0.228 4.719) 196 (-1.467 -0.758) 197 (-1.084 -1.642) 198 (2.367 3.489) 199 (3.620 -1.204) 200 (-3.630 0.484) 201 (1.451 2.501) 202 (1.943 4.178) 203 (-3.576 -0.875) 204 (3.139 1.197) 205 (1.367 -4.295) 206 (0.458 -0.133) 207 (2.405 -4.337) 208 (4.189 -0.316) 209 (0.976 -1.291) 210 (1.511 -1.711) 211 (0.531 1.138) 212 (8.011 -1.161) 213 (9.485 3.603) 214 (13.803 3.816) 215 (9.660 -0.165) 216 (12.684 -4.447) 217 (9.203 1.131) 218 (9.021 -4.732) 219 (11.682 1.645) 220 (8.099 1.609) 221 (7.123 1.790) 222 (12.624 1.825) 223 (5.671 1.414) 224 (11.913 1.007) 225 (10.506 4.171) 226 (9.643 -4.210) 227 (11.327 4.249) 228 (14.257 3.057) 229 (13.974 1.361) 230 (7.795 3.001) 231 (8.185 0.105) 232 (9.523 -2.831) 233 (11.854 -0.896) 234 (12.559 -1.481) 235 (9.957 -1.070) 236 (5.307 0.850) 237 (8.195 -4.184) 238 (11.906 -2.620) 239 (6.931 -0.299) 240 (10.372 -2.146) 241 (11.014 3.348) 242 (8.602 2.573) 243 (13.148 -1.783) 244 (6.227 1.042) 245 (12.799 -0.367) 246 (7.660 -1.729) 247 (8.271 4.224) 248 (12.085 2.290) 249 (12.609 4.700) 250 (11.546 -0.291) 251 (7.626 4.022) 252 (7.435 1.208) 253 (8.834 -3.330) 254 (11.822 -4.526) 255 (13.625 2.576) 256 (10.816 -1.156) 257 (7.705 -0.412) 258 (10.538 2.793) 259 (10.462 -2.932) 260 (7.537 -4.100) 261 (13.837 -1.513) 262 (6.813 4.545) 263 (6.363 2.639) 264 (8.907 -1.389) 265 (10.400 4.681) 266 (11.269 0.729) 267 (9.048 -0.432) 268 (10.363 -0.526) 269 (11.037 -4.734) 270 (7.219 2.698) 271 (9.320 2.117) 272 (10.306 0.560) 273 (5.725 2.429) 274 (7.846 2.233) 275 (11.234 -2.244) 276 (8.864 0.530) 277 (8.907 -3.969) 278 (10.186 3.600) 279 (12.182 -3.929) 280 (10.241 -3.949) 281 (8.849 3.667) 282 (22.922 0.179) 283 (18.656 -1.013) 284 (21.319 -0.797) 285 (22.290 2.521) 286 (19.988 4.006) 287 (22.190 -2.988) 288 (19.626 4.584) 289 (16.115 0.639) 290 (14.338 2.251) 291 (18.575 -2.835) 292 (20.432 -0.586) 293 (19.897 -0.176) 294 (16.577 4.353) 295 (15.561 3.577) 296 (23.507 4.435) 297 (15.292 -0.724) 298 (16.633 -4.164) 299 (22.303 -0.938) 300 (20.961 -3.280) 301 (21.798 -0.081) 302 (16.930 1.545) 303 (22.683 4.710) 304 (17.593 1.488) 305 (19.587 2.978) 306 (19.314 1.422) 307 (21.459 3.647) 308 (17.999 3.603) 309 (15.670 0.107) 310 (18.896 4.371) 311 (21.507 0.730) 312 (21.531 -4.670) 313 (22.934 3.876) 314 (23.549 0.438) 315 (18.031 4.619) 316 (18.619 3.781) 317 (23.877 1.124) 318 (23.221 2.216) 319 (17.500 -0.808) 320 (17.869 -1.910) 321 (20.207 -3.750) 322 (20.655 1.112) 323 (18.604 0.585) 324 (15.864 -1.256) 325 (22.613 3.151) 326 (23.551 -3.785) 327 (17.214 -4.479) 328 (14.804 -1.356) 329 (17.947 -2.652) 330 (17.378 -2.422) 331 (16.860 -1.343) 332 (16.229 3.402) 333 (20.612 3.219) 334 (18.977 3.208) 335 (20.949 -0.073) 336 (19.120 -0.543) 337 (15.313 1.717) 338 (21.813 3.031) 339 (22.922 -2.626) 340 (21.837 -3.641) 341 (23.004 -0.925) 342 (16.586 -0.241) 343 (16.031 -2.283) 344 (19.647 2.266) 345 (20.905 4.007) 346 (20.955 1.702) 347 (17.261 4.132) 348 (20.051 0.795) 349 (22.537 -4.369) 350 (17.623 2.470) 351 (16.955 -3.306)",
        "odom": "pose 36010130000000.000 443749000000.000 -128.271 67805080000000.000 -21908630000000.000 -2320.189",
        "report": ""
    },
    {
        "clock": "1.4",
        "crowd": "id pose 2 (-17.401 0.797) 3 (-21.260 3.275) 4 (-19.337 1.506) 5 (-19.541 -1.172) 6 (-21.338 2.309) 7 (-22.369 -2.153) 8 (-19.637 -0.431) 9 (-20.846 -4.348) 10 (-18.513 1.868) 11 (-21.810 -0.162) 12 (-22.362 2.787) 13 (-19.407 -2.640) 14 (-22.057 -3.622) 15 (-18.856 3.565) 16 (-22.106 0.911) 17 (-19.489 3.512) 18 (-23.945 1.473) 19 (-20.839 0.450) 20 (-22.233 -1.429) 21 (-19.841 3.001) 22 (-22.710 4.568) 23 (-19.756 -2.029) 24 (-17.451 4.013) 25 (-16.068 0.653) 26 (-16.071 -1.338) 27 (-20.075 1.404) 28 (-20.588 -2.771) 29 (-18.755 -2.240) 30 (-17.338 -4.545) 31 (-16.964 3.542) 32 (-21.602 4.149) 33 (-18.959 4.389) 34 (-17.730 -1.831) 35 (-23.262 -0.662) 36 (-23.670 0.773) 37 (-17.872 -2.903) 38 (-20.004 4.172) 39 (-17.351 2.918) 40 (-20.178 2.207) 41 (-19.823 -3.801) 42 (-16.653 1.656) 43 (-19.994 -3.135) 44 (-15.707 -1.742) 45 (-21.732 -1.811) 46 (-22.885 1.089) 47 (-15.764 3.564) 48 (-16.223 -0.328) 49 (-19.684 0.354) 50 (-17.946 -0.172) 51 (-17.009 -0.767) 52 (-22.601 -0.617) 53 (-16.890 -2.341) 54 (-19.876 4.664) 55 (-16.905 -1.667) 56 (-18.325 0.963) 57 (-23.264 -4.396) 58 (-17.808 4.265) 59 (-21.437 -0.734) 60 (-18.236 3.263) 61 (-17.635 -3.884) 62 (-21.091 -2.341) 63 (-15.713 1.605) 64 (-17.700 -0.811) 65 (-16.289 3.958) 66 (-18.643 -0.335) 67 (-17.792 1.818) 68 (-22.236 3.454) 69 (-23.100 1.895) 70 (-21.046 -1.355) 71 (-16.740 0.789) 72 (-11.725 2.708) 73 (-8.304 -0.363) 74 (-11.022 -1.904) 75 (-9.977 2.435) 76 (-9.748 -4.365) 77 (-7.504 -4.690) 78 (-6.515 -3.407) 79 (-14.403 -1.622) 80 (-6.616 0.088) 81 (-8.136 4.604) 82 (-9.079 0.506) 83 (-10.447 -0.165) 84 (-14.742 0.656) 85 (-9.385 -4.744) 86 (-5.169 -2.810) 87 (-10.827 1.487) 88 (-11.621 0.028) 89 (-11.362 3.954) 90 (-13.473 2.896) 91 (-11.221 -4.528) 92 (-12.559 1.677) 93 (-10.010 0.351) 94 (-7.268 0.684) 95 (-12.310 -1.382) 96 (-13.647 -4.529) 97 (-5.037 0.050) 98 (-9.499 -3.349) 99 (-6.417 0.726) 100 (-8.546 -3.970) 101 (-10.890 4.447) 102 (-5.642 0.939) 103 (-6.903 -2.402) 104 (-6.289 -1.898) 105 (-12.717 0.714) 106 (-12.732 4.732) 107 (-8.159 3.935) 108 (-13.734 -2.516) 109 (-10.368 -0.836) 110 (-11.294 3.214) 111 (-12.799 3.037) 112 (-9.506 -2.023) 113 (-13.298 -0.178) 114 (-7.386 -1.263) 115 (-10.324 0.971) 116 (-11.513 0.857) 117 (-13.227 1.674) 118 (-8.787 3.294) 119 (-11.039 2.436) 120 (-7.670 -2.597) 121 (-11.022 -0.931) 122 (-12.903 -3.278) 123 (-10.094 -1.736) 124 (-6.383 1.873) 125 (-8.955 -0.324) 126 (-12.250 -0.784) 127 (-7.164 -0.589) 128 (-5.688 0.162) 129 (-12.499 -3.816) 130 (-7.490 3.327) 131 (-11.842 -3.743) 132 (-7.584 -1.895) 133 (-14.072 0.749) 134 (-5.641 -2.102) 135 (-6.758 2.676) 136 (-11.882 1.661) 137 (-12.670 -0.330) 138 (-9.437 1.081) 139 (-8.114 -1.128) 140 (-13.882 1.568) 141 (-7.564 -3.605) 142 (-1.657 1.869) 143 (-1.083 1.142) 144 (1.026 -2.656) 145 (4.058 4.400) 146 (1.705 1.872) 147 (-1.771 -3.103) 148 (2.690 -1.091) 149 (2.272 0.102) 150 (-0.524 -2.102) 151 (-1.600 4.597) 152 (4.144 2.188) 153 (-0.423 -4.573) 154 (3.116 -0.146) 155 (-1.739 3.491) 156 (-4.131 2.089) 157 (-1.441 -2.266) 158 (0.714 2.857) 159 (-3.297 -1.727) 160 (1.423 -0.753) 161 (-0.304 -0.701) 162 (-2.705 3.026) 163 (-4.235 1.068) 164 (1.379 0.543) 165 (-0.454 1.950) 166 (-2.323 -4.537) 167 (2.973 4.048) 168 (-3.325 -2.474) 169 (3.439 2.452) 170 (-0.459 4.158) 171 (2.676 1.894) 172 (3.347 -3.582) 173 (-0.010 0.345) 174 (-0.268 0.969) 175 (-2.058 2.727) 176 (-2.494 -2.035) 177 (1.994 -2.698) 178 (1.457 -4.716) 179 (3.307 3.124) 180 (0.275 -1.185) 181 (-3.048 0.888) 182 (-1.053 -4.726) 183 (3.843 -1.896) 184 (1.635 -3.884) 185 (-2.091 -0.295) 186 (-2.930 -1.164) 187 (-2.294 -3.614) 188 (0.263 -2.426) 189 (-0.904 0.228) 190 (0.904 1.822) 191 (-3.231 -3.143) 192 (-0.284 2.587) 193 (-2.835 -0.330) 194 (-3.214 4.631) 195 (0.208 -4.676) 196 (-1.434 -0.762) 197 (-1.088 -1.629) 198 (2.378 3.639) 199 (3.553 -1.226) 200 (-3.603 0.529) 201 (1.477 2.602) 202 (2.035 4.376) 203 (-3.544 -0.781) 204 (3.083 1.271) 205 (1.226 -4.392) 206 (0.512 -0.119) 207 (2.347 -4.212) 208 (4.184 -0.422) 209 (0.967 -1.298) 210 (1.519 -1.699) 211 (0.531 1.181) 212 (8.086 -1.252) 213 (9.564 3.594) 214 (13.806 3.792) 215 (9.714 -0.173) 216 (12.609 -4.552) 217 (9.187 1.115) 218 (8.964 -4.749) 219 (11.705 1.535) 220 (8.126 1.611) 221 (7.133 1.727) 222 (12.636 1.885) 223 (5.639 1.336) 224 (11.929 0.898) 225 (10.491 4.104) 226 (9.717 -4.233) 227 (11.265 4.345) 228 (14.335 3.035) 229 (13.973 1.458) 230 (7.766 2.967) 231 (8.165 -0.006) 232 (9.503 -2.908) 233 (11.829 -0.949) 234 (12.553 -1.488) 235 (9.962 -1.063) 236 (5.318 0.742) 237 (8.165 -4.174) 238 (11.912 -2.580) 239 (6.911 -0.422) 240 (10.291 -2.081) 241 (11.016 3.423) 242 (8.597 2.584) 243 (13.176 -1.703) 244 (6.264 1.071) 245 (12.790 -0.409) 246 (7.640 -1.754) 247 (8.378 4.125) 248 (12.040 2.183) 249 (12.519 -4.745) 250 (11.559 -0.340) 251 (7.719 4.101) 252 (7.496 1.176) 253 (8.803 -3.334) 254 (11.840 -4.478) 255 (13.577 2.668) 256 (10.824 -1.176) 257 (7.665 -0.484) 258 (10.589 2.795) 259 (10.453 -2.840) 260 (7.503 -4.225) 261 (13.833 -1.401) 262 (6.893 4.616) 263 (6.363 2.614) 264 (8.949 -1.309) 265 (10.326 4.709) 266 (11.278 0.646) 267 (9.074 -0.373) 268 (10.394 -0.548) 269 (10.976 4.711) 270 (7.200 2.653) 271 (9.309 2.076) 272 (10.292 0.564) 273 (5.749 2.339) 274 (7.836 2.211) 275 (11.230 -2.345) 276 (8.835 0.501) 277 (8.980 -4.023) 278 (10.236 3.575) 279 (12.177 -3.876) 280 (10.264 -3.930) 281 (8.894 3.562) 282 (22.857 0.277) 283 (18.596 -1.012) 284 (21.312 -0.774) 285 (22.317 2.618) 286 (20.035 4.163) 287 (22.159 -3.124) 288 (19.511 4.566) 289 (16.090 0.538) 290 (14.254 2.321) 291 (18.619 -2.800) 292 (20.419 -0.573) 293 (19.884 -0.163) 294 (16.597 4.292) 295 (15.546 3.565) 296 (23.435 4.575) 297 (15.231 -0.684) 298 (16.571 -4.212) 299 (22.249 -1.027) 300 (20.866 -3.388) 301 (21.819 -0.155) 302 (16.995 1.469) 303 (22.591 -4.672) 304 (17.682 1.566) 305 (19.586 3.067) 306 (19.323 1.533) 307 (21.406 3.713) 308 (17.899 3.703) 309 (15.669 -0.004) 310 (18.796 4.240) 311 (21.471 0.692) 312 (21.650 -4.656) 313 (22.971 3.994) 314 (23.537 0.421) 315 (18.065 4.544) 316 (18.552 3.719) 317 (23.854 1.106) 318 (23.219 2.366) 319 (17.521 -0.905) 320 (17.772 -1.973) 321 (20.198 -3.886) 322 (20.605 1.092) 323 (18.691 0.705) 324 (15.933 -1.177) 325 (22.614 3.263) 326 (23.518 -3.936) 327 (17.192 -4.443) 328 (14.858 -1.468) 329 (18.026 -2.618) 330 (17.372 -2.519) 331 (16.871 -1.400) 332 (16.215 3.399) 333 (20.609 3.270) 334 (18.932 3.192) 335 (20.906 -0.049) 336 (19.135 -0.616) 337 (15.312 1.576) 338 (21.836 3.120) 339 (22.905 -2.483) 340 (21.753 -3.754) 341 (22.936 -0.815) 342 (16.650 -0.235) 343 (16.070 -2.175) 344 (19.668 2.366) 345 (20.844 4.058) 346 (20.968 1.644) 347 (17.270 4.288) 348 (19.997 0.774) 349 (22.566 -4.253) 350 (17.548 2.499) 351 (17.055 -3.388)",
        "odom": "pose 34386900000000.000 -35634720000000.000 -15.363 -16232250000000.000 -360784600000000.000 1129.076",
        "report": ""
    },
    {
        "clock": "1.5",
        "crowd": "id pose 2 (-17.406 0.749) 3 (-21.181 3.297) 4 (-19.337 1.499) 5 (-19.646 -1.155) 6 (-21.406 2.400) 7 (-22.337 -2.245) 8 (-19.601 -0.392) 9 (-20.903 -4.424) 10 (-18.470 1.962) 11 (-21.798 -0.190) 12 (-22.432 2.881) 13 (-19.456 -2.731) 14 (-22.003 -3.608) 15 (-18.897 3.526) 16 (-22.048 0.993) 17 (-19.502 3.453) 18 (-24.013 1.465) 19 (-20.803 0.372) 20 (-22.224 -1.493) 21 (-19.903 2.924) 22 (-22.663 4.698) 23 (-19.788 -2.102) 24 (-17.445 3.957) 25 (-16.099 0.589) 26 (-16.119 -1.440) 27 (-20.059 1.297) 28 (-20.584 -2.724) 29 (-18.809 -2.319) 30 (-17.460 -4.610) 31 (-17.033 3.599) 32 (-21.564 4.076) 33 (-19.049 4.406) 34 (-17.756 -1.818) 35 (-23.222 -0.596) 36 (-23.668 0.849) 37 (-17.958 -2.779) 38 (-20.037 3.964) 39 (-17.368 2.986) 40 (-20.214 2.085) 41 (-19.726 -3.788) 42 (-16.669 1.683) 43 (-20.057 -3.120) 44 (-15.618 -1.725) 45 (-21.692 -1.863) 46 (-22.919 1.044) 47 (-15.814 3.555) 48 (-16.294 -0.354) 49 (-19.624 0.392) 50 (-17.951 -0.187) 51 (-17.059 -0.788) 52 (-22.563 -0.653) 53 (-16.931 -2.293) 54 (-19.739 -4.650) 55 (-16.893 -1.629) 56 (-18.331 1.038) 57 (-23.286 -4.528) 58 (-17.802 4.373) 59 (-21.478 -0.813) 60 (-18.290 3.265) 61 (-17.582 -3.796) 62 (-21.029 -2.265) 63 (-15.754 1.532) 64 (-17.742 -0.831) 65 (-16.333 3.882) 66 (-18.645 -0.351) 67 (-17.781 1.841) 68 (-22.202 3.504) 69 (-23.017 1.801) 70 (-21.051 -1.367) 71 (-16.749 0.829) 72 (-11.676 2.729) 73 (-8.315 -0.375) 74 (-10.993 -1.825) 75 (-9.980 2.319) 76 (-9.777 -4.447) 77 (-7.469 4.666) 78 (-6.539 -3.359) 79 (-14.396 -1.521) 80 (-6.598 -0.022) 81 (-8.192 4.729) 82 (-9.097 0.442) 83 (-10.393 -0.221) 84 (-14.735 0.762) 85 (-9.371 -4.742) 86 (-5.170 -2.954) 87 (-10.877 1.429) 88 (-11.573 0.052) 89 (-11.482 4.008) 90 (-13.517 3.015) 91 (-11.271 -4.635) 92 (-12.564 1.680) 93 (-9.996 0.324) 94 (-7.269 0.558) 95 (-12.254 -1.350) 96 (-13.603 -4.636) 97 (-4.997 0.105) 98 (-9.409 -3.463) 99 (-6.451 0.637) 100 (-8.525 -4.097) 101 (-10.929 4.382) 102 (-5.667 0.842) 103 (-6.909 -2.362) 104 (-6.280 -1.960) 105 (-12.610 0.806) 106 (-12.644 -4.671) 107 (-8.114 4.071) 108 (-13.725 -2.642) 109 (-10.302 -0.903) 110 (-11.173 3.177) 111 (-12.776 2.991) 112 (-9.574 -2.120) 113 (-13.298 -0.076) 114 (-7.415 -1.294) 115 (-10.329 0.927) 116 (-11.557 0.824) 117 (-13.243 1.783) 118 (-8.842 3.442) 119 (-11.010 2.338) 120 (-7.652 -2.583) 121 (-10.975 -0.878) 122 (-12.964 -3.422) 123 (-10.127 -1.752) 124 (-6.440 1.783) 125 (-8.967 -0.384) 126 (-12.159 -0.730) 127 (-7.233 -0.621) 128 (-5.665 0.092) 129 (-12.411 -3.867) 130 (-7.567 3.394) 131 (-11.750 -3.832) 132 (-7.656 -1.909) 133 (-14.044 0.695) 134 (-5.555 -1.979) 135 (-6.842 2.539) 136 (-11.883 1.748) 137 (-12.685 -0.373) 138 (-9.429 1.032) 139 (-8.203 -1.227) 140 (-13.889 1.497) 141 (-7.601 -3.533) 142 (-1.688 1.996) 143 (-1.158 1.079) 144 (1.037 -2.604) 145 (4.054 4.350) 146 (1.695 1.971) 147 (-1.798 -3.029) 148 (2.650 -1.097) 149 (2.245 0.056) 150 (-0.508 -2.005) 151 (-1.543 4.716) 152 (4.116 2.160) 153 (-0.421 -4.692) 154 (3.115 -0.212) 155 (-1.806 3.621) 156 (-4.113 2.029) 157 (-1.440 -2.253) 158 (0.717 2.871) 159 (-3.367 -1.754) 160 (1.410 -0.759) 161 (-0.269 -0.608) 162 (-2.691 3.139) 163 (-4.276 1.094) 164 (1.374 0.624) 165 (-0.432 1.947) 166 (-2.199 -4.473) 167 (2.993 4.151) 168 (-3.301 -2.455) 169 (3.485 2.488) 170 (-0.488 4.001) 171 (2.725 1.991) 172 (3.337 -3.696) 173 (0.053 0.395) 174 (-0.256 0.988) 175 (-2.039 2.860) 176 (-2.445 -1.997) 177 (2.089 -2.758) 178 (1.524 4.660) 179 (3.239 3.141) 180 (0.271 -1.220) 181 (-2.946 0.789) 182 (-1.053 -4.720) 183 (3.802 -1.889) 184 (1.609 -3.890) 185 (-2.103 -0.348) 186 (-2.976 -1.216) 187 (-2.273 -3.657) 188 (0.288 -2.413) 189 (-0.892 0.291) 190 (0.920 1.869) 191 (-3.169 -3.109) 192 (-0.238 2.578) 193 (-2.824 -0.418) 194 (-3.259 -4.731) 195 (0.215 -4.570) 196 (-1.400 -0.766) 197 (-1.091 -1.615) 198 (2.389 3.788) 199 (3.487 -1.248) 200 (-3.578 0.573) 201 (1.483 2.697) 202 (2.072 4.553) 203 (-3.514 -0.690) 204 (3.018 1.351) 205 (1.002 -4.340) 206 (0.580 -0.084) 207 (2.292 -4.091) 208 (4.176 -0.528) 209 (0.958 -1.304) 210 (1.525 -1.686) 211 (0.531 1.221) 212 (8.160 -1.344) 213 (9.616 3.583) 214 (13.806 3.772) 215 (9.763 -0.184) 216 (12.803 -4.270) 217 (9.172 1.098) 218 (8.937 4.662) 219 (11.726 1.426) 220 (8.151 1.613) 221 (7.134 1.608) 222 (12.648 1.944) 223 (5.630 1.243) 224 (11.945 0.792) 225 (10.508 4.037) 226 (9.776 -4.302) 227 (11.278 4.346) 228 (14.414 3.013) 229 (13.975 1.550) 230 (7.734 2.930) 231 (8.144 -0.116) 232 (9.472 -3.010) 233 (11.786 -1.042) 234 (12.574 -1.523) 235 (9.965 -1.055) 236 (5.329 0.633) 237 (8.152 -4.170) 238 (11.919 -2.544) 239 (6.893 -0.554) 240 (10.211 -2.017) 241 (11.027 3.504) 242 (8.577 2.627) 243 (13.201 -1.618) 244 (6.300 1.095) 245 (12.786 -0.450) 246 (7.621 -1.779) 247 (8.466 4.025) 248 (11.995 2.077) 249 (12.182 4.515) 250 (11.570 -0.389) 251 (7.820 4.202) 252 (7.539 1.161) 253 (8.779 -3.355) 254 (11.837 -4.413) 255 (13.528 2.760) 256 (10.832 -1.196) 257 (7.625 -0.555) 258 (10.668 2.818) 259 (10.444 -2.752) 260 (7.486 -4.363) 261 (13.829 -1.287) 262 (6.973 4.686) 263 (6.357 2.581) 264 (8.993 -1.231) 265 (10.240 4.699) 266 (11.286 0.566) 267 (9.100 -0.315) 268 (10.424 -0.569) 269 (10.875 -4.689) 270 (7.179 2.609) 271 (9.297 2.035) 272 (10.281 0.559) 273 (5.772 2.250) 274 (7.826 2.189) 275 (11.232 -2.425) 276 (8.807 0.470) 277 (9.061 -4.094) 278 (10.272 3.510) 279 (12.158 -3.820) 280 (10.295 -3.920) 281 (8.947 3.455) 282 (22.792 0.374) 283 (18.551 -1.004) 284 (21.306 -0.752) 285 (22.344 2.716) 286 (20.034 4.280) 287 (22.084 -3.218) 288 (19.415 4.547) 289 (16.065 0.436) 290 (14.171 2.392) 291 (18.674 -2.773) 292 (20.405 -0.560) 293 (19.870 -0.151) 294 (16.623 4.226) 295 (15.532 3.552) 296 (23.364 4.715) 297 (15.169 -0.645) 298 (16.509 -4.290) 299 (22.197 -1.114) 300 (20.770 -3.498) 301 (21.841 -0.229) 302 (17.064 1.394) 303 (22.579 -4.730) 304 (17.771 1.642) 305 (19.579 3.157) 306 (19.330 1.647) 307 (21.332 3.801) 308 (17.815 3.772) 309 (15.668 -0.114) 310 (18.693 4.126) 311 (21.434 0.655) 312 (21.740 -4.666) 313 (23.008 4.112) 314 (23.515 0.407) 315 (18.091 4.472) 316 (18.462 3.585) 317 (23.867 1.079) 318 (23.217 2.515) 319 (17.538 -1.031) 320 (17.703 -2.036) 321 (20.190 -4.023) 322 (20.555 1.076) 323 (18.777 0.830) 324 (16.002 -1.099) 325 (22.615 3.376) 326 (23.474 -4.078) 327 (17.161 -4.407) 328 (14.914 -1.583) 329 (18.058 -2.576) 330 (17.381 -2.625) 331 (16.882 -1.455) 332 (16.200 3.399) 333 (20.608 3.320) 334 (18.893 3.170) 335 (20.862 -0.025) 336 (19.131 -0.673) 337 (15.309 1.437) 338 (21.859 3.209) 339 (22.888 -2.341) 340 (21.668 -3.866) 341 (22.864 -0.698) 342 (16.715 -0.232) 343 (16.109 -2.068) 344 (19.687 2.466) 345 (20.795 4.103) 346 (20.982 1.585) 347 (17.278 4.444) 348 (19.945 0.756) 349 (22.586 -3.987) 350 (17.475 2.526) 351 (17.154 -3.470)",
        "odom": "pose 62518090000000.000 4531341000000.000 -99.877 281312100000000.000 401661000000000.000 -845.144",
        "report": ""
    },
    {
        "clock": "1.6",
        "crowd": "id pose 2 (-17.411 0.698) 3 (-21.106 3.309) 4 (-19.355 1.473) 5 (-19.749 -1.137) 6 (-21.464 2.490) 7 (-22.308 -2.335) 8 (-19.566 -0.345) 9 (-20.900 -4.509) 10 (-18.432 2.057) 11 (-21.792 -0.215) 12 (-22.502 2.979) 13 (-19.503 -2.821) 14 (-21.948 -3.599) 15 (-18.922 3.487) 16 (-21.991 1.079) 17 (-19.527 3.375) 18 (-24.080 1.457) 19 (-20.775 0.301) 20 (-22.206 -1.560) 21 (-19.984 2.817) 22 (-22.617 -4.673) 23 (-19.812 -2.160) 24 (-17.445 3.931) 25 (-16.141 0.529) 26 (-16.205 -1.556) 27 (-20.042 1.189) 28 (-20.577 -2.686) 29 (-18.861 -2.390) 30 (-17.582 -4.674) 31 (-17.096 3.643) 32 (-21.525 4.004) 33 (-19.083 4.419) 34 (-17.784 -1.806) 35 (-23.178 -0.523) 36 (-23.666 0.924) 37 (-18.045 -2.656) 38 (-20.065 3.795) 39 (-17.435 3.059) 40 (-20.250 1.963) 41 (-19.714 -3.806) 42 (-16.682 1.710) 43 (-20.115 -3.109) 44 (-15.531 -1.689) 45 (-21.653 -1.904) 46 (-22.954 0.999) 47 (-15.841 3.568) 48 (-16.364 -0.377) 49 (-19.549 0.444) 50 (-17.957 -0.203) 51 (-17.109 -0.808) 52 (-22.533 -0.693) 53 (-16.958 -2.245) 54 (-19.655 -4.570) 55 (-16.884 -1.592) 56 (-18.337 1.138) 57 (-23.308 -4.660) 58 (-17.827 4.527) 59 (-21.517 -0.888) 60 (-18.323 3.288) 61 (-17.554 -3.720) 62 (-20.973 -2.189) 63 (-15.804 1.455) 64 (-17.785 -0.850) 65 (-16.390 3.823) 66 (-18.648 -0.366) 67 (-17.772 1.845) 68 (-22.169 3.577) 69 (-22.935 1.707) 70 (-21.057 -1.376) 71 (-16.765 0.869) 72 (-11.627 2.750) 73 (-8.330 -0.387) 74 (-10.963 -1.748) 75 (-9.979 2.207) 76 (-9.849 -4.527) 77 (-7.424 4.508) 78 (-6.563 -3.316) 79 (-14.390 -1.425) 80 (-6.579 -0.131) 81 (-8.248 -4.646) 82 (-9.112 0.379) 83 (-10.340 -0.275) 84 (-14.714 0.870) 85 (-9.299 4.737) 86 (-5.172 -3.097) 87 (-10.927 1.374) 88 (-11.527 0.079) 89 (-11.595 4.071) 90 (-13.553 3.138) 91 (-11.320 -4.742) 92 (-12.571 1.682) 93 (-9.980 0.298) 94 (-7.273 0.435) 95 (-12.202 -1.312) 96 (-13.560 -4.743) 97 (-4.976 0.155) 98 (-9.319 -3.577) 99 (-6.485 0.547) 100 (-8.506 -4.221) 101 (-10.965 4.320) 102 (-5.692 0.746) 103 (-6.913 -2.326) 104 (-6.271 -2.021) 105 (-12.520 0.884) 106 (-12.599 -4.589) 107 (-8.077 4.207) 108 (-13.716 -2.767) 109 (-10.240 -0.969) 110 (-11.056 3.114) 111 (-12.753 2.946) 112 (-9.645 -2.216) 113 (-13.292 0.014) 114 (-7.443 -1.330) 115 (-10.334 0.886) 116 (-11.602 0.791) 117 (-13.253 1.896) 118 (-8.897 3.590) 119 (-10.981 2.244) 120 (-7.636 -2.570) 121 (-10.928 -0.829) 122 (-13.025 -3.566) 123 (-10.157 -1.768) 124 (-6.497 1.693) 125 (-8.979 -0.445) 126 (-12.083 -0.679) 127 (-7.300 -0.655) 128 (-5.636 0.025) 129 (-12.306 -3.892) 130 (-7.656 3.491) 131 (-11.659 -3.916) 132 (-7.721 -1.909) 133 (-14.020 0.643) 134 (-5.472 -1.849) 135 (-6.923 2.402) 136 (-11.882 1.826) 137 (-12.692 -0.431) 138 (-9.417 0.980) 139 (-8.307 -1.344) 140 (-13.896 1.432) 141 (-7.641 -3.463) 142 (-1.715 2.129) 143 (-1.231 1.018) 144 (1.047 -2.552) 145 (4.052 4.303) 146 (1.678 2.070) 147 (-1.822 -2.957) 148 (2.611 -1.103) 149 (2.217 0.011) 150 (-0.492 -1.910) 151 (-1.487 -4.666) 152 (4.087 2.132) 153 (-0.397 4.705) 154 (3.111 -0.275) 155 (-1.844 3.749) 156 (-4.095 1.978) 157 (-1.438 -2.239) 158 (0.717 2.884) 159 (-3.438 -1.782) 160 (1.393 -0.762) 161 (-0.228 -0.515) 162 (-2.675 3.252) 163 (-4.316 1.119) 164 (1.366 0.707) 165 (-0.412 1.945) 166 (-2.104 -4.432) 167 (3.013 4.253) 168 (-3.280 -2.439) 169 (3.527 2.520) 170 (-0.521 3.849) 171 (2.771 2.085) 172 (3.326 -3.809) 173 (0.116 0.448) 174 (-0.245 1.008) 175 (-2.022 3.005) 176 (-2.397 -1.959) 177 (2.180 -2.819) 178 (1.524 4.540) 179 (3.188 3.169) 180 (0.268 -1.254) 181 (-2.851 0.689) 182 (-1.122 4.674) 183 (3.760 -1.884) 184 (1.584 -3.988) 185 (-2.115 -0.398) 186 (-3.022 -1.267) 187 (-2.262 -3.700) 188 (0.312 -2.400) 189 (-0.881 0.346) 190 (0.934 1.915) 191 (-3.107 -3.077) 192 (-0.197 2.569) 193 (-2.815 -0.500) 194 (-3.285 -4.597) 195 (0.240 -4.542) 196 (-1.364 -0.772) 197 (-1.092 -1.601) 198 (2.400 3.938) 199 (3.423 -1.270) 200 (-3.537 0.670) 201 (1.473 2.792) 202 (2.164 4.701) 203 (-3.485 -0.602) 204 (2.945 1.435) 205 (0.893 -4.286) 206 (0.657 -0.031) 207 (2.246 -3.976) 208 (4.164 -0.635) 209 (0.948 -1.308) 210 (1.527 -1.668) 211 (0.532 1.260) 212 (8.234 -1.429) 213 (9.663 3.609) 214 (13.806 3.754) 215 (9.809 -0.197) 216 (12.925 -4.131) 217 (9.153 1.078) 218 (8.924 4.570) 219 (11.743 1.318) 220 (8.179 1.600) 221 (7.133 1.487) 222 (12.646 2.004) 223 (5.647 1.138) 224 (11.962 0.686) 225 (10.546 4.048) 226 (9.845 -4.425) 227 (11.358 4.581) 228 (14.495 2.990) 229 (13.980 1.641) 230 (7.702 2.892) 231 (8.120 -0.221) 232 (9.438 -3.136) 233 (11.736 -1.153) 234 (12.572 -1.583) 235 (9.966 -1.045) 236 (5.340 0.525) 237 (8.138 -4.212) 238 (11.933 -2.497) 239 (6.878 -0.687) 240 (10.130 -1.952) 241 (11.031 3.667) 242 (8.539 2.696) 243 (13.241 -1.533) 244 (6.333 1.116) 245 (12.778 -0.502) 246 (7.602 -1.805) 247 (8.546 3.924) 248 (11.951 1.970) 249 (12.004 4.352) 250 (11.583 -0.447) 251 (7.917 4.296) 252 (7.604 1.112) 253 (8.755 -3.376) 254 (11.838 -4.356) 255 (13.480 2.853) 256 (10.842 -1.217) 257 (7.584 -0.624) 258 (10.744 2.834) 259 (10.434 -2.667) 260 (7.518 -4.500) 261 (13.826 -1.173) 262 (7.054 -4.744) 263 (6.348 2.541) 264 (9.038 -1.152) 265 (10.168 4.658) 266 (11.296 0.490) 267 (9.126 -0.256) 268 (10.452 -0.590) 269 (10.820 -4.628) 270 (7.153 2.565) 271 (9.290 1.995) 272 (10.275 0.547) 273 (5.795 2.161) 274 (7.807 2.165) 275 (11.232 -2.486) 276 (8.783 0.451) 277 (9.133 -4.166) 278 (10.278 3.353) 279 (12.135 -3.756) 280 (10.308 -3.869) 281 (8.974 3.358) 282 (22.726 0.471) 283 (18.512 -0.992) 284 (21.300 -0.731) 285 (22.371 2.814) 286 (20.003 4.415) 287 (22.011 -3.330) 288 (19.339 4.522) 289 (16.042 0.331) 290 (14.087 2.463) 291 (18.750 -2.731) 292 (20.391 -0.547) 293 (19.856 -0.139) 294 (16.642 4.167) 295 (15.517 3.540) 296 (23.291 -4.645) 297 (15.108 -0.605) 298 (16.455 -4.395) 299 (22.144 -1.203) 300 (20.675 -3.610) 301 (21.862 -0.303) 302 (17.134 1.319) 303 (22.548 4.660) 304 (17.866 1.715) 305 (19.568 3.254) 306 (19.335 1.762) 307 (21.270 3.874) 308 (17.753 3.815) 309 (15.666 -0.225) 310 (18.582 3.996) 311 (21.398 0.619) 312 (21.794 -4.684) 313 (23.045 4.230) 314 (23.471 0.448) 315 (18.102 4.412) 316 (18.360 3.471) 317 (23.916 0.975) 318 (23.215 2.663) 319 (17.552 -1.159) 320 (17.644 -2.099) 321 (20.184 -4.163) 322 (20.492 1.085) 323 (18.863 0.959) 324 (16.072 -1.020) 325 (22.616 3.489) 326 (23.438 -4.203) 327 (17.129 -4.363) 328 (14.980 -1.694) 329 (18.087 -2.538) 330 (17.413 -2.730) 331 (16.894 -1.510) 332 (16.184 3.401) 333 (20.609 3.379) 334 (18.876 3.123) 335 (20.819 -0.001) 336 (19.132 -0.738) 337 (15.296 1.317) 338 (21.882 3.299) 339 (22.864 -2.181) 340 (21.583 -3.976) 341 (22.790 -0.578) 342 (16.779 -0.231) 343 (16.147 -1.962) 344 (19.704 2.567) 345 (20.725 4.156) 346 (20.997 1.525) 347 (17.287 4.600) 348 (19.895 0.738) 349 (22.606 -3.859) 350 (17.402 2.552) 351 (17.251 -3.554)",
        "odom": "pose 88062050000000.000 60022990000000.000 156.235 255439600000000.000 554916300000000.000 2561.117",
        "report": ""
    },
    {
        "clock": "1.7",
        "crowd": "id pose 2 (-17.415 0.646) 3 (-21.034 3.316) 4 (-19.379 1.442) 5 (-19.850 -1.118) 6 (-21.521 2.587) 7 (-22.264 -2.405) 8 (-19.528 -0.285) 9 (-20.870 -4.599) 10 (-18.402 2.152) 11 (-21.794 -0.242) 12 (-22.562 3.105) 13 (-19.549 -2.898) 14 (-21.893 -3.594) 15 (-18.924 3.487) 16 (-21.938 1.164) 17 (-19.547 3.284) 18 (-24.148 1.450) 19 (-20.754 0.238) 20 (-22.391 -1.628) 21 (-20.067 2.704) 22 (-22.602 -4.562) 23 (-19.827 -2.209) 24 (-17.550 4.080) 25 (-16.186 0.470) 26 (-16.262 -1.691) 27 (-20.027 1.084) 28 (-20.581 -2.639) 29 (-18.913 -2.460) 30 (-17.703 -4.739) 31 (-17.082 3.645) 32 (-21.487 3.935) 33 (-19.112 4.411) 34 (-17.805 -1.800) 35 (-23.131 -0.446) 36 (-23.664 0.999) 37 (-18.134 -2.538) 38 (-20.102 3.629) 39 (-17.500 3.120) 40 (-20.286 1.841) 41 (-19.687 -3.808) 42 (-16.700 1.738) 43 (-20.157 -3.114) 44 (-15.502 -1.616) 45 (-21.615 -1.936) 46 (-22.988 0.955) 47 (-15.864 3.610) 48 (-16.431 -0.400) 49 (-19.476 0.496) 50 (-17.963 -0.219) 51 (-17.158 -0.829) 52 (-22.515 -0.738) 53 (-16.998 -2.203) 54 (-19.561 -4.507) 55 (-16.905 -1.574) 56 (-18.344 1.252) 57 (-23.329 4.709) 58 (-17.805 4.628) 59 (-21.559 -0.962) 60 (-18.350 3.321) 61 (-17.554 -3.636) 62 (-20.920 -2.109) 63 (-15.861 1.378) 64 (-17.829 -0.867) 65 (-16.477 3.770) 66 (-18.653 -0.379) 67 (-17.762 1.843) 68 (-22.136 3.649) 69 (-22.852 1.614) 70 (-21.062 -1.381) 71 (-16.785 0.910) 72 (-11.579 2.770) 73 (-8.343 -0.400) 74 (-10.932 -1.676) 75 (-9.973 2.096) 76 (-9.859 -4.664) 77 (-7.380 4.351) 78 (-6.584 -3.278) 79 (-14.384 -1.334) 80 (-6.560 -0.241) 81 (-8.189 -4.717) 82 (-9.123 0.318) 83 (-10.288 -0.327) 84 (-14.686 0.977) 85 (-9.326 -4.642) 86 (-5.174 -3.240) 87 (-10.978 1.323) 88 (-11.483 0.108) 89 (-11.681 4.152) 90 (-13.584 3.261) 91 (-11.369 4.651) 92 (-12.578 1.683) 93 (-9.962 0.271) 94 (-7.279 0.316) 95 (-12.146 -1.260) 96 (-13.516 4.650) 97 (-4.972 0.197) 98 (-9.259 -3.697) 99 (-6.519 0.458) 100 (-8.542 -4.256) 101 (-10.998 4.261) 102 (-5.717 0.649) 103 (-6.915 -2.295) 104 (-6.262 -2.082) 105 (-12.446 0.950) 106 (-12.576 -4.493) 107 (-8.040 4.342) 108 (-13.706 -2.893) 109 (-10.179 -1.036) 110 (-10.950 3.029) 111 (-12.730 2.903) 112 (-9.716 -2.310) 113 (-13.283 0.097) 114 (-7.465 -1.356) 115 (-10.339 0.847) 116 (-11.646 0.761) 117 (-13.259 2.010) 118 (-8.969 3.716) 119 (-10.949 2.156) 120 (-7.620 -2.554) 121 (-10.882 -0.784) 122 (-13.087 -3.711) 123 (-10.187 -1.784) 124 (-6.554 1.603) 125 (-8.988 -0.504) 126 (-12.018 -0.624) 127 (-7.372 -0.691) 128 (-5.608 -0.043) 129 (-12.194 -3.920) 130 (-7.748 3.557) 131 (-11.559 -3.997) 132 (-7.787 -1.914) 133 (-13.995 0.593) 134 (-5.389 -1.719) 135 (-7.002 2.264) 136 (-11.880 1.898) 137 (-12.684 -0.501) 138 (-9.402 0.927) 139 (-8.413 -1.463) 140 (-13.899 1.369) 141 (-7.682 -3.394) 142 (-1.767 2.261) 143 (-1.300 0.954) 144 (1.056 -2.501) 145 (4.053 4.258) 146 (1.648 2.158) 147 (-1.844 -2.888) 148 (2.574 -1.107) 149 (2.188 -0.031) 150 (-0.476 -1.816) 151 (-1.458 -4.549) 152 (4.059 2.104) 153 (-0.393 4.601) 154 (3.105 -0.337) 155 (-1.890 3.877) 156 (-4.073 1.916) 157 (-1.435 -2.223) 158 (0.716 2.896) 159 (-3.509 -1.810) 160 (1.365 -0.759) 161 (-0.184 -0.420) 162 (-2.659 3.366) 163 (-4.354 1.146) 164 (1.356 0.789) 165 (-0.395 1.944) 166 (-2.014 -4.402) 167 (3.033 4.356) 168 (-3.261 -2.423) 169 (3.565 2.550) 170 (-0.558 3.701) 171 (2.814 2.178) 172 (3.316 -3.923) 173 (0.179 0.503) 174 (-0.234 1.027) 175 (-2.018 3.159) 176 (-2.351 -1.922) 177 (2.270 -2.878) 178 (1.531 4.464) 179 (3.125 3.190) 180 (0.264 -1.288) 181 (-2.757 0.591) 182 (-1.150 4.548) 183 (3.715 -1.882) 184 (1.535 -4.130) 185 (-2.126 -0.448) 186 (-3.066 -1.315) 187 (-2.245 -3.732) 188 (0.335 -2.389) 189 (-0.869 0.395) 190 (0.943 1.957) 191 (-3.044 -3.045) 192 (-0.159 2.561) 193 (-2.806 -0.579) 194 (-3.303 -4.467) 195 (0.235 -4.543) 196 (-1.327 -0.777) 197 (-1.093 -1.586) 198 (2.412 4.087) 199 (3.347 -1.305) 200 (-3.452 0.757) 201 (1.397 2.993) 202 (2.197 -4.645) 203 (-3.458 -0.501) 204 (2.884 1.521) 205 (0.834 -4.225) 206 (0.737 0.042) 207 (2.200 -3.863) 208 (4.149 -0.742) 209 (0.937 -1.310) 210 (1.526 -1.644) 211 (0.532 1.297) 212 (8.308 -1.521) 213 (9.713 3.637) 214 (13.804 3.740) 215 (9.853 -0.210) 216 (13.012 -4.115) 217 (9.137 1.060) 218 (8.910 4.475) 219 (11.758 1.209) 220 (8.205 1.604) 221 (7.124 1.364) 222 (12.641 2.065) 223 (5.684 1.017) 224 (11.979 0.581) 225 (10.560 4.071) 226 (9.918 -4.546) 227 (11.374 -4.712) 228 (14.554 2.952) 229 (13.990 1.730) 230 (7.668 2.855) 231 (8.095 -0.322) 232 (9.405 -3.271) 233 (11.689 -1.261) 234 (12.580 -1.673) 235 (9.964 -1.033) 236 (5.352 0.417) 237 (8.133 -4.271) 238 (11.939 -2.462) 239 (6.864 -0.819) 240 (10.050 -1.888) 241 (11.022 3.797) 242 (8.503 2.753) 243 (13.272 -1.448) 244 (6.369 1.131) 245 (12.771 -0.558) 246 (7.582 -1.834) 247 (8.615 3.828) 248 (11.906 1.864) 249 (11.846 4.199) 250 (11.591 -0.506) 251 (8.021 4.384) 252 (7.661 1.060) 253 (8.741 -3.364) 254 (11.840 -4.299) 255 (13.431 2.947) 256 (10.857 -1.238) 257 (7.542 -0.693) 258 (10.816 2.821) 259 (10.424 -2.585) 260 (7.637 -4.590) 261 (13.825 -1.055) 262 (7.023 -4.692) 263 (6.335 2.496) 264 (9.081 -1.076) 265 (10.096 4.616) 266 (11.307 0.410) 267 (9.157 -0.192) 268 (10.480 -0.611) 269 (10.787 -4.570) 270 (7.121 2.520) 271 (9.289 1.949) 272 (10.275 0.531) 273 (5.817 2.072) 274 (7.791 2.127) 275 (11.221 -2.586) 276 (8.752 0.417) 277 (9.231 -4.241) 278 (10.277 3.209) 279 (12.113 -3.691) 280 (10.318 -3.818) 281 (9.028 3.248) 282 (22.661 0.568) 283 (18.485 -0.978) 284 (21.294 -0.712) 285 (22.410 2.890) 286 (19.947 4.555) 287 (21.970 -3.436) 288 (19.273 4.496) 289 (16.018 0.230) 290 (14.005 2.533) 291 (18.836 -2.660) 292 (20.378 -0.534) 293 (19.841 -0.129) 294 (16.656 4.113) 295 (15.503 3.528) 296 (23.184 -4.626) 297 (15.047 -0.559) 298 (16.441 -4.541) 299 (22.090 -1.293) 300 (20.578 -3.723) 301 (21.878 -0.358) 302 (17.207 1.245) 303 (22.534 4.651) 304 (17.969 1.768) 305 (19.552 3.342) 306 (19.342 1.877) 307 (21.219 3.947) 308 (17.703 3.837) 309 (15.664 -0.337) 310 (18.545 3.937) 311 (21.362 0.584) 312 (21.870 -4.662) 313 (23.084 4.347) 314 (23.412 0.511) 315 (18.119 4.351) 316 (18.257 3.335) 317 (23.965 0.871) 318 (23.214 2.811) 319 (17.565 -1.285) 320 (17.567 -2.146) 321 (20.180 -4.303) 322 (20.434 1.116) 323 (18.947 1.091) 324 (16.142 -0.943) 325 (22.624 3.572) 326 (23.438 -4.208) 327 (17.095 -4.319) 328 (15.051 -1.802) 329 (18.133 -2.516) 330 (17.474 -2.826) 331 (16.905 -1.566) 332 (16.169 3.405) 333 (20.610 3.435) 334 (18.858 3.074) 335 (20.773 0.037) 336 (19.136 -0.810) 337 (15.287 1.188) 338 (21.879 3.406) 339 (22.845 -2.040) 340 (21.495 -4.085) 341 (22.715 -0.459) 342 (16.843 -0.230) 343 (16.186 -1.856) 344 (19.721 2.674) 345 (20.646 4.219) 346 (21.012 1.465) 347 (17.296 -4.743) 348 (19.849 0.725) 349 (22.616 -3.732) 350 (17.331 2.577) 351 (17.347 -3.639)",
        "odom": "pose -10293650000000.000 33620520000000.000 70.105 -983556800000000.000 -264024600000000.000 -861.299",
        "report": ""
    }
]