[
    {
        "clock": "0.5",
        "crowd": "id pose 2 (-16.073 1.184) 3 (-21.716 -4.262) 4 (-23.299 1.965) 5 (-22.609 2.865) 6 (-22.837 0.334) 7 (-22.016 -2.825) 8 (-16.198 3.745) 9 (-22.116 0.449) 10 (-17.066 -0.357) 11 (-19.160 2.165) 12 (-21.811 3.021) 13 (-22.789 -3.077) 14 (-20.840 3.166) 15 (-21.347 2.240) 16 (-16.711 -2.712) 17 (-15.929 -1.020) 18 (-18.189 1.694) 19 (-18.568 3.684) 20 (-19.025 1.269) 21 (-18.041 4.275) 22 (-8.059 4.438) 23 (-12.266 1.966) 24 (-8.116 2.447) 25 (-9.132 1.323) 26 (-13.089 1.085) 27 (-6.399 -2.838) 28 (-7.169 -1.543) 29 (-13.343 -1.333) 30 (-10.056 1.194) 31 (-5.595 2.885) 32 (-14.296 -1.806) 33 (-8.805 -1.614) 34 (-11.694 -3.929) 35 (-12.931 3.762) 36 (-7.901 -1.586) 37 (-7.209 2.654) 38 (-5.592 -0.496) 39 (-8.854 2.711) 40 (-8.616 -3.192) 41 (-6.752 0.985) 42 (3.846 1.775) 43 (-0.143 2.688) 44 (-3.943 -0.383) 45 (1.562 -4.282) 46 (2.810 0.354) 47 (1.360 -0.898) 48 (-0.239 -2.989) 49 (-2.199 -1.370) 50 (0.889 3.403) 51 (-4.367 1.878) 52 (4.383 -3.964) 53 (-4.109 -2.009) 54 (2.745 3.182) 55 (1.669 2.543) 56 (1.064 0.053) 57 (-2.386 0.347) 58 (3.175 1.677) 59 (-3.364 -0.726) 60 (-3.114 -1.853) 61 (3.835 2.574) 62 (6.833 -1.348) 63 (13.929 0.136) 64 (7.660 -1.042) 65 (11.066 3.363) 66 (12.826 0.024) 67 (11.667 -0.033) 68 (9.936 -4.124) 69 (10.503 0.923) 70 (14.044 -3.337) 71 (6.207 0.080) 72 (12.806 -0.961) 73 (9.754 3.509) 74 (7.687 0.551) 75 (11.127 -1.823) 76 (5.368 -0.741) 77 (7.078 -0.031) 78 (5.514 0.268) 79 (10.780 -3.486) 80 (12.649 1.553) 81 (13.769 1.706) 82 (16.815 0.282) 83 (21.071 -0.865) 84 (19.996 1.593) 85 (19.833 -3.002) 86 (20.940 -3.676) 87 (19.059 -2.001) 88 (23.317 2.531) 89 (20.636 -1.608) 90 (18.383 0.420) 91 (22.120 3.984) 92 (22.727 -1.891) 93 (16.085 0.142) 94 (16.267 2.322) 95 (23.467 -1.975) 96 (21.778 0.809) 97 (15.906 1.768) 98 (17.670 -1.918) 99 (21.318 -2.073) 100 (15.060 -3.512) 101 (16.751 -2.967)",
        "odom": "pose -314047300000.000 174863400000.000 -159.116 -3031334000000.000 -21745830000.000 -2230.759",
        "report": ""
    },
    {
        "clock": "0.6",
        "crowd": "id pose 2 (-16.155 1.067) 3 (-21.737 -4.375) 4 (-23.299 2.100) 5 (-22.662 2.994) 6 (-22.837 0.479) 7 (-21.987 -2.711) 8 (-16.215 3.875) 9 (-22.015 0.331) 10 (-17.043 -0.477) 11 (-19.147 2.301) 12 (-21.823 2.879) 13 (-22.796 -2.968) 14 (-20.914 3.285) 15 (-21.273 2.374) 16 (-16.797 -2.596) 17 (-15.952 -0.897) 18 (-18.226 1.545) 19 (-18.533 3.790) 20 (-19.123 1.387) 21 (-17.984 4.367) 22 (-8.170 4.506) 23 (-12.173 1.834) 24 (-8.154 2.341) 25 (-9.133 1.178) 26 (-12.989 1.188) 27 (-6.374 -2.950) 28 (-7.193 -1.411) 29 (-13.348 -1.495) 30 (-10.040 1.057) 31 (-5.602 3.018) 32 (-14.300 -1.676) 33 (-8.873 -1.699) 34 (-11.603 -4.025) 35 (-12.847 3.855) 36 (-7.920 -1.471) 37 (-7.251 2.546) 38 (-5.675 -0.372) 39 (-8.888 2.592) 40 (-8.608 -3.089) 41 (-6.733 1.121) 42 (3.787 1.834) 43 (-0.103 2.536) 44 (-3.922 -0.346) 45 (1.464 -4.371) 46 (2.703 0.492) 47 (1.407 -1.022) 48 (-0.224 -2.875) 49 (-2.194 -1.236) 50 (0.960 3.512) 51 (-4.377 1.791) 52 (4.311 -4.082) 53 (-4.111 -1.893) 54 (2.708 3.348) 55 (1.551 2.652) 56 (1.037 -0.075) 57 (-2.313 0.476) 58 (3.147 1.540) 59 (-3.327 -0.642) 60 (-3.083 -1.965) 61 (3.726 2.650) 62 (6.879 -1.500) 63 (13.854 0.216) 64 (7.645 -0.980) 65 (11.153 3.490) 66 (12.780 0.129) 67 (11.637 -0.142) 68 (9.967 -4.240) 69 (10.466 1.047) 70 (14.032 -3.213) 71 (6.236 -0.024) 72 (12.760 -0.868) 73 (9.832 3.595) 74 (7.747 0.485) 75 (11.080 -1.681) 76 (5.440 -0.620) 77 (7.088 0.006) 78 (5.520 0.411) 79 (10.850 -3.621) 80 (12.568 1.669) 81 (13.693 1.779) 82 (16.839 0.167) 83 (21.079 -0.784) 84 (20.027 1.525) 85 (19.830 -3.107) 86 (20.955 -3.550) 87 (19.067 -2.139) 88 (23.301 2.657) 89 (20.587 -1.487) 90 (18.421 0.515) 91 (22.089 4.113) 92 (22.671 -1.775) 93 (16.135 0.268) 94 (16.386 2.265) 95 (23.443 -2.091) 96 (21.681 0.913) 97 (15.872 1.823) 98 (17.718 -1.808) 99 (21.312 -1.968) 100 (15.110 -3.382) 101 (16.733 -2.868)",
        "odom": "pose -358759000000.000 -28944200000.000 -161.513 -447117100000.000 -2038076000000.000 -23.979",
        "report": ""
    },
    {
        "clock": "0.7",
        "crowd": "id pose 2 (-16.237 0.946) 3 (-21.758 -4.489) 4 (-23.299 2.241) 5 (-22.715 3.123) 6 (-22.836 0.623) 7 (-21.957 -2.597) 8 (-16.231 4.005) 9 (-21.923 0.211) 10 (-17.021 -0.597) 11 (-19.134 2.437) 12 (-21.828 2.736) 13 (-22.803 -2.858) 14 (-20.989 3.404) 15 (-21.199 2.509) 16 (-16.884 -2.478) 17 (-15.976 -0.774) 18 (-18.263 1.395) 19 (-18.498 3.897) 20 (-19.222 1.505) 21 (-17.927 4.459) 22 (-8.282 4.574) 23 (-12.080 1.702) 24 (-8.193 2.235) 25 (-9.134 1.027) 26 (-12.889 1.292) 27 (-6.350 -3.063) 28 (-7.216 -1.286) 29 (-13.354 -1.656) 30 (-10.025 0.919) 31 (-5.609 3.150) 32 (-14.303 -1.546) 33 (-8.933 -1.787) 34 (-11.511 -4.121) 35 (-12.763 3.947) 36 (-7.939 -1.352) 37 (-7.301 2.439) 38 (-5.758 -0.247) 39 (-8.923 2.462) 40 (-8.600 -2.986) 41 (-6.721 1.259) 42 (3.696 1.899) 43 (-0.063 2.383) 44 (-3.902 -0.309) 45 (1.366 -4.460) 46 (2.604 0.632) 47 (1.454 -1.146) 48 (-0.209 -2.762) 49 (-2.189 -1.105) 50 (1.032 3.621) 51 (-4.392 1.697) 52 (4.240 -4.200) 53 (-4.114 -1.778) 54 (2.670 3.513) 55 (1.433 2.761) 56 (1.010 -0.203) 57 (-2.241 0.606) 58 (3.119 1.402) 59 (-3.289 -0.557) 60 (-3.051 -2.077) 61 (3.618 2.727) 62 (6.925 -1.652) 63 (13.777 0.296) 64 (7.640 -0.916) 65 (11.240 3.617) 66 (12.733 0.234) 67 (11.606 -0.251) 68 (9.997 -4.355) 69 (10.430 1.170) 70 (14.019 -3.090) 71 (6.265 -0.128) 72 (12.715 -0.775) 73 (9.910 3.681) 74 (7.812 0.381) 75 (11.032 -1.540) 76 (5.511 -0.500) 77 (7.081 0.039) 78 (5.525 0.553) 79 (10.919 -3.756) 80 (12.488 1.785) 81 (13.617 1.852) 82 (16.862 0.046) 83 (21.090 -0.654) 84 (20.060 1.455) 85 (19.828 -3.212) 86 (20.971 -3.424) 87 (19.077 -2.280) 88 (23.285 2.783) 89 (20.535 -1.357) 90 (18.459 0.611) 91 (22.058 4.241) 92 (22.615 -1.659) 93 (16.184 0.394) 94 (16.496 2.175) 95 (23.420 -2.208) 96 (21.583 1.016) 97 (15.858 1.929) 98 (17.765 -1.699) 99 (21.306 -1.860) 100 (15.158 -3.250) 101 (16.717 -2.779)",
        "odom": "pose 598569600000.000 201769900000.000 -90.123 9573287000000.000 2307141000000.000 713.903",
        "report": ""
    },
    {
        "clock": "0.8",
        "crowd": "id pose 2 (-16.322 0.818) 3 (-21.779 -4.603) 4 (-23.299 2.383) 5 (-22.768 3.252) 6 (-22.835 0.767) 7 (-21.927 -2.483) 8 (-16.246 4.136) 9 (-21.835 0.090) 10 (-16.998 -0.717) 11 (-19.121 2.573) 12 (-21.824 2.591) 13 (-22.810 -2.749) 14 (-21.063 3.522) 15 (-21.125 2.643) 16 (-16.970 -2.361) 17 (-15.999 -0.652) 18 (-18.301 1.246) 19 (-18.463 4.004) 20 (-19.320 1.623) 21 (-17.872 4.550) 22 (-8.393 4.642) 23 (-11.986 1.570) 24 (-8.233 2.132) 25 (-9.136 0.869) 26 (-12.789 1.396) 27 (-6.326 -3.176) 28 (-7.238 -1.168) 29 (-13.360 -1.818) 30 (-10.009 0.782) 31 (-5.616 3.283) 32 (-14.307 -1.416) 33 (-8.988 -1.876) 34 (-11.419 -4.217) 35 (-12.679 4.040) 36 (-7.959 -1.241) 37 (-7.351 2.340) 38 (-5.842 -0.123) 39 (-8.954 2.317) 40 (-8.593 -2.883) 41 (-6.709 1.396) 42 (3.589 1.972) 43 (-0.022 2.230) 44 (-3.881 -0.270) 45 (1.269 -4.550) 46 (2.512 0.774) 47 (1.501 -1.269) 48 (-0.194 -2.648) 49 (-2.184 -0.974) 50 (1.103 3.730) 51 (-4.425 1.583) 52 (4.169 -4.318) 53 (-4.116 -1.666) 54 (2.632 3.680) 55 (1.315 2.870) 56 (0.982 -0.331) 57 (-2.168 0.735) 58 (3.091 1.265) 59 (-3.253 -0.475) 60 (-3.020 -2.189) 61 (3.510 2.804) 62 (6.972 -1.805) 63 (13.699 0.375) 64 (7.633 -0.849) 65 (11.327 3.744) 66 (12.687 0.339) 67 (11.576 -0.360) 68 (10.027 -4.471) 69 (10.393 1.293) 70 (14.007 -2.967) 71 (6.294 -0.232) 72 (12.669 -0.682) 73 (9.988 3.767) 74 (7.876 0.279) 75 (10.985 -1.398) 76 (5.582 -0.379) 77 (7.051 0.039) 78 (5.531 0.696) 79 (10.988 -3.891) 80 (12.408 1.902) 81 (13.541 1.925) 82 (16.886 -0.075) 83 (21.093 -0.512) 84 (20.096 1.375) 85 (19.825 -3.317) 86 (20.987 -3.298) 87 (19.087 -2.423) 88 (23.269 2.909) 89 (20.482 -1.227) 90 (18.498 0.707) 91 (22.027 4.369) 92 (22.560 -1.543) 93 (16.234 0.520) 94 (16.601 2.073) 95 (23.396 -2.325) 96 (21.485 1.119) 97 (15.873 2.049) 98 (17.813 -1.589) 99 (21.300 -1.753) 100 (15.206 -3.113) 101 (16.702 -2.692)",
        "odom": "pose 1328980000000.000 595942300000.000 -85.331 7304098000000.000 3941723000000.000 47.922",
        "report": ""
    },
    {
        "clock": "0.9",
        "crowd": "id pose 2 (-16.406 0.690) 3 (-21.800 -4.717) 4 (-23.300 2.526) 5 (-22.821 3.381) 6 (-22.834 0.911) 7 (-21.898 -2.368) 8 (-16.259 4.267) 9 (-21.749 -0.032) 10 (-16.976 -0.837) 11 (-19.108 2.709) 12 (-21.821 2.446) 13 (-22.817 -2.640) 14 (-21.138 3.641) 15 (-21.051 2.777) 16 (-17.057 -2.244) 17 (-16.023 -0.529) 18 (-18.338 1.096) 19 (-18.428 4.111) 20 (-19.418 1.742) 21 (-17.819 4.641) 22 (-8.505 4.710) 23 (-11.893 1.438) 24 (-8.274 2.032) 25 (-9.141 0.702) 26 (-12.689 1.499) 27 (-6.301 -3.288) 28 (-7.260 -1.056) 29 (-13.365 -1.980) 30 (-9.994 0.645) 31 (-5.622 3.415) 32 (-14.311 -1.286) 33 (-9.040 -1.967) 34 (-11.328 -4.313) 35 (-12.594 4.133) 36 (-7.978 -1.138) 37 (-7.400 2.248) 38 (-5.925 0.001) 39 (-8.984 2.169) 40 (-8.585 -2.780) 41 (-6.697 1.534) 42 (3.475 2.053) 43 (0.018 2.078) 44 (-3.859 -0.233) 45 (1.171 -4.639) 46 (2.425 0.918) 47 (1.549 -1.393) 48 (-0.179 -2.534) 49 (-2.178 -0.840) 50 (1.175 3.839) 51 (-4.458 1.439) 52 (4.097 -4.436) 53 (-4.119 -1.551) 54 (2.594 3.846) 55 (1.196 2.980) 56 (0.954 -0.459) 57 (-2.096 0.865) 58 (3.062 1.127) 59 (-3.217 -0.391) 60 (-2.989 -2.300) 61 (3.402 2.881) 62 (7.018 -1.957) 63 (13.622 0.454) 64 (7.619 -0.765) 65 (11.414 3.871) 66 (12.640 0.445) 67 (11.546 -0.469) 68 (10.057 -4.586) 69 (10.357 1.417) 70 (13.995 -2.844) 71 (6.324 -0.337) 72 (12.624 -0.589) 73 (10.066 3.852) 74 (7.940 0.177) 75 (10.938 -1.257) 76 (5.653 -0.258) 77 (7.027 0.004) 78 (5.536 0.838) 79 (11.057 -4.025) 80 (12.328 2.018) 81 (13.464 1.998) 82 (16.909 -0.195) 83 (21.093 -0.370) 84 (20.132 1.295) 85 (19.823 -3.423) 86 (21.003 -3.172) 87 (19.096 -2.565) 88 (23.253 3.035) 89 (20.430 -1.098) 90 (18.536 0.802) 91 (21.996 4.497) 92 (22.505 -1.426) 93 (16.283 0.645) 94 (16.700 1.969) 95 (23.373 -2.442) 96 (21.387 1.223) 97 (15.888 2.169) 98 (17.862 -1.481) 99 (21.294 -1.648) 100 (15.255 -2.974) 101 (16.687 -2.606)",
        "odom": "pose 2457991000000.000 1478395000000.000 -80.085 11290110000000.000 8824535000000.000 52.458",
        "report": ""
    },
    {
        "clock": "1.0",
        "crowd": "id pose 2 (-16.491 0.561) 3 (-21.821 4.669) 4 (-23.300 2.669) 5 (-22.874 3.510) 6 (-22.833 1.055) 7 (-21.868 -2.254) 8 (-16.270 4.399) 9 (-21.665 -0.154) 10 (-16.954 -0.956) 11 (-19.095 2.845) 12 (-21.817 2.300) 13 (-22.824 -2.530) 14 (-21.212 3.760) 15 (-20.977 2.911) 16 (-17.143 -2.127) 17 (-16.047 -0.407) 18 (-18.376 0.947) 19 (-18.393 4.217) 20 (-19.516 1.860) 21 (-17.767 4.731) 22 (-8.616 -4.721) 23 (-11.800 1.306) 24 (-8.315 1.934) 25 (-9.155 0.523) 26 (-12.589 1.603) 27 (-6.277 -3.401) 28 (-7.282 -0.949) 29 (-13.371 -2.142) 30 (-9.979 0.508) 31 (-5.629 3.548) 32 (-14.315 -1.156) 33 (-9.090 -2.059) 34 (-11.236 -4.409) 35 (-12.510 4.225) 36 (-7.998 -1.041) 37 (-7.449 2.162) 38 (-6.008 0.125) 39 (-9.014 2.022) 40 (-8.577 -2.677) 41 (-6.685 1.671) 42 (3.359 2.137) 43 (0.058 1.925) 44 (-3.835 -0.200) 45 (1.073 -4.728) 46 (2.338 1.060) 47 (1.596 -1.517) 48 (-0.163 -2.420) 49 (-2.173 -0.705) 50 (1.247 3.948) 51 (-4.490 1.294) 52 (4.026 -4.553) 53 (-4.123 -1.435) 54 (2.555 4.012) 55 (1.078 3.089) 56 (0.927 -0.587) 57 (-2.024 0.994) 58 (3.034 0.990) 59 (-3.179 -0.312) 60 (-2.957 -2.412) 61 (3.294 2.957) 62 (7.064 -2.109) 63 (13.544 0.532) 64 (7.606 -0.681) 65 (11.500 3.998) 66 (12.593 0.550) 67 (11.516 -0.578) 68 (10.087 -4.702) 69 (10.321 1.540) 70 (13.983 -2.721) 71 (6.353 -0.441) 72 (12.578 -0.496) 73 (10.144 3.938) 74 (8.004 0.076) 75 (10.891 -1.115) 76 (5.725 -0.137) 77 (7.000 -0.048) 78 (5.542 0.981) 79 (11.126 -4.160) 80 (12.248 2.134) 81 (13.388 2.071) 82 (16.933 -0.316) 83 (21.092 -0.228) 84 (20.166 1.221) 85 (19.821 -3.529) 86 (21.018 -3.046) 87 (19.105 -2.708) 88 (23.237 3.161) 89 (20.377 -0.968) 90 (18.574 0.898) 91 (21.965 4.625) 92 (22.452 -1.308) 93 (16.332 0.771) 94 (16.796 1.870) 95 (23.350 -2.559) 96 (21.289 1.326) 97 (15.903 2.289) 98 (17.915 -1.376) 99 (21.290 -1.547) 100 (15.306 -2.831) 101 (16.672 -2.521)",
        "odom": "pose 2794321000000.000 4388530000000.000 -137.092 3363307000000.000 29101340000000.000 -570.063",
        "report": ""
    },
    {
        "clock": "1.1",
        "crowd": "id pose 2 (-16.575 0.432) 3 (-21.867 4.464) 4 (-23.301 2.812) 5 (-22.927 3.639) 6 (-22.832 1.199) 7 (-21.838 -2.140) 8 (-16.281 4.532) 9 (-21.581 -0.276) 10 (-16.932 -1.076) 11 (-19.082 2.981) 12 (-21.813 2.155) 13 (-22.831 -2.421) 14 (-21.253 3.877) 15 (-20.903 3.045) 16 (-17.229 -2.010) 17 (-16.070 -0.286) 18 (-18.413 0.797) 19 (-18.358 4.324) 20 (-19.614 1.978) 21 (-17.716 -4.680) 22 (-8.738 -4.644) 23 (-11.707 1.174) 24 (-8.357 1.837) 25 (-9.169 0.344) 26 (-12.489 1.707) 27 (-6.252 -3.514) 28 (-7.304 -0.847) 29 (-13.377 -2.304) 30 (-9.963 0.371) 31 (-5.636 3.681) 32 (-14.319 -1.026) 33 (-9.137 -2.146) 34 (-11.144 -4.505) 35 (-12.426 4.318) 36 (-8.018 -0.950) 37 (-7.497 2.083) 38 (-6.091 0.249) 39 (-9.044 1.874) 40 (-8.569 -2.574) 41 (-6.673 1.809) 42 (3.244 2.222) 43 (0.099 1.773) 44 (-3.806 -0.186) 45 (0.976 4.683) 46 (2.251 1.198) 47 (1.643 -1.641) 48 (-0.148 -2.307) 49 (-2.169 -0.569) 50 (1.318 4.057) 51 (-4.522 1.150) 52 (3.954 -4.671) 53 (-4.127 -1.320) 54 (2.516 4.179) 55 (0.960 3.198) 56 (0.899 -0.715) 57 (-1.951 1.124) 58 (3.006 0.852) 59 (-3.138 -0.237) 60 (-2.926 -2.524) 61 (3.186 3.034) 62 (7.110 -2.261) 63 (13.467 0.610) 64 (7.592 -0.597) 65 (11.587 4.125) 66 (12.546 0.656) 67 (11.485 -0.687) 68 (10.117 4.683) 69 (10.284 1.663) 70 (13.970 -2.597) 71 (6.382 -0.545) 72 (12.533 -0.403) 73 (10.223 4.024) 74 (8.067 -0.024) 75 (10.843 -0.973) 76 (5.796 -0.016) 77 (6.973 -0.110) 78 (5.547 1.123) 79 (11.195 -4.295) 80 (12.167 2.251) 81 (13.312 2.144) 82 (16.956 -0.436) 83 (21.090 -0.087) 84 (20.198 1.151) 85 (19.821 -3.635) 86 (21.034 -2.920) 87 (19.112 -2.851) 88 (23.221 3.287) 89 (20.325 -0.839) 90 (18.613 0.994) 91 (21.933 -4.747) 92 (22.398 -1.189) 93 (16.382 0.897) 94 (16.889 1.777) 95 (23.326 -2.676) 96 (21.191 1.429) 97 (15.918 2.409) 98 (17.974 -1.271) 99 (21.288 -1.448) 100 (15.358 -2.688) 101 (16.657 -2.436)",
        "odom": "pose 4266051000000.000 9499878000000.000 -111.904 14717300000000.000 51113500000000.000 251.871",
        "report": ""
    },
    {
        "clock": "1.2",
        "crowd": "id pose 2 (-16.660 0.303) 3 (-21.919 4.208) 4 (-23.301 2.955) 5 (-22.980 3.768) 6 (-22.838 1.344) 7 (-21.807 -2.030) 8 (-16.298 4.662) 9 (-21.498 -0.399) 10 (-16.911 -1.191) 11 (-19.069 3.117) 12 (-21.812 2.012) 13 (-22.838 -2.311) 14 (-21.284 3.991) 15 (-20.829 3.179) 16 (-17.316 -1.893) 17 (-16.094 -0.164) 18 (-18.451 0.648) 19 (-18.323 4.431) 20 (-19.712 2.096) 21 (-17.697 -4.574) 22 (-8.864 -4.557) 23 (-11.614 1.043) 24 (-8.399 1.741) 25 (-9.184 0.165) 26 (-12.389 1.811) 27 (-6.228 -3.626) 28 (-7.327 -0.751) 29 (-13.382 -2.466) 30 (-9.947 0.234) 31 (-5.643 3.813) 32 (-14.323 -0.896) 33 (-9.183 -2.236) 34 (-11.052 -4.601) 35 (-12.342 4.410) 36 (-8.039 -0.865) 37 (-7.545 2.009) 38 (-6.174 0.373) 39 (-9.074 1.726) 40 (-8.561 -2.471) 41 (-6.661 1.946) 42 (3.131 2.308) 43 (0.140 1.620) 44 (-3.764 -0.208) 45 (0.903 4.619) 46 (2.164 1.335) 47 (1.690 -1.765) 48 (-0.134 -2.193) 49 (-2.165 -0.432) 50 (1.390 4.167) 51 (-4.554 1.006) 52 (3.883 4.711) 53 (-4.131 -1.205) 54 (2.477 4.346) 55 (0.812 3.292) 56 (0.872 -0.843) 57 (-1.884 1.250) 58 (2.978 0.715) 59 (-3.097 -0.163) 60 (-2.895 -2.636) 61 (3.077 3.111) 62 (7.156 -2.413) 63 (13.389 0.687) 64 (7.578 -0.512) 65 (11.674 4.252) 66 (12.499 0.762) 67 (11.455 -0.796) 68 (10.119 4.645) 69 (10.248 1.786) 70 (13.958 -2.474) 71 (6.411 -0.649) 72 (12.487 -0.310) 73 (10.344 4.050) 74 (8.130 -0.123) 75 (10.796 -0.832) 76 (5.867 0.105) 77 (6.946 -0.178) 78 (5.552 1.266) 79 (11.264 -4.430) 80 (12.087 2.367) 81 (13.236 2.217) 82 (16.980 -0.557) 83 (21.086 0.054) 84 (20.228 1.086) 85 (19.821 -3.742) 86 (21.050 -2.794) 87 (19.118 -2.995) 88 (23.205 3.412) 89 (20.273 -0.710) 90 (18.651 1.089) 91 (21.925 -4.615) 92 (22.344 -1.070) 93 (16.431 1.023) 94 (16.979 1.689) 95 (23.303 -2.793) 96 (21.093 1.533) 97 (15.933 2.529) 98 (18.036 -1.163) 99 (21.288 -1.352) 100 (15.410 -2.545) 101 (16.642 -2.350)",
        "odom": "pose -2354251000000.000 1765863000000.000 72.585 -66203000000000.000 -77340130000000.000 1844.889",
        "report": ""
    }
]