[
    {
        "clock": "0.5",
        "crowd": "id pose",
        "odom": "pose 20.000 0.000 -180.000 0.000 0.000 0.000",
        "report": ""
    },
    {
        "clock": "0.6",
        "crowd": "id pose",
        "odom": "pose 20.000 0.000 -180.000 0.000 0.000 0.000",
        "report": ""
    },
    {
        "clock": "0.7",
        "crowd": "id pose",
        "odom": "pose 20.000 0.000 -180.000 0.000 0.000 0.000",
        "report": ""
    },
    {
        "clock": "0.8",
        "crowd": "id pose",
        "odom": "pose 20.000 0.000 -180.000 0.000 0.000 0.000",
        "report": ""
    },
    {
        "clock": "0.9",
        "crowd": "id pose",
        "odom": "pose 19.974 0.000 -180.000 -0.263 0.000 0.000",
        "report": ""
    },
    {
        "clock": "1.0",
        "crowd": "id pose",
        "odom": "pose 19.914 0.000 -180.000 -0.593 0.000 0.000",
        "report": ""
    },
    {
        "clock": "1.1",
        "crowd": "id pose",
        "odom": "pose 19.834 0.000 -180.000 -0.800 0.000 0.000",
        "report": ""
    },
    {
        "clock": "1.2",
        "crowd": "id pose",
        "odom": "pose 19.744 0.000 -180.000 -0.908 0.000 0.000",
        "report": ""
    },
    {
        "clock": "1.3",
        "crowd": "id pose",
        "odom": "pose 19.648 0.000 -180.000 -0.959 0.000 0.000",
        "report": ""
    },
    {
        "clock": "1.4",
        "crowd": "id pose",
        "odom": "pose 19.549 0.000 -180.000 -0.983 0.000 0.000",
        "report": ""
    },
    {
        "clock": "1.5",
        "crowd": "id pose",
        "odom": "pose 19.450 0.000 -180.000 -0.993 0.000 0.000",
        "report": ""
    },
    {
        "clock": "1.6",
        "crowd": "id pose",
        "odom": "pose 19.350 0.000 -180.000 -0.997 0.000 0.000",
        "report": ""
    },
    {
        "clock": "1.7",
        "crowd": "id pose",
        "odom": "pose 19.251 0.000 -180.000 -0.999 0.000 0.000",
        "report": ""
    },
    {
        "clock": "1.8",
        "crowd": "id pose",
        "odom": "pose 19.151 0.000 -180.000 -0.999 0.000 0.000",
        "report": ""
    },
    {
        "clock": "1.9",
        "crowd": "id pose",
        "odom": "pose 19.051 0.000 -180.000 -1.000 0.000 0.000",
        "report": ""
    },
    {
        "clock": "2.0",
        "crowd": "id pose",
        "odom": "pose 18.951 0.000 -180.000 -1.000 0.000 0.000",
        "report": ""
    },
    {
        "clock": "2.1",
        "crowd": "id pose",
        "odom": "pose 18.851 0.000 -180.000 -1.000 0.000 0.000",
        "report": ""
    },
    {
        "clock": "2.2",
        "crowd": "id pose",
        "odom": "pose 18.751 0.000 -180.000 -1.000 0.000 0.000",
        "report": ""
    },
    {
        "clock": "2.3",
        "crowd": "id pose",
        "odom": "pose 18.651 0.000 -180.000 -1.000 0.000 0.000",
        "report": ""
    },
    {
        "clock": "2.4",
        "crowd": "id pose",
        "odom": "pose 18.551 0.000 -180.000 -1.000 0.000 0.000",
        "report": ""
    },
    {
        "clock": "2.5",
        "crowd": "id pose",
        "odom": "pose 18.451 0.000 -180.000 -1.000 0.000 0.000",
        "report": ""
    },
    {
        "clock": "2.6",
        "crowd": "id pose",
        "odom": "pose 18.351 0.000 -180.000 -1.000 0.000 0.000",
        "report": ""
    },
    {
        "clock": "2.7",
        "crowd": "id pose",
        "odom": "pose 18.251 0.000 -180.000 -1.000 0.000 0.000",
        "report": ""
    },
    {
        "clock": "2.8",
        "crowd": "id pose",
        "odom": "pose 18.151 0.000 -180.000 -1.000 0.000 0.000",
        "report": ""
    },
    {
        "clock": "2.9",
        "crowd": "id pose",
        "odom": "pose 18.051 0.000 -180.000 -1.000 0.000 0.000",
        "report": ""
    },
    {
        "clock": "3.0",
        "crowd": "id pose",
        "odom": "pose 17.951 0.000 -180.000 -1.000 0.000 0.000",
        "report": ""
    },
    {
        "clock": "3.1",
        "crowd": "id pose",
        "odom": "pose 17.851 0.000 -180.000 -1.000 0.000 0.000",
        "report": ""
    },
    {
        "clock": "3.2",
        "crowd": "id pose",
        "odom": "pose 17.751 0.000 -180.000 -1.000 0.000 0.000",
        "report": ""
    },
    {
        "clock": "3.3",
        "crowd": "id pose",
        "odom": "pose 17.651 0.000 -180.000 -1.000 0.000 0.000",
        "report": ""
    },
    {
        "clock": "3.4",
        "crowd": "id pose",
        "odom": "pose 17.551 0.000 -180.000 -1.000 0.000 0.000",
        "report": ""
    },
    {
        "clock": "3.5",
        "crowd": "id pose",
        "odom": "pose 17.451 0.000 -180.000 -1.000 0.000 0.000",
        "report": ""
    },
    {
        "clock": "3.6",
        "crowd": "id pose",
        "odom": "pose 17.351 0.000 -180.000 -1.000 0.000 0.000",
        "report": ""
    },
    {
        "clock": "3.7",
        "crowd": "id pose",
        "odom": "pose 17.251 0.000 -180.000 -1.000 0.000 0.000",
        "report": ""
    },
    {
        "clock": "3.8",
        "crowd": "id pose",
        "odom": "pose 17.151 0.000 -180.000 -1.000 0.000 0.000",
        "report": ""
    },
    {
        "clock": "3.9",
        "crowd": "id pose",
        "odom": "pose 17.051 0.000 -180.000 -1.000 0.000 0.000",
        "report": ""
    },
    {
        "clock": "4.0",
        "crowd": "id pose",
        "odom": "pose 16.951 0.000 -180.000 -1.000 0.000 0.000",
        "report": ""
    },
    {
        "clock": "4.1",
        "crowd": "id pose",
        "odom": "pose 16.851 0.000 -180.000 -1.000 0.000 0.000",
        "report": ""
    },
    {
        "clock": "4.2",
        "crowd": "id pose",
        "odom": "pose 16.751 0.000 -180.000 -1.000 0.000 0.000",
        "report": ""
    },
    {
        "clock": "4.3",
        "crowd": "id pose",
        "odom": "pose 16.651 0.000 -180.000 -1.000 0.000 0.000",
        "report": ""
    },
    {
        "clock": "4.4",
        "crowd": "id pose",
        "odom": "pose 16.551 0.000 -180.000 -1.000 0.000 0.000",
        "report": ""
    },
    {
        "clock": "4.5",
        "crowd": "id pose",
        "odom": "pose 16.451 0.000 -180.000 -1.000 0.000 0.000",
        "report": ""
    },
    {
        "clock": "4.6",
        "crowd": "id pose",
        "odom": "pose 16.351 0.000 -180.000 -1.000 0.000 0.000",
        "report": ""
    },
    {
        "clock": "4.7",
        "crowd": "id pose",
        "odom": "pose 16.251 0.000 -180.000 -1.000 0.000 0.000",
        "report": ""
    },
    {
        "clock": "4.8",
        "crowd": "id pose",
        "odom": "pose 16.151 0.000 -180.000 -1.000 0.000 0.000",
        "report": ""
    },
    {
        "clock": "4.9",
        "crowd": "id pose",
        "odom": "pose 16.051 0.000 -180.000 -1.000 0.000 0.000",
        "report": ""
    },
    {
        "clock": "5.0",
        "crowd": "id pose",
        "odom": "pose 15.951 0.000 -180.000 -1.000 0.000 0.000",
        "report": ""
    },
    {
        "clock": "5.1",
        "crowd": "id pose",
        "odom": "pose 15.851 0.000 -180.000 -1.000 0.000 0.000",
        "report": ""
    },
    {
        "clock": "5.2",
        "crowd": "id pose",
        "odom": "pose 15.751 0.000 -180.000 -1.000 0.000 0.000",
        "report": ""
    },
    {
        "clock": "5.3",
        "crowd": "id pose",
        "odom": "pose 15.651 0.000 -180.000 -1.000 0.000 0.000",
        "report": ""
    },
    {
        "clock": "5.4",
        "crowd": "id pose",
        "odom": "pose 15.551 0.000 -180.000 -1.000 0.000 0.000",
        "report": ""
    },
    {
        "clock": "5.5",
        "crowd": "id pose",
        "odom": "pose 15.451 0.000 -180.000 -1.000 0.000 0.000",
        "report": ""
    },
    {
        "clock": "5.6",
        "crowd": "id pose",
        "odom": "pose 15.351 0.000 -180.000 -1.000 0.000 0.000",
        "report": ""
    },
    {
        "clock": "5.7",
        "crowd": "id pose",
        "odom": "pose 15.251 0.000 -180.000 -1.000 0.000 0.000",
        "report": ""
    },
    {
        "clock": "5.8",
        "crowd": "id pose",
        "odom": "pose 15.151 0.000 -180.000 -1.000 0.000 0.000",
        "report": ""
    },
    {
        "clock": "5.9",
        "crowd": "id pose",
        "odom": "pose 15.051 0.000 -180.000 -1.000 0.000 0.000",
        "report": ""
    },
    {
        "clock": "6.0",
        "crowd": "id pose",
        "odom": "pose 14.951 0.000 -180.000 -1.000 0.000 0.000",
        "report": ""
    },
    {
        "clock": "6.1",
        "crowd": "id pose",
        "odom": "pose 14.851 0.000 -180.000 -1.000 0.000 0.000",
        "report": ""
    },
    {
        "clock": "6.2",
        "crowd": "id pose",
        "odom": "pose 14.751 0.000 -180.000 -1.000 0.000 0.000",
        "report": ""
    },
    {
        "clock": "6.3",
        "crowd": "id pose",
        "odom": "pose 14.651 0.000 -180.000 -1.000 0.000 0.000",
        "report": ""
    },
    {
        "clock": "6.4",
        "crowd": "id pose",
        "odom": "pose 14.551 0.000 -180.000 -1.000 0.000 0.000",
        "report": ""
    },
    {
        "clock": "6.5",
        "crowd": "id pose",
        "odom": "pose 14.451 0.000 -180.000 -1.000 0.000 0.000",
        "report": ""
    },
    {
        "clock": "6.6",
        "crowd": "id pose",
        "odom": "pose 14.351 0.000 -180.000 -1.000 0.000 0.000",
        "report": ""
    },
    {
        "clock": "6.7",
        "crowd": "id pose",
        "odom": "pose 14.251 0.000 -180.000 -1.000 0.000 0.000",
        "report": ""
    },
    {
        "clock": "6.8",
        "crowd": "id pose",
        "odom": "pose 14.151 0.000 -180.000 -1.000 0.000 0.000",
        "report": ""
    },
    {
        "clock": "6.9",
        "crowd": "id pose",
        "odom": "pose 14.051 0.000 -180.000 -1.000 0.000 0.000",
        "report": ""
    },
    {
        "clock": "7.0",
        "crowd": "id pose",
        "odom": "pose 13.951 0.000 -180.000 -1.000 0.000 0.000",
        "report": ""
    },
    {
        "clock": "7.1",
        "crowd": "id pose",
        "odom": "pose 13.851 0.000 -180.000 -1.000 0.000 0.000",
        "report": ""
    },
    {
        "clock": "7.2",
        "crowd": "id pose",
        "odom": "pose 13.751 0.000 -180.000 -1.000 0.000 0.000",
        "report": ""
    },
    {
        "clock": "7.3",
        "crowd": "id pose",
        "odom": "pose 13.651 0.000 -180.000 -1.000 0.000 0.000",
        "report": ""
    },
    {
        "clock": "7.4",
        "crowd": "id pose",
        "odom": "pose 13.551 0.000 -180.000 -1.000 0.000 0.000",
        "report": ""
    },
    {
        "clock": "7.5",
        "crowd": "id pose",
        "odom": "pose 13.451 0.000 -180.000 -1.000 0.000 0.000",
        "report": ""
    },
    {
        "clock": "7.6",
        "crowd": "id pose",
        "odom": "pose 13.351 0.000 -180.000 -1.000 0.000 0.000",
        "report": ""
    },
    {
        "clock": "7.7",
        "crowd": "id pose",
        "odom": "pose 13.251 0.000 -180.000 -1.000 0.000 0.000",
        "report": ""
    },
    {
        "clock": "7.8",
        "crowd": "id pose",
        "odom": "pose 13.151 0.000 -180.000 -1.000 0.000 0.000",
        "report": ""
    },
    {
        "clock": "7.9",
        "crowd": "id pose",
        "odom": "pose 13.051 0.000 -180.000 -1.000 0.000 0.000",
        "report": ""
    },
    {
        "clock": "8.0",
        "crowd": "id pose",
        "odom": "pose 12.951 0.000 -180.000 -1.000 0.000 0.000",
        "report": ""
    },
    {
        "clock": "8.1",
        "crowd": "id pose",
        "odom": "pose 12.851 0.000 -180.000 -1.000 0.000 0.000",
        "report": ""
    },
    {
        "clock": "8.2",
        "crowd": "id pose",
        "odom": "pose 12.751 0.000 -180.000 -1.000 0.000 0.000",
        "report": ""
    },
    {
        "clock": "8.3",
        "crowd": "id pose",
        "odom": "pose 12.651 0.000 -180.000 -1.000 0.000 0.000",
        "report": ""
    },
    {
        "clock": "8.4",
        "crowd": "id pose",
        "odom": "pose 12.551 0.000 -180.000 -1.000 0.000 0.000",
        "report": ""
    },
    {
        "clock": "8.5",
        "crowd": "id pose",
        "odom": "pose 12.451 0.000 -180.000 -1.000 0.000 0.000",
        "report": ""
    },
    {
        "clock": "8.6",
        "crowd": "id pose",
        "odom": "pose 12.351 0.000 -180.000 -1.000 0.000 0.000",
        "report": ""
    },
    {
        "clock": "8.7",
        "crowd": "id pose",
        "odom": "pose 12.251 0.000 -180.000 -1.000 0.000 0.000",
        "report": ""
    },
    {
        "clock": "8.8",
        "crowd": "id pose",
        "odom": "pose 12.151 0.000 -180.000 -1.000 0.000 0.000",
        "report": ""
    },
    {
        "clock": "8.9",
        "crowd": "id pose",
        "odom": "pose 12.051 0.000 -180.000 -1.000 0.000 0.000",
        "report": ""
    },
    {
        "clock": "9.0",
        "crowd": "id pose",
        "odom": "pose 11.951 0.000 -180.000 -1.000 0.000 0.000",
        "report": ""
    },
    {
        "clock": "9.1",
        "crowd": "id pose",
        "odom": "pose 11.851 0.000 -180.000 -1.000 0.000 0.000",
        "report": ""
    },
    {
        "clock": "9.2",
        "crowd": "id pose",
        "odom": "pose 11.751 0.000 -180.000 -1.000 0.000 0.000",
        "report": ""
    },
    {
        "clock": "9.3",
        "crowd": "id pose",
        "odom": "pose 11.651 0.000 -180.000 -1.000 0.000 0.000",
        "report": ""
    },
    {
        "clock": "9.4",
        "crowd": "id pose",
        "odom": "pose 11.551 0.000 -180.000 -1.000 0.000 0.000",
        "report": ""
    },
    {
        "clock": "9.5",
        "crowd": "id pose",
        "odom": "pose 11.451 0.000 -180.000 -1.000 0.000 0.000",
        "report": ""
    },
    {
        "clock": "9.6",
        "crowd": "id pose",
        "odom": "pose 11.351 0.000 -180.000 -1.000 0.000 0.000",
        "report": ""
    },
    {
        "clock": "9.7",
        "crowd": "id pose",
        "odom": "pose 11.251 0.000 -180.000 -1.000 0.000 0.000",
        "report": ""
    },
    {
        "clock": "9.8",
        "crowd": "id pose",
        "odom": "pose 11.151 0.000 -180.000 -1.000 0.000 0.000",
        "report": ""
    },
    {
        "clock": "9.9",
        "crowd": "id pose",
        "odom": "pose 11.051 0.000 -180.000 -1.000 0.000 0.000",
        "report": ""
    },
    {
        "clock": "10.0",
        "crowd": "id pose",
        "odom": "pose 10.951 0.000 -180.000 -1.000 0.000 0.000",
        "report": ""
    },
    {
        "clock": "10.1",
        "crowd": "id pose",
        "odom": "pose 10.851 0.000 -180.000 -1.000 0.000 0.000",
        "report": ""
    },
    {
        "clock": "10.2",
        "crowd": "id pose",
        "odom": "pose 10.751 0.000 -180.000 -1.000 0.000 0.000",
        "report": ""
    },
    {
        "clock": "10.3",
        "crowd": "id pose",
        "odom": "pose 10.650 0.000 -180.000 -1.000 0.000 0.000",
        "report": ""
    },
    {
        "clock": "10.4",
        "crowd": "id pose",
        "odom": "pose 10.550 0.000 -180.000 -1.000 0.000 0.000",
        "report": ""
    },
    {
        "clock": "10.5",
        "crowd": "id pose",
        "odom": "pose 10.450 0.000 -180.000 -1.000 0.000 0.000",
        "report": ""
    },
    {
        "clock": "10.6",
        "crowd": "id pose",
        "odom": "pose 10.350 0.000 -180.000 -1.000 0.000 0.000",
        "report": ""
    },
    {
        "clock": "10.7",
        "crowd": "id pose",
        "odom": "pose 10.250 0.000 -180.000 -1.000 0.000 0.000",
        "report": ""
    },
    {
        "clock": "10.8",
        "crowd": "id pose",
        "odom": "pose 10.150 0.000 -180.000 -1.000 0.000 0.000",
        "report": ""
    },
    {
        "clock": "10.9",
        "crowd": "id pose",
        "odom": "pose 10.050 0.000 -180.000 -1.000 0.000 0.000",
        "report": ""
    },
    {
        "clock": "11.0",
        "crowd": "id pose",
        "odom": "pose 9.950 0.000 -180.000 -1.000 0.000 0.000",
        "report": ""
    },
    {
        "clock": "11.1",
        "crowd": "id pose",
        "odom": "pose 9.850 0.000 -180.000 -1.000 0.000 0.000",
        "report": ""
    },
    {
        "clock": "11.2",
        "crowd": "id pose",
        "odom": "pose 9.750 0.000 -180.000 -1.000 0.000 0.000",
        "report": ""
    },
    {
        "clock": "11.3",
        "crowd": "id pose",
        "odom": "pose 9.650 0.000 -180.000 -1.000 0.000 0.000",
        "report": ""
    },
    {
        "clock": "11.4",
        "crowd": "id pose",
        "odom": "pose 9.550 0.000 -180.000 -1.000 0.000 0.000",
        "report": ""
    },
    {
        "clock": "11.5",
        "crowd": "id pose",
        "odom": "pose 9.450 0.000 -180.000 -1.000 0.000 0.000",
        "report": ""
    },
    {
        "clock": "11.6",
        "crowd": "id pose",
        "odom": "pose 9.350 0.000 -180.000 -1.000 0.000 0.000",
        "report": ""
    },
    {
        "clock": "11.7",
        "crowd": "id pose",
        "odom": "pose 9.250 0.000 -180.000 -1.000 0.000 0.000",
        "report": ""
    },
    {
        "clock": "11.8",
        "crowd": "id pose",
        "odom": "pose 9.150 0.000 -180.000 -1.000 0.000 0.000",
        "report": ""
    },
    {
        "clock": "11.9",
        "crowd": "id pose",
        "odom": "pose 9.050 0.000 -180.000 -1.000 0.000 0.000",
        "report": ""
    },
    {
        "clock": "12.0",
        "crowd": "id pose",
        "odom": "pose 8.950 0.000 -180.000 -1.000 0.000 0.000",
        "report": ""
    },
    {
        "clock": "12.1",
        "crowd": "id pose",
        "odom": "pose 8.850 0.000 -180.000 -1.000 0.000 0.000",
        "report": ""
    },
    {
        "clock": "12.2",
        "crowd": "id pose",
        "odom": "pose 8.750 0.000 -180.000 -1.000 0.000 0.000",
        "report": ""
    },
    {
        "clock": "12.3",
        "crowd": "id pose",
        "odom": "pose 8.650 0.000 -180.000 -1.000 0.000 0.000",
        "report": ""
    },
    {
        "clock": "12.4",
        "crowd": "id pose",
        "odom": "pose 8.550 0.000 -180.000 -1.000 0.000 0.000",
        "report": ""
    },
    {
        "clock": "12.5",
        "crowd": "id pose",
        "odom": "pose 8.450 0.000 -180.000 -1.000 0.000 0.000",
        "report": ""
    },
    {
        "clock": "12.6",
        "crowd": "id pose",
        "odom": "pose 8.350 0.000 -180.000 -1.000 0.000 0.000",
        "report": ""
    },
    {
        "clock": "12.7",
        "crowd": "id pose",
        "odom": "pose 8.250 0.000 -180.000 -1.000 0.000 0.000",
        "report": ""
    },
    {
        "clock": "12.8",
        "crowd": "id pose",
        "odom": "pose 8.150 0.000 -180.000 -1.000 0.000 0.000",
        "report": ""
    },
    {
        "clock": "12.9",
        "crowd": "id pose",
        "odom": "pose 8.050 0.000 -180.000 -1.000 0.000 0.000",
        "report": ""
    },
    {
        "clock": "13.0",
        "crowd": "id pose",
        "odom": "pose 7.950 0.000 -180.000 -1.000 0.000 0.000",
        "report": ""
    },
    {
        "clock": "13.1",
        "crowd": "id pose",
        "odom": "pose 7.850 0.000 -180.000 -1.000 0.000 0.000",
        "report": ""
    },
    {
        "clock": "13.2",
        "crowd": "id pose",
        "odom": "pose 7.750 0.000 -180.000 -1.000 0.000 0.000",
        "report": ""
    },
    {
        "clock": "13.3",
        "crowd": "id pose",
        "odom": "pose 7.650 0.000 -180.000 -1.000 0.000 0.000",
        "report": ""
    },
    {
        "clock": "13.4",
        "crowd": "id pose",
        "odom": "pose 7.550 0.000 -180.000 -1.000 0.000 0.000",
        "report": ""
    },
    {
        "clock": "13.5",
        "crowd": "id pose",
        "odom": "pose 7.450 0.000 -180.000 -1.000 0.000 0.000",
        "report": ""
    },
    {
        "clock": "13.6",
        "crowd": "id pose",
        "odom": "pose 7.350 0.000 -180.000 -1.000 0.000 0.000",
        "report": ""
    },
    {
        "clock": "13.7",
        "crowd": "id pose",
        "odom": "pose 7.250 0.000 -180.000 -1.000 0.000 0.000",
        "report": ""
    },
    {
        "clock": "13.8",
        "crowd": "id pose",
        "odom": "pose 7.150 0.000 -180.000 -1.000 0.000 0.000",
        "report": ""
    },
    {
        "clock": "13.9",
        "crowd": "id pose",
        "odom": "pose 7.050 0.000 -180.000 -1.000 0.000 0.000",
        "report": ""
    },
    {
        "clock": "14.0",
        "crowd": "id pose",
        "odom": "pose 6.950 0.000 -180.000 -1.000 0.000 0.000",
        "report": ""
    },
    {
        "clock": "14.1",
        "crowd": "id pose",
        "odom": "pose 6.850 0.000 -180.000 -1.000 0.000 0.000",
        "report": ""
    },
    {
        "clock": "14.2",
        "crowd": "id pose",
        "odom": "pose 6.750 0.000 -180.000 -1.000 0.000 0.000",
        "report": ""
    },
    {
        "clock": "14.3",
        "crowd": "id pose",
        "odom": "pose 6.650 0.000 -180.000 -1.000 0.000 0.000",
        "report": ""
    },
    {
        "clock": "14.4",
        "crowd": "id pose",
        "odom": "pose 6.550 0.000 -180.000 -1.000 0.000 0.000",
        "report": ""
    },
    {
        "clock": "14.5",
        "crowd": "id pose",
        "odom": "pose 6.450 0.000 -180.000 -1.000 0.000 0.000",
        "report": ""
    },
    {
        "clock": "14.6",
        "crowd": "id pose",
        "odom": "pose 6.350 0.000 -180.000 -1.000 0.000 0.000",
        "report": ""
    },
    {
        "clock": "14.7",
        "crowd": "id pose",
        "odom": "pose 6.250 0.000 -180.000 -1.000 0.000 0.000",
        "report": ""
    },
    {
        "clock": "14.8",
        "crowd": "id pose",
        "odom": "pose 6.150 0.000 -180.000 -1.000 0.000 0.000",
        "report": ""
    },
    {
        "clock": "14.9",
        "crowd": "id pose",
        "odom": "pose 6.050 0.000 -180.000 -1.000 0.000 0.000",
        "report": ""
    },
    {
        "clock": "15.0",
        "crowd": "id pose",
        "odom": "pose 5.950 0.000 -180.000 -1.000 0.000 0.000",
        "report": ""
    },
    {
        "clock": "15.1",
        "crowd": "id pose",
        "odom": "pose 5.850 0.000 -180.000 -1.000 0.000 0.000",
        "report": ""
    },
    {
        "clock": "15.2",
        "crowd": "id pose",
        "odom": "pose 5.750 0.000 -180.000 -1.000 0.000 0.000",
        "report": ""
    },
    {
        "clock": "15.3",
        "crowd": "id pose",
        "odom": "pose 5.650 0.000 -180.000 -1.000 0.000 0.000",
        "report": ""
    },
    {
        "clock": "15.4",
        "crowd": "id pose",
        "odom": "pose 5.550 0.000 -180.000 -1.000 0.000 0.000",
        "report": ""
    },
    {
        "clock": "15.5",
        "crowd": "id pose",
        "odom": "pose 5.450 0.000 -180.000 -1.000 0.000 0.000",
        "report": ""
    },
    {
        "clock": "15.6",
        "crowd": "id pose",
        "odom": "pose 5.350 0.000 -180.000 -1.000 0.000 0.000",
        "report": ""
    },
    {
        "clock": "15.7",
        "crowd": "id pose",
        "odom": "pose 5.250 0.000 -180.000 -1.000 0.000 0.000",
        "report": ""
    },
    {
        "clock": "15.8",
        "crowd": "id pose",
        "odom": "pose 5.150 0.000 -180.000 -1.000 0.000 0.000",
        "report": ""
    },
    {
        "clock": "15.9",
        "crowd": "id pose",
        "odom": "pose 5.050 0.000 -180.000 -1.000 0.000 0.000",
        "report": ""
    },
    {
        "clock": "16.0",
        "crowd": "id pose",
        "odom": "pose 4.950 0.000 -180.000 -1.000 0.000 0.000",
        "report": ""
    },
    {
        "clock": "16.1",
        "crowd": "id pose",
        "odom": "pose 4.850 0.000 -180.000 -1.000 0.000 0.000",
        "report": ""
    },
    {
        "clock": "16.2",
        "crowd": "id pose",
        "odom": "pose 4.750 0.000 -180.000 -1.000 0.000 0.000",
        "report": ""
    },
    {
        "clock": "16.3",
        "crowd": "id pose",
        "odom": "pose 4.650 0.000 -180.000 -1.000 0.000 0.000",
        "report": ""
    },
    {
        "clock": "16.4",
        "crowd": "id pose",
        "odom": "pose 4.550 0.000 -180.000 -1.000 0.000 0.000",
        "report": ""
    },
    {
        "clock": "16.5",
        "crowd": "id pose",
        "odom": "pose 4.450 0.000 -180.000 -1.000 0.000 0.000",
        "report": ""
    },
    {
        "clock": "16.6",
        "crowd": "id pose",
        "odom": "pose 4.350 0.000 -180.000 -1.000 0.000 0.000",
        "report": ""
    },
    {
        "clock": "16.7",
        "crowd": "id pose",
        "odom": "pose 4.250 0.000 -180.000 -1.000 0.000 0.000",
        "report": ""
    },
    {
        "clock": "16.8",
        "crowd": "id pose",
        "odom": "pose 4.150 0.000 -180.000 -1.000 0.000 0.000",
        "report": ""
    },
    {
        "clock": "16.9",
        "crowd": "id pose",
        "odom": "pose 4.050 0.000 -180.000 -1.000 0.000 0.000",
        "report": ""
    },
    {
        "clock": "17.0",
        "crowd": "id pose",
        "odom": "pose 3.950 0.000 -180.000 -1.000 0.000 0.000",
        "report": ""
    },
    {
        "clock": "17.1",
        "crowd": "id pose",
        "odom": "pose 3.850 0.000 -180.000 -1.000 0.000 0.000",
        "report": ""
    },
    {
        "clock": "17.2",
        "crowd": "id pose",
        "odom": "pose 3.750 0.000 -180.000 -1.000 0.000 0.000",
        "report": ""
    },
    {
        "clock": "17.3",
        "crowd": "id pose",
        "odom": "pose 3.650 0.000 -180.000 -1.000 0.000 0.000",
        "report": ""
    },
    {
        "clock": "17.4",
        "crowd": "id pose",
        "odom": "pose 3.550 0.000 -180.000 -1.000 0.000 0.000",
        "report": ""
    },
    {
        "clock": "17.5",
        "crowd": "id pose",
        "odom": "pose 3.450 0.000 -180.000 -1.000 0.000 0.000",
        "report": ""
    },
    {
        "clock": "17.6",
        "crowd": "id pose",
        "odom": "pose 3.350 0.000 -180.000 -1.000 0.000 0.000",
        "report": ""
    },
    {
        "clock": "17.7",
        "crowd": "id pose",
        "odom": "pose 3.250 0.000 -180.000 -1.000 0.000 0.000",
        "report": ""
    },
    {
        "clock": "17.8",
        "crowd": "id pose",
        "odom": "pose 3.150 0.000 -180.000 -1.000 0.000 0.000",
        "report": ""
    },
    {
        "clock": "17.9",
        "crowd": "id pose",
        "odom": "pose 3.050 0.000 -180.000 -1.000 0.000 0.000",
        "report": ""
    },
    {
        "clock": "18.0",
        "crowd": "id pose",
        "odom": "pose 2.950 0.000 -180.000 -1.000 0.000 0.000",
        "report": ""
    },
    {
        "clock": "18.1",
        "crowd": "id pose",
        "odom": "pose 2.850 0.000 -180.000 -1.000 0.000 0.000",
        "report": ""
    },
    {
        "clock": "18.2",
        "crowd": "id pose",
        "odom": "pose 2.750 0.000 -180.000 -1.000 0.000 0.000",
        "report": ""
    },
    {
        "clock": "18.3",
        "crowd": "id pose",
        "odom": "pose 2.650 0.000 -180.000 -1.000 0.000 0.000",
        "report": ""
    },
    {
        "clock": "18.4",
        "crowd": "id pose",
        "odom": "pose 2.550 0.000 -180.000 -1.000 0.000 0.000",
        "report": ""
    },
    {
        "clock": "18.5",
        "crowd": "id pose",
        "odom": "pose 2.450 0.000 -180.000 -1.000 0.000 0.000",
        "report": ""
    },
    {
        "clock": "18.6",
        "crowd": "id pose",
        "odom": "pose 2.350 0.000 -180.000 -1.000 0.000 0.000",
        "report": ""
    },
    {
        "clock": "18.7",
        "crowd": "id pose",
        "odom": "pose 2.250 0.000 -180.000 -1.000 0.000 0.000",
        "report": ""
    },
    {
        "clock": "18.8",
        "crowd": "id pose",
        "odom": "pose 2.150 0.000 -180.000 -1.000 0.000 0.000",
        "report": ""
    },
    {
        "clock": "18.9",
        "crowd": "id pose",
        "odom": "pose 2.050 0.000 -180.000 -1.000 0.000 0.000",
        "report": ""
    },
    {
        "clock": "19.0",
        "crowd": "id pose",
        "odom": "pose 1.950 0.000 -180.000 -1.000 0.000 0.000",
        "report": ""
    },
    {
        "clock": "19.1",
        "crowd": "id pose",
        "odom": "pose 1.850 0.000 -180.000 -1.000 0.000 0.000",
        "report": ""
    },
    {
        "clock": "19.2",
        "crowd": "id pose",
        "odom": "pose 1.750 0.000 -180.000 -1.000 0.000 0.000",
        "report": ""
    },
    {
        "clock": "19.3",
        "crowd": "id pose",
        "odom": "pose 1.650 0.000 -180.000 -1.000 0.000 0.000",
        "report": ""
    },
    {
        "clock": "19.4",
        "crowd": "id pose",
        "odom": "pose 1.550 0.000 -180.000 -1.000 0.000 0.000",
        "report": ""
    },
    {
        "clock": "19.5",
        "crowd": "id pose",
        "odom": "pose 1.450 0.000 -180.000 -1.000 0.000 0.000",
        "report": ""
    },
    {
        "clock": "19.6",
        "crowd": "id pose",
        "odom": "pose 1.350 0.000 -180.000 -1.000 0.000 0.000",
        "report": ""
    },
    {
        "clock": "19.7",
        "crowd": "id pose",
        "odom": "pose 1.250 0.000 -180.000 -1.000 0.000 0.000",
        "report": ""
    },
    {
        "clock": "19.8",
        "crowd": "id pose",
        "odom": "pose 1.150 0.000 -180.000 -1.000 0.000 0.000",
        "report": ""
    },
    {
        "clock": "19.9",
        "crowd": "id pose",
        "odom": "pose 1.050 0.000 -180.000 -1.000 0.000 0.000",
        "report": ""
    },
    {
        "clock": "20.0",
        "crowd": "id pose",
        "odom": "pose 0.950 0.000 -180.000 -1.000 0.000 0.000",
        "report": ""
    },
    {
        "clock": "20.1",
        "crowd": "id pose",
        "odom": "pose 0.850 0.000 -180.000 -1.000 0.000 0.000",
        "report": ""
    },
    {
        "clock": "20.2",
        "crowd": "id pose",
        "odom": "pose 0.750 0.000 -180.000 -1.000 0.000 0.000",
        "report": ""
    },
    {
        "clock": "20.3",
        "crowd": "id pose",
        "odom": "pose 0.650 0.000 -180.000 -1.000 0.000 0.000",
        "report": ""
    },
    {
        "clock": "20.4",
        "crowd": "id pose",
        "odom": "pose 0.550 0.000 -180.000 -1.000 0.000 0.000",
        "report": ""
    },
    {
        "clock": "20.5",
        "crowd": "id pose",
        "odom": "pose 0.450 0.000 -180.000 -1.000 0.000 0.000",
        "report": ""
    },
    {
        "clock": "20.6",
        "crowd": "id pose",
        "odom": "pose 0.350 0.000 -180.000 -1.000 0.000 0.000",
        "report": ""
    },
    {
        "clock": "20.7",
        "crowd": "id pose",
        "odom": "pose 0.250 0.000 -180.000 -1.000 0.000 0.000",
        "report": ""
    },
    {
        "clock": "20.8",
        "crowd": "id pose",
        "odom": "pose 0.150 0.000 -180.000 -1.000 0.000 0.000",
        "report": ""
    },
    {
        "clock": "20.9",
        "crowd": "id pose",
        "odom": "pose 0.050 0.000 -180.000 -1.000 0.000 0.000",
        "report": ""
    },
    {
        "clock": "21.0",
        "crowd": "id pose",
        "odom": "pose -0.050 0.000 -180.000 -1.000 0.000 0.000",
        "report": ""
    },
    {
        "clock": "21.1",
        "crowd": "id pose",
        "odom": "pose -0.150 0.000 -180.000 -1.000 0.000 0.000",
        "report": ""
    },
    {
        "clock": "21.2",
        "crowd": "id pose",
        "odom": "pose -0.250 0.000 -180.000 -1.000 0.000 0.000",
        "report": ""
    },
    {
        "clock": "21.3",
        "crowd": "id pose",
        "odom": "pose -0.350 0.000 -180.000 -1.000 0.000 0.000",
        "report": ""
    },
    {
        "clock": "21.4",
        "crowd": "id pose",
        "odom": "pose -0.450 0.000 -180.000 -1.000 0.000 0.000",
        "report": ""
    },
    {
        "clock": "21.5",
        "crowd": "id pose",
        "odom": "pose -0.550 0.000 -180.000 -1.000 0.000 0.000",
        "report": ""
    },
    {
        "clock": "21.6",
        "crowd": "id pose",
        "odom": "pose -0.650 0.000 -180.000 -1.000 0.000 0.000",
        "report": ""
    },
    {
        "clock": "21.7",
        "crowd": "id pose",
        "odom": "pose -0.750 0.000 -180.000 -1.000 0.000 0.000",
        "report": ""
    },
    {
        "clock": "21.8",
        "crowd": "id pose",
        "odom": "pose -0.850 0.000 -180.000 -1.000 0.000 0.000",
        "report": ""
    },
    {
        "clock": "21.9",
        "crowd": "id pose",
        "odom": "pose -0.950 0.000 -180.000 -1.000 0.000 0.000",
        "report": ""
    },
    {
        "clock": "22.0",
        "crowd": "id pose",
        "odom": "pose -1.050 0.000 -180.000 -1.000 0.000 0.000",
        "report": ""
    },
    {
        "clock": "22.1",
        "crowd": "id pose",
        "odom": "pose -1.150 0.000 -180.000 -1.000 0.000 0.000",
        "report": ""
    },
    {
        "clock": "22.2",
        "crowd": "id pose",
        "odom": "pose -1.250 0.000 -180.000 -1.000 0.000 0.000",
        "report": ""
    },
    {
        "clock": "22.3",
        "crowd": "id pose",
        "odom": "pose -1.350 0.000 -180.000 -1.000 0.000 0.000",
        "report": ""
    },
    {
        "clock": "22.4",
        "crowd": "id pose",
        "odom": "pose -1.450 0.000 -180.000 -1.000 0.000 0.000",
        "report": ""
    },
    {
        "clock": "22.5",
        "crowd": "id pose",
        "odom": "pose -1.550 0.000 -180.000 -1.000 0.000 0.000",
        "report": ""
    },
    {
        "clock": "22.6",
        "crowd": "id pose",
        "odom": "pose -1.650 0.000 -180.000 -1.000 0.000 0.000",
        "report": ""
    },
    {
        "clock": "22.7",
        "crowd": "id pose",
        "odom": "pose -1.750 0.000 -180.000 -1.000 0.000 0.000",
        "report": ""
    },
    {
        "clock": "22.8",
        "crowd": "id pose",
        "odom": "pose -1.850 0.000 -180.000 -1.000 0.000 0.000",
        "report": ""
    },
    {
        "clock": "22.9",
        "crowd": "id pose",
        "odom": "pose -1.950 0.000 -180.000 -1.000 0.000 0.000",
        "report": ""
    },
    {
        "clock": "23.0",
        "crowd": "id pose",
        "odom": "pose -2.050 0.000 -180.000 -1.000 0.000 0.000",
        "report": ""
    },
    {
        "clock": "23.1",
        "crowd": "id pose",
        "odom": "pose -2.150 0.000 -180.000 -1.000 0.000 0.000",
        "report": ""
    },
    {
        "clock": "23.2",
        "crowd": "id pose",
        "odom": "pose -2.250 0.000 -180.000 -1.000 0.000 0.000",
        "report": ""
    },
    {
        "clock": "23.3",
        "crowd": "id pose",
        "odom": "pose -2.350 0.000 -180.000 -1.000 0.000 0.000",
        "report": ""
    },
    {
        "clock": "23.4",
        "crowd": "id pose",
        "odom": "pose -2.450 0.000 -180.000 -1.000 0.000 0.000",
        "report": ""
    },
    {
        "clock": "23.5",
        "crowd": "id pose",
        "odom": "pose -2.550 0.000 -180.000 -1.000 0.000 0.000",
        "report": ""
    },
    {
        "clock": "23.6",
        "crowd": "id pose",
        "odom": "pose -2.650 0.000 -180.000 -1.000 0.000 0.000",
        "report": ""
    },
    {
        "clock": "23.7",
        "crowd": "id pose",
        "odom": "pose -2.750 0.000 -180.000 -1.000 0.000 0.000",
        "report": ""
    },
    {
        "clock": "23.8",
        "crowd": "id pose",
        "odom": "pose -2.850 0.000 -180.000 -1.000 0.000 0.000",
        "report": ""
    },
    {
        "clock": "23.9",
        "crowd": "id pose",
        "odom": "pose -2.950 0.000 -180.000 -1.000 0.000 0.000",
        "report": ""
    },
    {
        "clock": "24.0",
        "crowd": "id pose",
        "odom": "pose -3.050 0.000 -180.000 -1.000 0.000 0.000",
        "report": ""
    },
    {
        "clock": "24.1",
        "crowd": "id pose",
        "odom": "pose -3.150 0.000 -180.000 -1.000 0.000 0.000",
        "report": ""
    },
    {
        "clock": "24.2",
        "crowd": "id pose",
        "odom": "pose -3.250 0.000 -180.000 -1.000 0.000 0.000",
        "report": ""
    },
    {
        "clock": "24.3",
        "crowd": "id pose",
        "odom": "pose -3.350 0.000 -180.000 -1.000 0.000 0.000",
        "report": ""
    },
    {
        "clock": "24.4",
        "crowd": "id pose",
        "odom": "pose -3.450 0.000 -180.000 -1.000 0.000 0.000",
        "report": ""
    },
    {
        "clock": "24.5",
        "crowd": "id pose",
        "odom": "pose -3.550 0.000 -180.000 -1.000 0.000 0.000",
        "report": ""
    },
    {
        "clock": "24.6",
        "crowd": "id pose",
        "odom": "pose -3.650 0.000 -180.000 -1.000 0.000 0.000",
        "report": ""
    },
    {
        "clock": "24.7",
        "crowd": "id pose",
        "odom": "pose -3.750 0.000 -180.000 -1.000 0.000 0.000",
        "report": ""
    },
    {
        "clock": "24.8",
        "crowd": "id pose",
        "odom": "pose -3.850 0.000 -180.000 -1.000 0.000 0.000",
        "report": ""
    },
    {
        "clock": "24.9",
        "crowd": "id pose",
        "odom": "pose -3.950 0.000 -180.000 -1.000 0.000 0.000",
        "report": ""
    },
    {
        "clock": "25.0",
        "crowd": "id pose",
        "odom": "pose -4.050 0.000 -180.000 -1.000 0.000 0.000",
        "report": ""
    },
    {
        "clock": "25.1",
        "crowd": "id pose",
        "odom": "pose -4.150 0.000 -180.000 -1.000 0.000 0.000",
        "report": ""
    },
    {
        "clock": "25.2",
        "crowd": "id pose",
        "odom": "pose -4.250 0.000 -180.000 -1.000 0.000 0.000",
        "report": ""
    },
    {
        "clock": "25.3",
        "crowd": "id pose",
        "odom": "pose -4.350 0.000 -180.000 -1.000 0.000 0.000",
        "report": ""
    },
    {
        "clock": "25.4",
        "crowd": "id pose",
        "odom": "pose -4.450 0.000 -180.000 -1.000 0.000 0.000",
        "report": ""
    },
    {
        "clock": "25.5",
        "crowd": "id pose",
        "odom": "pose -4.550 0.000 -180.000 -1.000 0.000 0.000",
        "report": ""
    },
    {
        "clock": "25.6",
        "crowd": "id pose",
        "odom": "pose -4.650 0.000 -180.000 -1.000 0.000 0.000",
        "report": ""
    },
    {
        "clock": "25.7",
        "crowd": "id pose",
        "odom": "pose -4.750 0.000 -180.000 -1.000 0.000 0.000",
        "report": ""
    },
    {
        "clock": "25.8",
        "crowd": "id pose",
        "odom": "pose -4.850 0.000 -180.000 -1.000 0.000 0.000",
        "report": ""
    },
    {
        "clock": "25.9",
        "crowd": "id pose",
        "odom": "pose -4.950 0.000 -180.000 -1.000 0.000 0.000",
        "report": ""
    },
    {
        "clock": "26.0",
        "crowd": "id pose",
        "odom": "pose -5.050 0.000 -180.000 -1.000 0.000 0.000",
        "report": ""
    },
    {
        "clock": "26.1",
        "crowd": "id pose",
        "odom": "pose -5.150 0.000 -180.000 -1.000 0.000 0.000",
        "report": ""
    },
    {
        "clock": "26.2",
        "crowd": "id pose",
        "odom": "pose -5.250 0.000 -180.000 -1.000 0.000 0.000",
        "report": ""
    },
    {
        "clock": "26.3",
        "crowd": "id pose",
        "odom": "pose -5.350 0.000 -180.000 -1.000 0.000 0.000",
        "report": ""
    },
    {
        "clock": "26.4",
        "crowd": "id pose",
        "odom": "pose -5.450 0.000 -180.000 -1.000 0.000 0.000",
        "report": ""
    },
    {
        "clock": "26.5",
        "crowd": "id pose",
        "odom": "pose -5.550 0.000 -180.000 -1.000 0.000 0.000",
        "report": ""
    },
    {
        "clock": "26.6",
        "crowd": "id pose",
        "odom": "pose -5.650 0.000 -180.000 -1.000 0.000 0.000",
        "report": ""
    },
    {
        "clock": "26.7",
        "crowd": "id pose",
        "odom": "pose -5.750 0.000 -180.000 -1.000 0.000 0.000",
        "report": ""
    },
    {
        "clock": "26.8",
        "crowd": "id pose",
        "odom": "pose -5.850 0.000 -180.000 -1.000 0.000 0.000",
        "report": ""
    },
    {
        "clock": "26.9",
        "crowd": "id pose",
        "odom": "pose -5.950 0.000 -180.000 -1.000 0.000 0.000",
        "report": ""
    },
    {
        "clock": "27.0",
        "crowd": "id pose",
        "odom": "pose -6.050 0.000 -180.000 -1.000 0.000 0.000",
        "report": ""
    },
    {
        "clock": "27.1",
        "crowd": "id pose",
        "odom": "pose -6.150 0.000 -180.000 -1.000 0.000 0.000",
        "report": ""
    },
    {
        "clock": "27.2",
        "crowd": "id pose",
        "odom": "pose -6.250 0.000 -180.000 -1.000 0.000 0.000",
        "report": ""
    },
    {
        "clock": "27.3",
        "crowd": "id pose",
        "odom": "pose -6.350 0.000 -180.000 -1.000 0.000 0.000",
        "report": ""
    },
    {
        "clock": "27.4",
        "crowd": "id pose",
        "odom": "pose -6.450 0.000 -180.000 -1.000 0.000 0.000",
        "report": ""
    },
    {
        "clock": "27.5",
        "crowd": "id pose",
        "odom": "pose -6.550 0.000 -180.000 -1.000 0.000 0.000",
        "report": ""
    },
    {
        "clock": "27.6",
        "crowd": "id pose",
        "odom": "pose -6.650 0.000 -180.000 -1.000 0.000 0.000",
        "report": ""
    },
    {
        "clock": "27.7",
        "crowd": "id pose",
        "odom": "pose -6.750 0.000 -180.000 -1.000 0.000 0.000",
        "report": ""
    },
    {
        "clock": "27.8",
        "crowd": "id pose",
        "odom": "pose -6.850 0.000 -180.000 -1.000 0.000 0.000",
        "report": ""
    },
    {
        "clock": "27.9",
        "crowd": "id pose",
        "odom": "pose -6.950 0.000 -180.000 -1.000 0.000 0.000",
        "report": ""
    },
    {
        "clock": "28.0",
        "crowd": "id pose",
        "odom": "pose -7.050 0.000 -180.000 -1.000 0.000 0.000",
        "report": ""
    },
    {
        "clock": "28.1",
        "crowd": "id pose",
        "odom": "pose -7.150 0.000 -180.000 -1.000 0.000 0.000",
        "report": ""
    },
    {
        "clock": "28.2",
        "crowd": "id pose",
        "odom": "pose -7.250 0.000 -180.000 -1.000 0.000 0.000",
        "report": ""
    },
    {
        "clock": "28.3",
        "crowd": "id pose",
        "odom": "pose -7.350 0.000 -180.000 -1.000 0.000 0.000",
        "report": ""
    },
    {
        "clock": "28.4",
        "crowd": "id pose",
        "odom": "pose -7.450 0.000 -180.000 -1.000 0.000 0.000",
        "report": ""
    },
    {
        "clock": "28.5",
        "crowd": "id pose",
        "odom": "pose -7.550 0.000 -180.000 -1.000 0.000 0.000",
        "report": ""
    },
    {
        "clock": "28.6",
        "crowd": "id pose",
        "odom": "pose -7.650 0.000 -180.000 -1.000 0.000 0.000",
        "report": ""
    },
    {
        "clock": "28.7",
        "crowd": "id pose",
        "odom": "pose -7.750 0.000 -180.000 -1.000 0.000 0.000",
        "report": ""
    },
    {
        "clock": "28.8",
        "crowd": "id pose",
        "odom": "pose -7.850 0.000 -180.000 -1.000 0.000 0.000",
        "report": ""
    },
    {
        "clock": "28.9",
        "crowd": "id pose",
        "odom": "pose -7.950 0.000 -180.000 -1.000 0.000 0.000",
        "report": ""
    },
    {
        "clock": "29.0",
        "crowd": "id pose",
        "odom": "pose -8.050 0.000 -180.000 -1.000 0.000 0.000",
        "report": ""
    },
    {
        "clock": "29.1",
        "crowd": "id pose",
        "odom": "pose -8.150 0.000 -180.000 -1.000 0.000 0.000",
        "report": ""
    },
    {
        "clock": "29.2",
        "crowd": "id pose",
        "odom": "pose -8.250 0.000 -180.000 -1.000 0.000 0.000",
        "report": ""
    },
    {
        "clock": "29.3",
        "crowd": "id pose",
        "odom": "pose -8.350 0.000 -180.000 -1.000 0.000 0.000",
        "report": ""
    },
    {
        "clock": "29.4",
        "crowd": "id pose",
        "odom": "pose -8.450 0.000 -180.000 -1.000 0.000 0.000",
        "report": ""
    },
    {
        "clock": "29.5",
        "crowd": "id pose",
        "odom": "pose -8.550 0.000 -180.000 -1.000 0.000 0.000",
        "report": ""
    },
    {
        "clock": "29.6",
        "crowd": "id pose",
        "odom": "pose -8.650 0.000 -180.000 -1.000 0.000 0.000",
        "report": ""
    },
    {
        "clock": "29.7",
        "crowd": "id pose",
        "odom": "pose -8.750 0.000 -180.000 -1.000 0.000 0.000",
        "report": ""
    },
    {
        "clock": "29.8",
        "crowd": "id pose",
        "odom": "pose -8.850 0.000 -180.000 -1.000 0.000 0.000",
        "report": ""
    },
    {
        "clock": "29.9",
        "crowd": "id pose",
        "odom": "pose -8.950 0.000 -180.000 -1.000 0.000 0.000",
        "report": ""
    },
    {
        "clock": "30.0",
        "crowd": "id pose",
        "odom": "pose -9.050 0.000 -180.000 -1.000 0.000 0.000",
        "report": ""
    },
    {
        "clock": "30.1",
        "crowd": "id pose",
        "odom": "pose -9.150 0.000 -180.000 -1.000 0.000 0.000",
        "report": ""
    },
    {
        "clock": "30.2",
        "crowd": "id pose",
        "odom": "pose -9.250 0.000 -180.000 -1.000 0.000 0.000",
        "report": ""
    },
    {
        "clock": "30.3",
        "crowd": "id pose",
        "odom": "pose -9.350 0.000 -180.000 -1.000 0.000 0.000",
        "report": ""
    },
    {
        "clock": "30.4",
        "crowd": "id pose",
        "odom": "pose -9.450 0.000 -180.000 -1.000 0.000 0.000",
        "report": ""
    },
    {
        "clock": "30.5",
        "crowd": "id pose",
        "odom": "pose -9.550 0.000 -180.000 -1.000 0.000 0.000",
        "report": ""
    },
    {
        "clock": "30.6",
        "crowd": "id pose",
        "odom": "pose -9.650 0.000 -180.000 -1.000 0.000 0.000",
        "report": ""
    },
    {
        "clock": "30.7",
        "crowd": "id pose",
        "odom": "pose -9.750 0.000 -180.000 -1.000 0.000 0.000",
        "report": ""
    },
    {
        "clock": "30.8",
        "crowd": "id pose",
        "odom": "pose -9.850 0.000 -180.000 -1.000 0.000 0.000",
        "report": ""
    },
    {
        "clock": "30.9",
        "crowd": "id pose",
        "odom": "pose -9.950 0.000 -180.000 -1.000 0.000 0.000",
        "report": ""
    },
    {
        "clock": "31.0",
        "crowd": "id pose",
        "odom": "pose -10.050 0.000 -180.000 -1.000 0.000 0.000",
        "report": ""
    },
    {
        "clock": "31.1",
        "crowd": "id pose",
        "odom": "pose -10.150 0.000 -180.000 -1.000 0.000 0.000",
        "report": ""
    },
    {
        "clock": "31.2",
        "crowd": "id pose",
        "odom": "pose -10.250 0.000 -180.000 -1.000 0.000 0.000",
        "report": ""
    },
    {
        "clock": "31.3",
        "crowd": "id pose",
        "odom": "pose -10.351 0.000 -180.000 -1.000 0.000 0.000",
        "report": ""
    },
    {
        "clock": "31.4",
        "crowd": "id pose",
        "odom": "pose -10.451 0.000 -180.000 -1.000 0.000 0.000",
        "report": ""
    },
    {
        "clock": "31.5",
        "crowd": "id pose",
        "odom": "pose -10.551 0.000 -180.000 -1.000 0.000 0.000",
        "report": ""
    },
    {
        "clock": "31.6",
        "crowd": "id pose",
        "odom": "pose -10.651 0.000 -180.000 -1.000 0.000 0.000",
        "report": ""
    },
    {
        "clock": "31.7",
        "crowd": "id pose",
        "odom": "pose -10.751 0.000 -180.000 -1.000 0.000 0.000",
        "report": ""
    },
    {
        "clock": "31.8",
        "crowd": "id pose",
        "odom": "pose -10.851 0.000 -180.000 -1.000 0.000 0.000",
        "report": ""
    },
    {
        "clock": "31.9",
        "crowd": "id pose",
        "odom": "pose -10.951 0.000 -180.000 -1.000 0.000 0.000",
        "report": ""
    },
    {
        "clock": "32.0",
        "crowd": "id pose",
        "odom": "pose -11.051 0.000 -180.000 -1.000 0.000 0.000",
        "report": ""
    },
    {
        "clock": "32.1",
        "crowd": "id pose",
        "odom": "pose -11.151 0.000 -180.000 -1.000 0.000 0.000",
        "report": ""
    },
    {
        "clock": "32.2",
        "crowd": "id pose",
        "odom": "pose -11.251 0.000 -180.000 -1.000 0.000 0.000",
        "report": ""
    },
    {
        "clock": "32.3",
        "crowd": "id pose",
        "odom": "pose -11.351 0.000 -180.000 -1.000 0.000 0.000",
        "report": ""
    },
    {
        "clock": "32.4",
        "crowd": "id pose",
        "odom": "pose -11.451 0.000 -180.000 -1.000 0.000 0.000",
        "report": ""
    },
    {
        "clock": "32.5",
        "crowd": "id pose",
        "odom": "pose -11.551 0.000 -180.000 -1.000 0.000 0.000",
        "report": ""
    },
    {
        "clock": "32.6",
        "crowd": "id pose",
        "odom": "pose -11.651 0.000 -180.000 -1.000 0.000 0.000",
        "report": ""
    },
    {
        "clock": "32.7",
        "crowd": "id pose",
        "odom": "pose -11.751 0.000 -180.000 -1.000 0.000 0.000",
        "report": ""
    },
    {
        "clock": "32.8",
        "crowd": "id pose",
        "odom": "pose -11.851 0.000 -180.000 -1.000 0.000 0.000",
        "report": ""
    },
    {
        "clock": "32.9",
        "crowd": "id pose",
        "odom": "pose -11.951 0.000 -180.000 -1.000 0.000 0.000",
        "report": ""
    },
    {
        "clock": "33.0",
        "crowd": "id pose",
        "odom": "pose -12.051 0.000 -180.000 -1.000 0.000 0.000",
        "report": ""
    },
    {
        "clock": "33.1",
        "crowd": "id pose",
        "odom": "pose -12.151 0.000 -180.000 -1.000 0.000 0.000",
        "report": ""
    },
    {
        "clock": "33.2",
        "crowd": "id pose",
        "odom": "pose -12.251 0.000 -180.000 -1.000 0.000 0.000",
        "report": ""
    },
    {
        "clock": "33.3",
        "crowd": "id pose",
        "odom": "pose -12.351 0.000 -180.000 -1.000 0.000 0.000",
        "report": ""
    },
    {
        "clock": "33.4",
        "crowd": "id pose",
        "odom": "pose -12.451 0.000 -180.000 -1.000 0.000 0.000",
        "report": ""
    },
    {
        "clock": "33.5",
        "crowd": "id pose",
        "odom": "pose -12.551 0.000 -180.000 -1.000 0.000 0.000",
        "report": ""
    },
    {
        "clock": "33.6",
        "crowd": "id pose",
        "odom": "pose -12.651 0.000 -180.000 -1.000 0.000 0.000",
        "report": ""
    },
    {
        "clock": "33.7",
        "crowd": "id pose",
        "odom": "pose -12.751 0.000 -180.000 -1.000 0.000 0.000",
        "report": ""
    },
    {
        "clock": "33.8",
        "crowd": "id pose",
        "odom": "pose -12.851 0.000 -180.000 -1.000 0.000 0.000",
        "report": ""
    },
    {
        "clock": "33.9",
        "crowd": "id pose",
        "odom": "pose -12.951 0.000 -180.000 -1.000 0.000 0.000",
        "report": ""
    },
    {
        "clock": "34.0",
        "crowd": "id pose",
        "odom": "pose -13.051 0.000 -180.000 -1.000 0.000 0.000",
        "report": ""
    },
    {
        "clock": "34.1",
        "crowd": "id pose",
        "odom": "pose -13.151 0.000 -180.000 -1.000 0.000 0.000",
        "report": ""
    },
    {
        "clock": "34.2",
        "crowd": "id pose",
        "odom": "pose -13.251 0.000 -180.000 -1.000 0.000 0.000",
        "report": ""
    },
    {
        "clock": "34.3",
        "crowd": "id pose",
        "odom": "pose -13.351 0.000 -180.000 -1.000 0.000 0.000",
        "report": ""
    },
    {
        "clock": "34.4",
        "crowd": "id pose",
        "odom": "pose -13.451 0.000 -180.000 -1.000 0.000 0.000",
        "report": ""
    },
    {
        "clock": "34.5",
        "crowd": "id pose",
        "odom": "pose -13.551 0.000 -180.000 -1.000 0.000 0.000",
        "report": ""
    },
    {
        "clock": "34.6",
        "crowd": "id pose",
        "odom": "pose -13.651 0.000 -180.000 -1.000 0.000 0.000",
        "report": ""
    },
    {
        "clock": "34.7",
        "crowd": "id pose",
        "odom": "pose -13.751 0.000 -180.000 -1.000 0.000 0.000",
        "report": ""
    },
    {
        "clock": "34.8",
        "crowd": "id pose",
        "odom": "pose -13.851 0.000 -180.000 -1.000 0.000 0.000",
        "report": ""
    },
    {
        "clock": "34.9",
        "crowd": "id pose",
        "odom": "pose -13.951 0.000 -180.000 -1.000 0.000 0.000",
        "report": ""
    },
    {
        "clock": "35.0",
        "crowd": "id pose",
        "odom": "pose -14.051 0.000 -180.000 -1.000 0.000 0.000",
        "report": ""
    },
    {
        "clock": "35.1",
        "crowd": "id pose",
        "odom": "pose -14.151 0.000 -180.000 -1.000 0.000 0.000",
        "report": ""
    },
    {
        "clock": "35.2",
        "crowd": "id pose",
        "odom": "pose -14.251 0.000 -180.000 -1.000 0.000 0.000",
        "report": ""
    },
    {
        "clock": "35.3",
        "crowd": "id pose",
        "odom": "pose -14.351 0.000 -180.000 -1.000 0.000 0.000",
        "report": ""
    },
    {
        "clock": "35.4",
        "crowd": "id pose",
        "odom": "pose -14.451 0.000 -180.000 -1.000 0.000 0.000",
        "report": ""
    },
    {
        "clock": "35.5",
        "crowd": "id pose",
        "odom": "pose -14.551 0.000 -180.000 -1.000 0.000 0.000",
        "report": ""
    },
    {
        "clock": "35.6",
        "crowd": "id pose",
        "odom": "pose -14.651 0.000 -180.000 -1.000 0.000 0.000",
        "report": ""
    },
    {
        "clock": "35.7",
        "crowd": "id pose",
        "odom": "pose -14.751 0.000 -180.000 -1.000 0.000 0.000",
        "report": ""
    },
    {
        "clock": "35.8",
        "crowd": "id pose",
        "odom": "pose -14.851 0.000 -180.000 -1.000 0.000 0.000",
        "report": ""
    },
    {
        "clock": "35.9",
        "crowd": "id pose",
        "odom": "pose -14.951 0.000 -180.000 -1.000 0.000 0.000",
        "report": ""
    },
    {
        "clock": "36.0",
        "crowd": "id pose",
        "odom": "pose -15.051 0.000 -180.000 -1.000 0.000 0.000",
        "report": ""
    },
    {
        "clock": "36.1",
        "crowd": "id pose",
        "odom": "pose -15.151 0.000 -180.000 -1.000 0.000 0.000",
        "report": ""
    },
    {
        "clock": "36.2",
        "crowd": "id pose",
        "odom": "pose -15.251 0.000 -180.000 -1.000 0.000 0.000",
        "report": ""
    },
    {
        "clock": "36.3",
        "crowd": "id pose",
        "odom": "pose -15.351 0.000 -180.000 -1.000 0.000 0.000",
        "report": ""
    },
    {
        "clock": "36.4",
        "crowd": "id pose",
        "odom": "pose -15.451 0.000 -180.000 -1.000 0.000 0.000",
        "report": ""
    },
    {
        "clock": "36.5",
        "crowd": "id pose",
        "odom": "pose -15.551 0.000 -180.000 -1.000 0.000 0.000",
        "report": ""
    },
    {
        "clock": "36.6",
        "crowd": "id pose",
        "odom": "pose -15.651 0.000 -180.000 -1.000 0.000 0.000",
        "report": ""
    },
    {
        "clock": "36.7",
        "crowd": "id pose",
        "odom": "pose -15.751 0.000 -180.000 -1.000 0.000 0.000",
        "report": ""
    },
    {
        "clock": "36.8",
        "crowd": "id pose",
        "odom": "pose -15.851 0.000 -180.000 -1.000 0.000 0.000",
        "report": ""
    },
    {
        "clock": "36.9",
        "crowd": "id pose",
        "odom": "pose -15.951 0.000 -180.000 -1.000 0.000 0.000",
        "report": ""
    },
    {
        "clock": "37.0",
        "crowd": "id pose",
        "odom": "pose -16.051 0.000 -180.000 -1.000 0.000 0.000",
        "report": ""
    },
    {
        "clock": "37.1",
        "crowd": "id pose",
        "odom": "pose -16.151 0.000 -180.000 -1.000 0.000 0.000",
        "report": ""
    },
    {
        "clock": "37.2",
        "crowd": "id pose",
        "odom": "pose -16.251 0.000 -180.000 -1.000 0.000 0.000",
        "report": ""
    },
    {
        "clock": "37.3",
        "crowd": "id pose",
        "odom": "pose -16.351 0.000 -180.000 -1.000 0.000 0.000",
        "report": ""
    },
    {
        "clock": "37.4",
        "crowd": "id pose",
        "odom": "pose -16.451 0.000 -180.000 -1.000 0.000 0.000",
        "report": ""
    },
    {
        "clock": "37.5",
        "crowd": "id pose",
        "odom": "pose -16.551 0.000 -180.000 -1.000 0.000 0.000",
        "report": ""
    },
    {
        "clock": "37.6",
        "crowd": "id pose",
        "odom": "pose -16.651 0.000 -180.000 -1.000 0.000 0.000",
        "report": ""
    },
    {
        "clock": "37.7",
        "crowd": "id pose",
        "odom": "pose -16.751 0.000 -180.000 -1.000 0.000 0.000",
        "report": ""
    },
    {
        "clock": "37.8",
        "crowd": "id pose",
        "odom": "pose -16.851 0.000 -180.000 -1.000 0.000 0.000",
        "report": ""
    },
    {
        "clock": "37.9",
        "crowd": "id pose",
        "odom": "pose -16.951 0.000 -180.000 -1.000 0.000 0.000",
        "report": ""
    },
    {
        "clock": "38.0",
        "crowd": "id pose",
        "odom": "pose -17.051 0.000 -180.000 -1.000 0.000 0.000",
        "report": ""
    },
    {
        "clock": "38.1",
        "crowd": "id pose",
        "odom": "pose -17.151 0.000 -180.000 -1.000 0.000 0.000",
        "report": ""
    },
    {
        "clock": "38.2",
        "crowd": "id pose",
        "odom": "pose -17.251 0.000 -180.000 -1.000 0.000 0.000",
        "report": ""
    },
    {
        "clock": "38.3",
        "crowd": "id pose",
        "odom": "pose -17.351 0.000 -180.000 -1.000 0.000 0.000",
        "report": ""
    },
    {
        "clock": "38.4",
        "crowd": "id pose",
        "odom": "pose -17.451 0.000 -180.000 -1.000 0.000 0.000",
        "report": ""
    },
    {
        "clock": "38.5",
        "crowd": "id pose",
        "odom": "pose -17.551 0.000 -180.000 -1.000 0.000 0.000",
        "report": ""
    },
    {
        "clock": "38.6",
        "crowd": "id pose",
        "odom": "pose -17.651 0.000 -180.000 -1.000 0.000 0.000",
        "report": ""
    },
    {
        "clock": "38.7",
        "crowd": "id pose",
        "odom": "pose -17.751 0.000 -180.000 -1.000 0.000 0.000",
        "report": ""
    },
    {
        "clock": "38.8",
        "crowd": "id pose",
        "odom": "pose -17.851 0.000 -180.000 -1.000 0.000 0.000",
        "report": ""
    },
    {
        "clock": "38.9",
        "crowd": "id pose",
        "odom": "pose -17.951 0.000 -180.000 -1.000 0.000 0.000",
        "report": ""
    },
    {
        "clock": "39.0",
        "crowd": "id pose",
        "odom": "pose -18.051 0.000 -180.000 -1.000 0.000 0.000",
        "report": ""
    },
    {
        "clock": "39.1",
        "crowd": "id pose",
        "odom": "pose -18.151 0.000 -180.000 -1.000 0.000 0.000",
        "report": ""
    },
    {
        "clock": "39.2",
        "crowd": "id pose",
        "odom": "pose -18.251 0.000 -180.000 -1.000 0.000 0.000",
        "report": ""
    },
    {
        "clock": "39.3",
        "crowd": "id pose",
        "odom": "pose -18.351 0.000 -180.000 -1.000 0.000 0.000",
        "report": ""
    },
    {
        "clock": "39.4",
        "crowd": "id pose",
        "odom": "pose -18.451 0.000 -180.000 -1.000 0.000 0.000",
        "report": ""
    },
    {
        "clock": "39.5",
        "crowd": "id pose",
        "odom": "pose -18.551 0.000 -180.000 -1.000 0.000 0.000",
        "report": ""
    },
    {
        "clock": "39.6",
        "crowd": "id pose",
        "odom": "pose -18.651 0.000 -180.000 -1.000 0.000 0.000",
        "report": ""
    },
    {
        "clock": "39.7",
        "crowd": "id pose",
        "odom": "pose -18.751 0.000 -180.000 -1.000 0.000 0.000",
        "report": ""
    },
    {
        "clock": "39.8",
        "crowd": "id pose",
        "odom": "pose -18.851 0.000 -180.000 -1.000 0.000 0.000",
        "report": ""
    },
    {
        "clock": "39.9",
        "crowd": "id pose",
        "odom": "pose -18.951 0.000 -180.000 -1.000 0.000 0.000",
        "report": ""
    },
    {
        "clock": "40.0",
        "crowd": "id pose",
        "odom": "pose -19.051 0.000 -180.000 -1.000 0.000 0.000",
        "report": ""
    },
    {
        "clock": "40.1",
        "crowd": "id pose",
        "odom": "pose -19.151 0.000 -180.000 -1.000 0.000 0.000",
        "report": ""
    },
    {
        "clock": "40.2",
        "crowd": "id pose",
        "odom": "pose -19.251 0.000 -180.000 -1.000 0.000 0.000",
        "report": ""
    },
    {
        "clock": "40.3",
        "crowd": "id pose",
        "odom": "pose -19.351 0.000 -180.000 -1.000 0.000 0.000",
        "report": ""
    },
    {
        "clock": "40.4",
        "crowd": "id pose",
        "odom": "pose -19.451 0.000 -180.000 -1.000 0.000 0.000",
        "report": ""
    },
    {
        "clock": "40.5",
        "crowd": "id pose",
        "odom": "pose -19.551 0.000 -180.000 -1.000 0.000 0.000",
        "report": ""
    },
    {
        "clock": "40.6",
        "crowd": "id pose",
        "odom": "pose -19.651 0.000 -180.000 -1.000 0.000 0.000",
        "report": ""
    },
    {
        "clock": "40.7",
        "crowd": "id pose",
        "odom": "pose -19.751 0.000 -180.000 -1.000 0.000 0.000",
        "report": ""
    },
    {
        "clock": "40.8",
        "crowd": "id pose",
        "odom": "pose -19.851 0.000 -180.000 -1.000 0.000 0.000",
        "report": ""
    },
    {
        "clock": "40.9",
        "crowd": "id pose",
        "odom": "pose -19.951 0.000 -180.000 -1.000 0.000 0.000",
        "report": ""
    },
    {
        "clock": "41.0",
        "crowd": "id pose",
        "odom": "pose -20.051 0.000 -180.000 -1.000 0.000 0.000",
        "report": ""
    }
]