[
    {
        "clock": "0.5",
        "crowd": "id pose 2 (10.560 -2.201) 3 (5.097 -1.783) 4 (-23.119 1.774) 5 (4.664 -0.773) 6 (-14.357 2.334) 7 (-20.258 1.370) 8 (2.496 1.571) 9 (6.475 -1.706) 10 (-2.221 -1.845) 11 (-9.695 -1.821) 12 (19.052 -1.955) 13 (6.077 2.078) 14 (22.465 0.309) 15 (16.464 -0.500) 16 (7.660 2.024) 17 (-6.721 -2.231) 18 (21.741 -1.796) 19 (-0.333 -2.522) 20 (7.807 4.255) 21 (18.670 -2.722) 22 (-0.472 -1.235) 23 (22.335 1.354) 24 (-20.846 -3.197) 25 (10.297 -2.807) 26 (21.366 -3.521) 27 (3.520 -2.961) 28 (8.654 0.535) 29 (-2.231 2.596) 30 (21.717 -1.138) 31 (-2.114 -0.618) 32 (10.051 3.048) 33 (13.622 -1.815) 34 (14.187 -0.122) 35 (17.618 -3.134) 36 (23.915 2.897) 37 (9.004 2.765) 38 (-3.735 -3.176) 39 (7.484 3.606) 40 (11.082 -0.458) 41 (7.796 2.680) 42 (19.988 0.493) 43 (-11.366 1.958) 44 (14.578 1.570) 45 (-5.666 -3.977) 46 (0.630 -2.146) 47 (1.363 3.111) 48 (-22.090 -2.429) 49 (15.924 -1.557) 50 (-15.116 -4.429) 51 (-6.906 -0.329) 52 (0.278 -0.545) 53 (-17.360 -2.053) 54 (-3.658 -2.521) 55 (-2.686 4.207) 56 (0.048 1.910) 57 (-1.046 -3.673) 58 (-23.959 -3.408) 59 (-15.930 -1.904) 60 (-21.373 1.164) 61 (18.352 -1.638) 62 (-12.766 0.323) 63 (-20.971 3.273) 64 (13.872 0.458) 65 (-7.818 2.495) 66 (-21.591 0.381) 67 (8.923 -3.161) 68 (-15.798 -3.710) 69 (1.993 0.793) 70 (14.340 -4.413) 71 (-16.636 0.420) 72 (-11.893 -3.161) 73 (20.475 2.331) 74 (21.130 2.250) 75 (10.912 0.177) 76 (-10.748 -3.338) 77 (-2.918 -0.093) 78 (-4.357 3.909) 79 (-16.649 2.748) 80 (1.640 -3.612) 81 (-23.567 2.603) 82 (1.678 -2.327) 83 (-7.681 3.926) 84 (22.372 -0.348) 85 (18.687 -1.077) 86 (-22.637 0.153) 87 (-6.735 1.689) 88 (0.160 1.259) 89 (-5.195 4.280) 90 (16.814 -2.844) 91 (-20.534 3.768) 92 (-22.684 -2.715) 93 (-11.826 -3.901) 94 (14.935 -1.276) 95 (3.466 -4.327) 96 (19.789 3.502) 97 (-17.114 1.139) 98 (8.322 2.102) 99 (-17.462 -0.636) 100 (11.211 1.223) 101 (5.211 -1.137)",
        "odom": "pose -20.032 -4.593 168.394 -0.184 0.038 -50.423",
        "report": ""
    },
    {
        "clock": "0.6",
        "crowd": "id pose 2 (10.402 -2.198) 3 (4.965 -1.785) 4 (-23.280 1.774) 5 (4.524 -0.773) 6 (-14.492 2.336) 7 (-20.417 1.370) 8 (2.367 1.570) 9 (6.348 -1.704) 10 (-2.335 -1.850) 11 (-9.803 -1.824) 12 (18.903 -1.956) 13 (5.942 2.079) 14 (22.342 0.309) 15 (16.353 -0.500) 16 (7.506 2.025) 17 (-6.877 -2.233) 18 (21.589 -1.797) 19 (-0.449 -2.524) 20 (7.684 4.256) 21 (18.513 -2.722) 22 (-0.597 -1.236) 23 (22.208 1.354) 24 (-21.009 -3.198) 25 (10.147 -2.807) 26 (21.206 -3.521) 27 (3.383 -2.963) 28 (8.507 0.535) 29 (-2.380 2.597) 30 (21.581 -1.138) 31 (-2.231 -0.617) 32 (9.936 3.046) 33 (13.518 -1.815) 34 (14.045 -0.130) 35 (17.481 -3.134) 36 (23.774 2.897) 37 (8.880 2.767) 38 (-3.891 -3.174) 39 (7.338 3.607) 40 (10.949 -0.459) 41 (7.678 2.680) 42 (19.864 0.493) 43 (-11.497 1.960) 44 (14.471 1.569) 45 (-5.793 -3.977) 46 (0.515 -2.144) 47 (1.239 3.112) 48 (-22.237 -2.428) 49 (15.784 -1.558) 50 (-15.248 -4.429) 51 (-7.032 -0.330) 52 (0.128 -0.545) 53 (-17.494 -2.051) 54 (-3.788 -2.522) 55 (-2.820 4.206) 56 (-0.064 1.913) 57 (-1.150 -3.674) 58 (-24.104 -3.410) 59 (-16.048 -1.909) 60 (-21.495 1.166) 61 (18.203 -1.641) 62 (-12.927 0.331) 63 (-21.106 3.271) 64 (13.759 0.465) 65 (-7.960 2.497) 66 (-21.725 0.380) 67 (8.765 -3.161) 68 (-15.924 -3.710) 69 (1.854 0.793) 70 (14.183 -4.413) 71 (-16.790 0.420) 72 (-12.014 -3.164) 73 (20.327 2.333) 74 (20.982 2.249) 75 (10.789 0.178) 76 (-10.868 -3.341) 77 (-3.029 -0.095) 78 (-4.507 3.912) 79 (-16.762 2.748) 80 (1.521 -3.613) 81 (-23.724 2.606) 82 (1.531 -2.330) 83 (-7.791 3.928) 84 (22.223 -0.347) 85 (18.529 -1.074) 86 (-22.782 0.157) 87 (-6.845 1.687) 88 (0.015 1.258) 89 (-5.303 4.280) 90 (16.691 -2.845) 91 (-20.680 3.776) 92 (-22.829 -2.719) 93 (-11.934 -3.902) 94 (14.820 -1.277) 95 (3.311 -4.327) 96 (19.628 3.502) 97 (-17.267 1.141) 98 (8.166 2.104) 99 (-17.573 -0.635) 100 (11.070 1.225) 101 (5.070 -1.137)",
        "odom": "pose -20.045 -4.591 168.394 -0.134 0.027 -0.001",
        "report": ""
    },
    {
        "clock": "0.7",
        "crowd": "id pose 2 (10.085 -2.193) 3 (4.701 -1.789) 4 (-23.602 1.774) 5 (4.243 -0.773) 6 (-14.762 2.340) 7 (-20.734 1.372) 8 (2.110 1.567) 9 (6.094 -1.701) 10 (-2.561 -1.859) 11 (-10.017 -1.828) 12 (18.606 -1.956) 13 (5.673 2.080) 14 (22.096 0.307) 15 (16.133 -0.500) 16 (7.196 2.027) 17 (-7.190 -2.237) 18 (21.285 -1.797) 19 (-0.683 -2.527) 20 (7.437 4.257) 21 (18.197 -2.722) 22 (-0.847 -1.239) 23 (21.954 1.354) 24 (-21.333 -3.201) 25 (9.846 -2.808) 26 (20.886 -3.521) 27 (3.109 -2.966) 28 (8.215 0.533) 29 (-2.679 2.601) 30 (21.309 -1.138) 31 (-2.467 -0.616) 32 (9.704 3.043) 33 (13.311 -1.817) 34 (13.757 -0.145) 35 (17.208 -3.134) 36 (23.492 2.897) 37 (8.632 2.771) 38 (-4.205 -3.170) 39 (7.045 3.610) 40 (10.683 -0.461) 41 (7.439 2.685) 42 (19.616 0.494) 43 (-11.759 1.965) 44 (14.257 1.567) 45 (-6.049 -3.976) 46 (0.284 -2.142) 47 (0.989 3.116) 48 (-22.531 -2.426) 49 (15.503 -1.559) 50 (-15.511 -4.429) 51 (-7.283 -0.331) 52 (-0.172 -0.544) 53 (-17.762 -2.048) 54 (-4.049 -2.527) 55 (-3.087 4.206) 56 (-0.287 1.918) 57 (-1.356 -3.676) 58 (-24.394 -3.416) 59 (-16.284 -1.919) 60 (-21.740 1.168) 61 (17.905 -1.646) 62 (-13.248 0.346) 63 (-21.375 3.268) 64 (13.536 0.477) 65 (-8.243 2.502) 66 (-21.991 0.377) 67 (8.449 -3.161) 68 (-16.174 -3.710) 69 (1.577 0.792) 70 (13.870 -4.413) 71 (-17.099 0.420) 72 (-12.255 -3.170) 73 (20.041 2.335) 74 (20.674 2.249) 75 (10.541 0.181) 76 (-11.109 -3.348) 77 (-3.250 -0.098) 78 (-4.805 3.918) 79 (-16.989 2.747) 80 (1.283 -3.616) 81 (-24.039 2.612) 82 (1.238 -2.336) 83 (-8.012 3.932) 84 (21.925 -0.346) 85 (18.212 -1.069) 86 (-23.073 0.165) 87 (-7.064 1.684) 88 (-0.274 1.258) 89 (-5.520 4.281) 90 (16.447 -2.845) 91 (-20.973 3.791) 92 (-23.118 -2.727) 93 (-12.149 -3.904) 94 (14.590 -1.279) 95 (3.001 -4.327) 96 (19.308 3.502) 97 (-17.573 1.143) 98 (7.855 2.103) 99 (-17.795 -0.633) 100 (10.787 1.229) 101 (4.789 -1.139)",
        "odom": "pose -20.055 -4.589 173.551 -0.023 0.003 51.569",
        "report": ""
    },
    {
        "clock": "0.8",
        "crowd": "id pose 2 (9.926 -2.191) 3 (4.569 -1.791) 4 (-23.763 1.774) 5 (4.103 -0.773) 6 (-14.897 2.342) 7 (-20.893 1.372) 8 (1.982 1.566) 9 (5.967 -1.700) 10 (-2.675 -1.864) 11 (-10.125 -1.830) 12 (18.458 -1.956) 13 (5.539 2.081) 14 (21.973 0.307) 15 (16.023 -0.500) 16 (7.041 2.028) 17 (-7.346 -2.239) 18 (21.133 -1.797) 19 (-0.800 -2.528) 20 (7.314 4.258) 21 (18.040 -2.723) 22 (-0.972 -1.240) 23 (21.827 1.354) 24 (-21.495 -3.202) 25 (9.696 -2.809) 26 (20.726 -3.521) 27 (2.972 -2.967) 28 (8.069 0.533) 29 (-2.829 2.602) 30 (21.174 -1.138) 31 (-2.584 -0.615) 32 (9.589 3.042) 33 (13.207 -1.817) 34 (13.612 -0.152) 35 (17.071 -3.134) 36 (23.351 2.897) 37 (8.508 2.773) 38 (-4.361 -3.167) 39 (6.899 3.612) 40 (10.549 -0.462) 41 (7.320 2.689) 42 (19.491 0.495) 43 (-11.890 1.967) 44 (14.150 1.566) 45 (-6.176 -3.975) 46 (0.168 -2.140) 47 (0.864 3.118) 48 (-22.678 -2.425) 49 (15.363 -1.560) 50 (-15.643 -4.429) 51 (-7.408 -0.331) 52 (-0.322 -0.544) 53 (-17.896 -2.047) 54 (-4.179 -2.530) 55 (-3.221 4.205) 56 (-0.398 1.919) 57 (-1.459 -3.677) 58 (24.461 -3.418) 59 (-16.402 -1.924) 60 (-21.862 1.169) 61 (17.756 -1.649) 62 (-13.408 0.353) 63 (-21.509 3.266) 64 (13.425 0.482) 65 (-8.385 2.505) 66 (-22.124 0.375) 67 (8.291 -3.161) 68 (-16.299 -3.710) 69 (1.439 0.791) 70 (13.714 -4.413) 71 (-17.253 0.421) 72 (-12.376 -3.174) 73 (19.890 2.337) 74 (20.528 2.247) 75 (10.418 0.182) 76 (-11.230 -3.351) 77 (-3.360 -0.100) 78 (-4.951 3.918) 79 (-17.103 2.747) 80 (1.164 -3.617) 81 (-24.196 2.614) 82 (1.091 -2.339) 83 (-8.122 3.934) 84 (21.776 -0.346) 85 (18.054 -1.066) 86 (-23.218 0.170) 87 (-7.174 1.683) 88 (-0.419 1.259) 89 (-5.632 4.284) 90 (16.325 -2.845) 91 (-21.120 3.799) 92 (-23.263 -2.731) 93 (-12.256 -3.905) 94 (14.475 -1.280) 95 (2.846 -4.328) 96 (19.147 3.502) 97 (-17.726 1.145) 98 (7.700 2.100) 99 (-17.907 -0.632) 100 (10.645 1.231) 101 (4.648 -1.140)",
        "odom": "pose -20.053 -4.589 178.708 0.013 0.000 51.569",
        "report": ""
    },
    {
        "clock": "0.9",
        "crowd": "id pose 2 (9.768 -2.188) 3 (4.437 -1.793) 4 (-23.924 1.774) 5 (3.962 -0.773) 6 (-15.032 2.344) 7 (-21.051 1.373) 8 (1.853 1.565) 9 (5.840 -1.698) 10 (-2.788 -1.869) 11 (-10.232 -1.832) 12 (18.310 -1.956) 13 (5.405 2.081) 14 (21.850 0.306) 15 (15.913 -0.500) 16 (6.886 2.029) 17 (-7.502 -2.241) 18 (20.981 -1.797) 19 (-0.917 -2.530) 20 (7.190 4.258) 21 (17.882 -2.723) 22 (-1.097 -1.241) 23 (21.700 1.354) 24 (-21.657 -3.203) 25 (9.546 -2.810) 26 (20.566 -3.521) 27 (2.835 -2.969) 28 (7.923 0.532) 29 (-2.978 2.604) 30 (21.038 -1.139) 31 (-2.702 -0.614) 32 (9.473 3.040) 33 (13.103 -1.818) 34 (13.466 -0.157) 35 (16.935 -3.134) 36 (23.210 2.897) 37 (8.384 2.775) 38 (-4.518 -3.165) 39 (6.753 3.613) 40 (10.416 -0.462) 41 (7.200 2.694) 42 (19.367 0.496) 43 (-12.021 1.970) 44 (14.043 1.565) 45 (-6.304 -3.975) 46 (0.053 -2.139) 47 (0.740 3.119) 48 (-22.825 -2.424) 49 (15.223 -1.561) 50 (-15.774 -4.429) 51 (-7.534 -0.332) 52 (-0.472 -0.543) 53 (-18.030 -2.045) 54 (-4.309 -2.533) 55 (-3.355 4.205) 56 (-0.510 1.920) 57 (-1.563 -3.678) 58 (24.316 -3.419) 59 (-16.520 -1.929) 60 (-21.985 1.170) 61 (17.608 -1.652) 62 (-13.569 0.360) 63 (-21.643 3.264) 64 (13.316 0.486) 65 (-8.526 2.507) 66 (-22.257 0.373) 67 (8.134 -3.162) 68 (-16.425 -3.711) 69 (1.300 0.791) 70 (13.558 -4.413) 71 (-17.407 0.421) 72 (-12.497 -3.177) 73 (19.742 2.338) 74 (20.379 2.246) 75 (10.294 0.184) 76 (-11.351 -3.354) 77 (-3.471 -0.101) 78 (-5.095 3.918) 79 (-17.217 2.747) 80 (1.045 -3.618) 81 (-24.353 2.617) 82 (0.944 -2.343) 83 (-8.233 3.935) 84 (21.627 -0.346) 85 (17.895 -1.064) 86 (-23.364 0.174) 87 (-7.284 1.681) 88 (-0.564 1.261) 89 (-5.746 4.288) 90 (16.203 -2.846) 91 (-21.266 3.806) 92 (-23.408 -2.735) 93 (-12.364 -3.906) 94 (14.360 -1.281) 95 (2.692 -4.328) 96 (18.987 3.502) 97 (-17.879 1.146) 98 (7.545 2.097) 99 (-18.018 -0.631) 100 (10.504 1.233) 101 (4.507 -1.140)",
        "odom": "pose -20.054 -4.589 -175.677 -0.004 0.000 -3543.849",
        "report": ""
    },
    {
        "clock": "1.0",
        "crowd": "id pose 2 (9.609 -2.186) 3 (4.305 -1.795) 4 (-24.084 1.774) 5 (3.822 -0.773) 6 (-15.166 2.345) 7 (-21.210 1.374) 8 (1.724 1.563) 9 (5.713 -1.696) 10 (-2.901 -1.873) 11 (-10.340 -1.835) 12 (18.161 -1.957) 13 (5.270 2.082) 14 (21.727 0.306) 15 (15.802 -0.500) 16 (6.731 2.030) 17 (-7.658 -2.243) 18 (20.829 -1.796) 19 (-1.034 -2.531) 20 (7.067 4.259) 21 (17.724 -2.723) 22 (-1.222 -1.242) 23 (21.573 1.354) 24 (-21.819 -3.204) 25 (9.396 -2.810) 26 (20.406 -3.521) 27 (2.698 -2.971) 28 (7.777 0.531) 29 (-3.128 2.606) 30 (20.902 -1.139) 31 (-2.819 -0.613) 32 (9.358 3.039) 33 (12.999 -1.819) 34 (13.320 -0.162) 35 (16.798 -3.134) 36 (23.069 2.897) 37 (8.260 2.777) 38 (-4.675 -3.162) 39 (6.607 3.615) 40 (10.283 -0.463) 41 (7.081 2.699) 42 (19.243 0.496) 43 (-12.152 1.972) 44 (13.936 1.564) 45 (-6.431 -3.974) 46 (-0.063 -2.137) 47 (0.615 3.121) 48 (-22.972 -2.423) 49 (15.083 -1.562) 50 (-15.906 -4.429) 51 (-7.659 -0.332) 52 (-0.622 -0.543) 53 (-18.164 -2.044) 54 (-4.439 -2.535) 55 (-3.489 4.205) 56 (-0.621 1.920) 57 (-1.666 -3.679) 58 (24.171 -3.419) 59 (-16.637 -1.934) 60 (-22.107 1.171) 61 (17.459 -1.654) 62 (-13.729 0.368) 63 (-21.777 3.263) 64 (13.206 0.489) 65 (-8.668 2.510) 66 (-22.391 0.372) 67 (7.976 -3.162) 68 (-16.550 -3.711) 69 (1.162 0.790) 70 (13.401 -4.414) 71 (-17.561 0.421) 72 (-12.617 -3.180) 73 (19.594 2.340) 74 (20.230 2.245) 75 (10.171 0.185) 76 (-11.471 -3.357) 77 (-3.581 -0.103) 78 (-5.237 3.915) 79 (-17.330 2.746) 80 (0.926 -3.619) 81 (24.489 2.620) 82 (0.797 -2.346) 83 (-8.343 3.937) 84 (21.478 -0.345) 85 (17.737 -1.061) 86 (-23.509 0.178) 87 (-7.394 1.679) 88 (-0.709 1.262) 89 (-5.861 4.294) 90 (16.081 -2.846) 91 (-21.413 3.814) 92 (-23.552 -2.738) 93 (-12.472 -3.907) 94 (14.246 -1.282) 95 (2.537 -4.328) 96 (18.827 3.502) 97 (-18.032 1.148) 98 (7.390 2.094) 99 (-18.129 -0.629) 100 (10.362 1.235) 101 (4.366 -1.141)",
        "odom": "pose -20.059 -4.590 -170.061 -0.053 -0.009 56.153",
        "report": ""
    }
]