[
    {
        "clock": "0.5",
        "crowd": "id pose",
        "odom": "pose 20.000 0.000 -180.000 0.000 0.000 0.000",
        "report": ""
    },
    {
        "clock": "0.6",
        "crowd": "id pose",
        "odom": "pose 20.000 0.000 -180.000 0.000 0.000 0.000",
        "report": ""
    },
    {
        "clock": "0.7",
        "crowd": "id pose",
        "odom": "pose 20.000 0.000 -180.000 0.000 0.000 0.000",
        "report": ""
    },
    {
        "clock": "0.8",
        "crowd": "id pose",
        "odom": "pose 20.000 0.000 -180.000 0.000 0.000 0.000",
        "report": ""
    },
    {
        "clock": "0.9",
        "crowd": "id pose",
        "odom": "pose 20.001 0.000 -180.000 0.013 0.000 0.000",
        "report": ""
    },
    {
        "clock": "1.0",
        "crowd": "id pose",
        "odom": "pose 20.001 0.000 -180.000 -0.007 0.000 0.000",
        "report": ""
    },
    {
        "clock": "1.1",
        "crowd": "id pose",
        "odom": "pose 19.995 0.000 -180.000 -0.056 0.000 0.000",
        "report": ""
    },
    {
        "clock": "1.2",
        "crowd": "id pose",
        "odom": "pose 19.984 0.000 -180.000 -0.107 0.000 0.000",
        "report": ""
    },
    {
        "clock": "1.3",
        "crowd": "id pose",
        "odom": "pose 19.969 0.000 -180.000 -0.156 0.000 0.000",
        "report": ""
    },
    {
        "clock": "1.4",
        "crowd": "id pose",
        "odom": "pose 19.948 0.000 -180.000 -0.203 0.000 0.000",
        "report": ""
    },
    {
        "clock": "1.5",
        "crowd": "id pose",
        "odom": "pose 19.924 0.000 -180.000 -0.246 0.000 0.000",
        "report": ""
    },
    {
        "clock": "1.6",
        "crowd": "id pose",
        "odom": "pose 19.895 0.000 -180.000 -0.288 0.000 0.000",
        "report": ""
    },
    {
        "clock": "1.7",
        "crowd": "id pose",
        "odom": "pose 19.862 0.000 -180.000 -0.329 0.000 0.000",
        "report": ""
    },
    {
        "clock": "1.8",
        "crowd": "id pose",
        "odom": "pose 19.825 0.000 -180.000 -0.369 0.000 0.000",
        "report": ""
    },
    {
        "clock": "1.9",
        "crowd": "id pose",
        "odom": "pose 19.784 0.000 -180.000 -0.410 0.000 0.000",
        "report": ""
    },
    {
        "clock": "2.0",
        "crowd": "id pose",
        "odom": "pose 19.739 0.000 -180.000 -0.450 0.000 0.000",
        "report": ""
    },
    {
        "clock": "2.1",
        "crowd": "id pose",
        "odom": "pose 19.690 0.000 -180.000 -0.492 0.000 0.000",
        "report": ""
    },
    {
        "clock": "2.2",
        "crowd": "id pose",
        "odom": "pose 19.636 0.000 -180.000 -0.538 0.000 0.000",
        "report": ""
    },
    {
        "clock": "2.3",
        "crowd": "id pose",
        "odom": "pose 19.577 0.000 -180.000 -0.586 0.000 0.000",
        "report": ""
    },
    {
        "clock": "2.4",
        "crowd": "id pose",
        "odom": "pose 19.514 0.000 -180.000 -0.635 0.000 0.000",
        "report": ""
    },
    {
        "clock": "2.5",
        "crowd": "id pose",
        "odom": "pose 19.445 0.000 -180.000 -0.685 0.000 0.000",
        "report": ""
    },
    {
        "clock": "2.6",
        "crowd": "id pose",
        "odom": "pose 19.372 0.000 -180.000 -0.735 0.000 0.000",
        "report": ""
    },
    {
        "clock": "2.7",
        "crowd": "id pose",
        "odom": "pose 19.293 0.000 -180.000 -0.785 0.000 0.000",
        "report": ""
    },
    {
        "clock": "2.8",
        "crowd": "id pose",
        "odom": "pose 19.210 0.000 -180.000 -0.835 0.000 0.000",
        "report": ""
    },
    {
        "clock": "2.9",
        "crowd": "id pose",
        "odom": "pose 19.122 0.000 -180.000 -0.885 0.000 0.000",
        "report": ""
    },
    {
        "clock": "3.0",
        "crowd": "id pose",
        "odom": "pose 19.029 0.000 -180.000 -0.929 0.000 0.000",
        "report": ""
    },
    {
        "clock": "3.1",
        "crowd": "id pose",
        "odom": "pose 18.933 0.000 -180.000 -0.960 0.000 0.000",
        "report": ""
    },
    {
        "clock": "3.2",
        "crowd": "id pose",
        "odom": "pose 18.835 0.000 -180.000 -0.976 0.000 0.000",
        "report": ""
    },
    {
        "clock": "3.3",
        "crowd": "id pose",
        "odom": "pose 18.737 0.000 -180.000 -0.984 0.000 0.000",
        "report": ""
    },
    {
        "clock": "3.4",
        "crowd": "id pose",
        "odom": "pose 18.638 0.000 -180.000 -0.987 0.000 0.000",
        "report": ""
    },
    {
        "clock": "3.5",
        "crowd": "id pose",
        "odom": "pose 18.539 0.000 -180.000 -0.989 0.000 0.000",
        "report": ""
    },
    {
        "clock": "3.6",
        "crowd": "id pose",
        "odom": "pose 18.440 0.000 -180.000 -0.990 0.000 0.000",
        "report": ""
    },
    {
        "clock": "3.7",
        "crowd": "id pose",
        "odom": "pose 18.341 0.000 -180.000 -0.990 0.000 0.000",
        "report": ""
    },
    {
        "clock": "3.8",
        "crowd": "id pose",
        "odom": "pose 18.242 0.000 -180.000 -0.990 0.000 0.000",
        "report": ""
    },
    {
        "clock": "3.9",
        "crowd": "id pose",
        "odom": "pose 18.143 0.000 -180.000 -0.990 0.000 0.000",
        "report": ""
    },
    {
        "clock": "4.0",
        "crowd": "id pose",
        "odom": "pose 18.044 0.000 -180.000 -0.990 0.000 0.000",
        "report": ""
    },
    {
        "clock": "4.1",
        "crowd": "id pose",
        "odom": "pose 17.945 0.000 -180.000 -0.990 0.000 0.000",
        "report": ""
    },
    {
        "clock": "4.2",
        "crowd": "id pose",
        "odom": "pose 17.846 0.000 -180.000 -0.990 0.000 0.000",
        "report": ""
    },
    {
        "clock": "4.3",
        "crowd": "id pose",
        "odom": "pose 17.747 0.000 -180.000 -0.990 0.000 0.000",
        "report": ""
    },
    {
        "clock": "4.4",
        "crowd": "id pose",
        "odom": "pose 17.648 0.000 -180.000 -0.990 0.000 0.000",
        "report": ""
    },
    {
        "clock": "4.5",
        "crowd": "id pose",
        "odom": "pose 17.549 0.000 -180.000 -0.990 0.000 0.000",
        "report": ""
    },
    {
        "clock": "4.6",
        "crowd": "id pose",
        "odom": "pose 17.450 0.000 -180.000 -0.990 0.000 0.000",
        "report": ""
    },
    {
        "clock": "4.7",
        "crowd": "id pose",
        "odom": "pose 17.351 0.000 -180.000 -0.990 0.000 0.000",
        "report": ""
    },
    {
        "clock": "4.8",
        "crowd": "id pose",
        "odom": "pose 17.252 0.000 -180.000 -0.990 0.000 0.000",
        "report": ""
    },
    {
        "clock": "4.9",
        "crowd": "id pose",
        "odom": "pose 17.153 0.000 -180.000 -0.990 0.000 0.000",
        "report": ""
    },
    {
        "clock": "5.0",
        "crowd": "id pose",
        "odom": "pose 17.054 0.000 -180.000 -0.990 0.000 0.000",
        "report": ""
    },
    {
        "clock": "5.1",
        "crowd": "id pose",
        "odom": "pose 16.955 0.000 -180.000 -0.990 0.000 0.000",
        "report": ""
    },
    {
        "clock": "5.2",
        "crowd": "id pose",
        "odom": "pose 16.856 0.000 -180.000 -0.990 0.000 0.000",
        "report": ""
    },
    {
        "clock": "5.3",
        "crowd": "id pose",
        "odom": "pose 16.757 0.000 -180.000 -0.990 0.000 0.000",
        "report": ""
    },
    {
        "clock": "5.4",
        "crowd": "id pose",
        "odom": "pose 16.658 0.000 -180.000 -0.990 0.000 0.000",
        "report": ""
    },
    {
        "clock": "5.5",
        "crowd": "id pose",
        "odom": "pose 16.559 0.000 -180.000 -0.990 0.000 0.000",
        "report": ""
    },
    {
        "clock": "5.6",
        "crowd": "id pose",
        "odom": "pose 16.460 0.000 -180.000 -0.990 0.000 0.000",
        "report": ""
    },
    {
        "clock": "5.7",
        "crowd": "id pose",
        "odom": "pose 16.361 0.000 -180.000 -0.990 0.000 0.000",
        "report": ""
    },
    {
        "clock": "5.8",
        "crowd": "id pose",
        "odom": "pose 16.262 0.000 -180.000 -0.990 0.000 0.000",
        "report": ""
    },
    {
        "clock": "5.9",
        "crowd": "id pose",
        "odom": "pose 16.163 0.000 -180.000 -0.990 0.000 0.000",
        "report": ""
    },
    {
        "clock": "6.0",
        "crowd": "id pose",
        "odom": "pose 16.064 0.000 -180.000 -0.990 0.000 0.000",
        "report": ""
    },
    {
        "clock": "6.1",
        "crowd": "id pose",
        "odom": "pose 15.965 0.000 -180.000 -0.990 0.000 0.000",
        "report": ""
    },
    {
        "clock": "6.2",
        "crowd": "id pose",
        "odom": "pose 15.866 0.000 -180.000 -0.990 0.000 0.000",
        "report": ""
    },
    {
        "clock": "6.3",
        "crowd": "id pose",
        "odom": "pose 15.767 0.000 -180.000 -0.990 0.000 0.000",
        "report": ""
    },
    {
        "clock": "6.4",
        "crowd": "id pose",
        "odom": "pose 15.668 0.000 -180.000 -0.990 0.000 0.000",
        "report": ""
    },
    {
        "clock": "6.5",
        "crowd": "id pose",
        "odom": "pose 15.569 0.000 -180.000 -0.990 0.000 0.000",
        "report": ""
    },
    {
        "clock": "6.6",
        "crowd": "id pose",
        "odom": "pose 15.470 0.000 -180.000 -0.990 0.000 0.000",
        "report": ""
    },
    {
        "clock": "6.7",
        "crowd": "id pose",
        "odom": "pose 15.371 0.000 -180.000 -0.990 0.000 0.000",
        "report": ""
    },
    {
        "clock": "6.8",
        "crowd": "id pose",
        "odom": "pose 15.272 0.000 -180.000 -0.990 0.000 0.000",
        "report": ""
    },
    {
        "clock": "6.9",
        "crowd": "id pose",
        "odom": "pose 15.173 0.000 -180.000 -0.990 0.000 0.000",
        "report": ""
    },
    {
        "clock": "7.0",
        "crowd": "id pose",
        "odom": "pose 15.074 0.000 -180.000 -0.990 0.000 0.000",
        "report": ""
    },
    {
        "clock": "7.1",
        "crowd": "id pose",
        "odom": "pose 14.975 0.000 -180.000 -0.990 0.000 0.000",
        "report": ""
    },
    {
        "clock": "7.2",
        "crowd": "id pose",
        "odom": "pose 14.876 0.000 -180.000 -0.990 0.000 0.000",
        "report": ""
    },
    {
        "clock": "7.3",
        "crowd": "id pose",
        "odom": "pose 14.777 0.000 -180.000 -0.990 0.000 0.000",
        "report": ""
    },
    {
        "clock": "7.4",
        "crowd": "id pose",
        "odom": "pose 14.678 0.000 -180.000 -0.990 0.000 0.000",
        "report": ""
    },
    {
        "clock": "7.5",
        "crowd": "id pose",
        "odom": "pose 14.579 0.000 -180.000 -0.990 0.000 0.000",
        "report": ""
    },
    {
        "clock": "7.6",
        "crowd": "id pose",
        "odom": "pose 14.480 0.000 -180.000 -0.990 0.000 0.000",
        "report": ""
    },
    {
        "clock": "7.7",
        "crowd": "id pose",
        "odom": "pose 14.381 0.000 -180.000 -0.990 0.000 0.000",
        "report": ""
    },
    {
        "clock": "7.8",
        "crowd": "id pose",
        "odom": "pose 14.282 0.000 -180.000 -0.990 0.000 0.000",
        "report": ""
    },
    {
        "clock": "7.9",
        "crowd": "id pose",
        "odom": "pose 14.183 0.000 -180.000 -0.990 0.000 0.000",
        "report": ""
    },
    {
        "clock": "8.0",
        "crowd": "id pose",
        "odom": "pose 14.084 0.000 -180.000 -0.990 0.000 0.000",
        "report": ""
    },
    {
        "clock": "8.1",
        "crowd": "id pose",
        "odom": "pose 13.985 0.000 -180.000 -0.990 0.000 0.000",
        "report": ""
    },
    {
        "clock": "8.2",
        "crowd": "id pose",
        "odom": "pose 13.886 0.000 -180.000 -0.990 0.000 0.000",
        "report": ""
    },
    {
        "clock": "8.3",
        "crowd": "id pose",
        "odom": "pose 13.787 0.000 -180.000 -0.990 0.000 0.000",
        "report": ""
    },
    {
        "clock": "8.4",
        "crowd": "id pose",
        "odom": "pose 13.688 0.000 -180.000 -0.990 0.000 0.000",
        "report": ""
    },
    {
        "clock": "8.5",
        "crowd": "id pose",
        "odom": "pose 13.589 0.000 -180.000 -0.990 0.000 0.000",
        "report": ""
    },
    {
        "clock": "8.6",
        "crowd": "id pose",
        "odom": "pose 13.490 0.000 -180.000 -0.990 0.000 0.000",
        "report": ""
    },
    {
        "clock": "8.7",
        "crowd": "id pose",
        "odom": "pose 13.391 0.000 -180.000 -0.990 0.000 0.000",
        "report": ""
    },
    {
        "clock": "8.8",
        "crowd": "id pose",
        "odom": "pose 13.292 0.000 -180.000 -0.990 0.000 0.000",
        "report": ""
    },
    {
        "clock": "8.9",
        "crowd": "id pose",
        "odom": "pose 13.193 0.000 -180.000 -0.990 0.000 0.000",
        "report": ""
    },
    {
        "clock": "9.0",
        "crowd": "id pose",
        "odom": "pose 13.094 0.000 -180.000 -0.990 0.000 0.000",
        "report": ""
    },
    {
        "clock": "9.1",
        "crowd": "id pose",
        "odom": "pose 12.995 0.000 -180.000 -0.990 0.000 0.000",
        "report": ""
    },
    {
        "clock": "9.2",
        "crowd": "id pose",
        "odom": "pose 12.896 0.000 -180.000 -0.990 0.000 0.000",
        "report": ""
    },
    {
        "clock": "9.3",
        "crowd": "id pose",
        "odom": "pose 12.797 0.000 -180.000 -0.990 0.000 0.000",
        "report": ""
    },
    {
        "clock": "9.4",
        "crowd": "id pose",
        "odom": "pose 12.698 0.000 -180.000 -0.990 0.000 0.000",
        "report": ""
    },
    {
        "clock": "9.5",
        "crowd": "id pose",
        "odom": "pose 12.599 0.000 -180.000 -0.990 0.000 0.000",
        "report": ""
    },
    {
        "clock": "9.6",
        "crowd": "id pose",
        "odom": "pose 12.500 0.000 -180.000 -0.990 0.000 0.000",
        "report": ""
    },
    {
        "clock": "9.7",
        "crowd": "id pose",
        "odom": "pose 12.401 0.000 -180.000 -0.990 0.000 0.000",
        "report": ""
    },
    {
        "clock": "9.8",
        "crowd": "id pose",
        "odom": "pose 12.302 0.000 -180.000 -0.990 0.000 0.000",
        "report": ""
    },
    {
        "clock": "9.9",
        "crowd": "id pose",
        "odom": "pose 12.203 0.000 -180.000 -0.990 0.000 0.000",
        "report": ""
    },
    {
        "clock": "10.0",
        "crowd": "id pose",
        "odom": "pose 12.104 0.000 -180.000 -0.990 0.000 0.000",
        "report": ""
    },
    {
        "clock": "10.1",
        "crowd": "id pose",
        "odom": "pose 12.005 0.000 -180.000 -0.990 0.000 0.000",
        "report": ""
    },
    {
        "clock": "10.2",
        "crowd": "id pose",
        "odom": "pose 11.906 0.000 -180.000 -0.990 0.000 0.000",
        "report": ""
    },
    {
        "clock": "10.3",
        "crowd": "id pose",
        "odom": "pose 11.807 0.000 -180.000 -0.990 0.000 0.000",
        "report": ""
    },
    {
        "clock": "10.4",
        "crowd": "id pose",
        "odom": "pose 11.708 0.000 -180.000 -0.990 0.000 0.000",
        "report": ""
    },
    {
        "clock": "10.5",
        "crowd": "id pose",
        "odom": "pose 11.609 0.000 -180.000 -0.990 0.000 0.000",
        "report": ""
    },
    {
        "clock": "10.6",
        "crowd": "id pose",
        "odom": "pose 11.510 0.000 -180.000 -0.990 0.000 0.000",
        "report": ""
    },
    {
        "clock": "10.7",
        "crowd": "id pose",
        "odom": "pose 11.411 0.000 -180.000 -0.990 0.000 0.000",
        "report": ""
    },
    {
        "clock": "10.8",
        "crowd": "id pose",
        "odom": "pose 11.312 0.000 -180.000 -0.990 0.000 0.000",
        "report": ""
    },
    {
        "clock": "10.9",
        "crowd": "id pose",
        "odom": "pose 11.213 0.000 -180.000 -0.990 0.000 0.000",
        "report": ""
    },
    {
        "clock": "11.0",
        "crowd": "id pose",
        "odom": "pose 11.114 0.000 -180.000 -0.990 0.000 0.000",
        "report": ""
    },
    {
        "clock": "11.1",
        "crowd": "id pose",
        "odom": "pose 11.015 0.000 -180.000 -0.990 0.000 0.000",
        "report": ""
    },
    {
        "clock": "11.2",
        "crowd": "id pose",
        "odom": "pose 10.916 0.000 -180.000 -0.990 0.000 0.000",
        "report": ""
    },
    {
        "clock": "11.3",
        "crowd": "id pose",
        "odom": "pose 10.817 0.000 -180.000 -0.990 0.000 0.000",
        "report": ""
    },
    {
        "clock": "11.4",
        "crowd": "id pose",
        "odom": "pose 10.718 0.000 -180.000 -0.990 0.000 0.000",
        "report": ""
    },
    {
        "clock": "11.5",
        "crowd": "id pose",
        "odom": "pose 10.619 0.000 -180.000 -0.990 0.000 0.000",
        "report": ""
    },
    {
        "clock": "11.6",
        "crowd": "id pose",
        "odom": "pose 10.520 0.000 -180.000 -0.990 0.000 0.000",
        "report": ""
    },
    {
        "clock": "11.7",
        "crowd": "id pose",
        "odom": "pose 10.421 0.000 -180.000 -0.990 0.000 0.000",
        "report": ""
    },
    {
        "clock": "11.8",
        "crowd": "id pose",
        "odom": "pose 10.322 0.000 -180.000 -0.990 0.000 0.000",
        "report": ""
    },
    {
        "clock": "11.9",
        "crowd": "id pose",
        "odom": "pose 10.223 0.000 -180.000 -0.990 0.000 0.000",
        "report": ""
    },
    {
        "clock": "12.0",
        "crowd": "id pose",
        "odom": "pose 10.124 0.000 -180.000 -0.990 0.000 0.000",
        "report": ""
    },
    {
        "clock": "12.1",
        "crowd": "id pose",
        "odom": "pose 10.025 0.000 -180.000 -0.990 0.000 0.000",
        "report": ""
    },
    {
        "clock": "12.2",
        "crowd": "id pose",
        "odom": "pose 9.926 0.000 -180.000 -0.990 0.000 0.000",
        "report": ""
    },
    {
        "clock": "12.3",
        "crowd": "id pose",
        "odom": "pose 9.827 0.000 -180.000 -0.990 0.000 0.000",
        "report": ""
    },
    {
        "clock": "12.4",
        "crowd": "id pose",
        "odom": "pose 9.728 0.000 -180.000 -0.990 0.000 0.000",
        "report": ""
    },
    {
        "clock": "12.5",
        "crowd": "id pose",
        "odom": "pose 9.629 0.000 -180.000 -0.990 0.000 0.000",
        "report": ""
    },
    {
        "clock": "12.6",
        "crowd": "id pose",
        "odom": "pose 9.530 0.000 -180.000 -0.990 0.000 0.000",
        "report": ""
    },
    {
        "clock": "12.7",
        "crowd": "id pose",
        "odom": "pose 9.431 0.000 -180.000 -0.990 0.000 0.000",
        "report": ""
    },
    {
        "clock": "12.8",
        "crowd": "id pose",
        "odom": "pose 9.332 0.000 -180.000 -0.990 0.000 0.000",
        "report": ""
    },
    {
        "clock": "12.9",
        "crowd": "id pose",
        "odom": "pose 9.233 0.000 -180.000 -0.990 0.000 0.000",
        "report": ""
    },
    {
        "clock": "13.0",
        "crowd": "id pose",
        "odom": "pose 9.134 0.000 -180.000 -0.990 0.000 0.000",
        "report": ""
    },
    {
        "clock": "13.1",
        "crowd": "id pose",
        "odom": "pose 9.035 0.000 -180.000 -0.990 0.000 0.000",
        "report": ""
    },
    {
        "clock": "13.2",
        "crowd": "id pose",
        "odom": "pose 8.936 0.000 -180.000 -0.990 0.000 0.000",
        "report": ""
    },
    {
        "clock": "13.3",
        "crowd": "id pose",
        "odom": "pose 8.837 0.000 -180.000 -0.990 0.000 0.000",
        "report": ""
    },
    {
        "clock": "13.4",
        "crowd": "id pose",
        "odom": "pose 8.738 0.000 -180.000 -0.990 0.000 0.000",
        "report": ""
    },
    {
        "clock": "13.5",
        "crowd": "id pose",
        "odom": "pose 8.639 0.000 -180.000 -0.990 0.000 0.000",
        "report": ""
    },
    {
        "clock": "13.6",
        "crowd": "id pose",
        "odom": "pose 8.540 0.000 -180.000 -0.990 0.000 0.000",
        "report": ""
    },
    {
        "clock": "13.7",
        "crowd": "id pose",
        "odom": "pose 8.441 0.000 -180.000 -0.990 0.000 0.000",
        "report": ""
    },
    {
        "clock": "13.8",
        "crowd": "id pose",
        "odom": "pose 8.342 0.000 -180.000 -0.990 0.000 0.000",
        "report": ""
    },
    {
        "clock": "13.9",
        "crowd": "id pose",
        "odom": "pose 8.243 0.000 -180.000 -0.990 0.000 0.000",
        "report": ""
    },
    {
        "clock": "14.0",
        "crowd": "id pose",
        "odom": "pose 8.144 0.000 -180.000 -0.990 0.000 0.000",
        "report": ""
    },
    {
        "clock": "14.1",
        "crowd": "id pose",
        "odom": "pose 8.045 0.000 -180.000 -0.990 0.000 0.000",
        "report": ""
    },
    {
        "clock": "14.2",
        "crowd": "id pose",
        "odom": "pose 7.946 0.000 -180.000 -0.990 0.000 0.000",
        "report": ""
    },
    {
        "clock": "14.3",
        "crowd": "id pose",
        "odom": "pose 7.847 0.000 -180.000 -0.990 0.000 0.000",
        "report": ""
    },
    {
        "clock": "14.4",
        "crowd": "id pose",
        "odom": "pose 7.748 0.000 -180.000 -0.990 0.000 0.000",
        "report": ""
    },
    {
        "clock": "14.5",
        "crowd": "id pose",
        "odom": "pose 7.649 0.000 -180.000 -0.990 0.000 0.000",
        "report": ""
    },
    {
        "clock": "14.6",
        "crowd": "id pose",
        "odom": "pose 7.550 0.000 -180.000 -0.990 0.000 0.000",
        "report": ""
    },
    {
        "clock": "14.7",
        "crowd": "id pose",
        "odom": "pose 7.451 0.000 -180.000 -0.990 0.000 0.000",
        "report": ""
    },
    {
        "clock": "14.8",
        "crowd": "id pose",
        "odom": "pose 7.352 0.000 -180.000 -0.990 0.000 0.000",
        "report": ""
    },
    {
        "clock": "14.9",
        "crowd": "id pose",
        "odom": "pose 7.253 0.000 -180.000 -0.990 0.000 0.000",
        "report": ""
    },
    {
        "clock": "15.0",
        "crowd": "id pose",
        "odom": "pose 7.154 0.000 -180.000 -0.990 0.000 0.000",
        "report": ""
    },
    {
        "clock": "15.1",
        "crowd": "id pose",
        "odom": "pose 7.055 0.000 -180.000 -0.990 0.000 0.000",
        "report": ""
    },
    {
        "clock": "15.2",
        "crowd": "id pose",
        "odom": "pose 6.956 0.000 -180.000 -0.990 0.000 0.000",
        "report": ""
    },
    {
        "clock": "15.3",
        "crowd": "id pose",
        "odom": "pose 6.857 0.000 -180.000 -0.990 0.000 0.000",
        "report": ""
    },
    {
        "clock": "15.4",
        "crowd": "id pose",
        "odom": "pose 6.758 0.000 -180.000 -0.990 0.000 0.000",
        "report": ""
    },
    {
        "clock": "15.5",
        "crowd": "id pose",
        "odom": "pose 6.659 0.000 -180.000 -0.990 0.000 0.000",
        "report": ""
    },
    {
        "clock": "15.6",
        "crowd": "id pose",
        "odom": "pose 6.560 0.000 -180.000 -0.990 0.000 0.000",
        "report": ""
    },
    {
        "clock": "15.7",
        "crowd": "id pose",
        "odom": "pose 6.461 0.000 -180.000 -0.990 0.000 0.000",
        "report": ""
    },
    {
        "clock": "15.8",
        "crowd": "id pose",
        "odom": "pose 6.362 0.000 -180.000 -0.990 0.000 0.000",
        "report": ""
    },
    {
        "clock": "15.9",
        "crowd": "id pose",
        "odom": "pose 6.263 0.000 -180.000 -0.990 0.000 0.000",
        "report": ""
    },
    {
        "clock": "16.0",
        "crowd": "id pose",
        "odom": "pose 6.164 0.000 -180.000 -0.990 0.000 0.000",
        "report": ""
    },
    {
        "clock": "16.1",
        "crowd": "id pose",
        "odom": "pose 6.065 0.000 -180.000 -0.990 0.000 0.000",
        "report": ""
    },
    {
        "clock": "16.2",
        "crowd": "id pose",
        "odom": "pose 5.966 0.000 -180.000 -0.990 0.000 0.000",
        "report": ""
    },
    {
        "clock": "16.3",
        "crowd": "id pose",
        "odom": "pose 5.867 0.000 -180.000 -0.990 0.000 0.000",
        "report": ""
    },
    {
        "clock": "16.4",
        "crowd": "id pose",
        "odom": "pose 5.768 0.000 -180.000 -0.990 0.000 0.000",
        "report": ""
    },
    {
        "clock": "16.5",
        "crowd": "id pose",
        "odom": "pose 5.669 0.000 -180.000 -0.990 0.000 0.000",
        "report": ""
    },
    {
        "clock": "16.6",
        "crowd": "id pose",
        "odom": "pose 5.570 0.000 -180.000 -0.990 0.000 0.000",
        "report": ""
    },
    {
        "clock": "16.7",
        "crowd": "id pose",
        "odom": "pose 5.471 0.000 -180.000 -0.990 0.000 0.000",
        "report": ""
    },
    {
        "clock": "16.8",
        "crowd": "id pose",
        "odom": "pose 5.372 0.000 -180.000 -0.990 0.000 0.000",
        "report": ""
    },
    {
        "clock": "16.9",
        "crowd": "id pose",
        "odom": "pose 5.273 0.000 -180.000 -0.990 0.000 0.000",
        "report": ""
    },
    {
        "clock": "17.0",
        "crowd": "id pose",
        "odom": "pose 5.174 0.000 -180.000 -0.990 0.000 0.000",
        "report": ""
    },
    {
        "clock": "17.1",
        "crowd": "id pose",
        "odom": "pose 5.075 0.000 -180.000 -0.990 0.000 0.000",
        "report": ""
    },
    {
        "clock": "17.2",
        "crowd": "id pose",
        "odom": "pose 4.976 0.000 -180.000 -0.990 0.000 0.000",
        "report": ""
    },
    {
        "clock": "17.3",
        "crowd": "id pose",
        "odom": "pose 4.877 0.000 -180.000 -0.990 0.000 0.000",
        "report": ""
    },
    {
        "clock": "17.4",
        "crowd": "id pose",
        "odom": "pose 4.778 0.000 -180.000 -0.990 0.000 0.000",
        "report": ""
    },
    {
        "clock": "17.5",
        "crowd": "id pose",
        "odom": "pose 4.679 0.000 -180.000 -0.990 0.000 0.000",
        "report": ""
    },
    {
        "clock": "17.6",
        "crowd": "id pose",
        "odom": "pose 4.580 0.000 -180.000 -0.990 0.000 0.000",
        "report": ""
    },
    {
        "clock": "17.7",
        "crowd": "id pose",
        "odom": "pose 4.481 0.000 -180.000 -0.990 0.000 0.000",
        "report": ""
    },
    {
        "clock": "17.8",
        "crowd": "id pose",
        "odom": "pose 4.382 0.000 -180.000 -0.990 0.000 0.000",
        "report": ""
    },
    {
        "clock": "17.9",
        "crowd": "id pose",
        "odom": "pose 4.283 0.000 -180.000 -0.990 0.000 0.000",
        "report": ""
    },
    {
        "clock": "18.0",
        "crowd": "id pose",
        "odom": "pose 4.184 0.000 -180.000 -0.990 0.000 0.000",
        "report": ""
    },
    {
        "clock": "18.1",
        "crowd": "id pose",
        "odom": "pose 4.085 0.000 -180.000 -0.990 0.000 0.000",
        "report": ""
    },
    {
        "clock": "18.2",
        "crowd": "id pose",
        "odom": "pose 3.986 0.000 -180.000 -0.990 0.000 0.000",
        "report": ""
    },
    {
        "clock": "18.3",
        "crowd": "id pose",
        "odom": "pose 3.887 0.000 -180.000 -0.990 0.000 0.000",
        "report": ""
    },
    {
        "clock": "18.4",
        "crowd": "id pose",
        "odom": "pose 3.788 0.000 -180.000 -0.990 0.000 0.000",
        "report": ""
    },
    {
        "clock": "18.5",
        "crowd": "id pose",
        "odom": "pose 3.689 0.000 -180.000 -0.990 0.000 0.000",
        "report": ""
    },
    {
        "clock": "18.6",
        "crowd": "id pose",
        "odom": "pose 3.590 0.000 -180.000 -0.990 0.000 0.000",
        "report": ""
    },
    {
        "clock": "18.7",
        "crowd": "id pose",
        "odom": "pose 3.491 0.000 -180.000 -0.990 0.000 0.000",
        "report": ""
    },
    {
        "clock": "18.8",
        "crowd": "id pose",
        "odom": "pose 3.392 0.000 -180.000 -0.990 0.000 0.000",
        "report": ""
    },
    {
        "clock": "18.9",
        "crowd": "id pose",
        "odom": "pose 3.293 0.000 -180.000 -0.990 0.000 0.000",
        "report": ""
    },
    {
        "clock": "19.0",
        "crowd": "id pose",
        "odom": "pose 3.194 0.000 -180.000 -0.990 0.000 0.000",
        "report": ""
    },
    {
        "clock": "19.1",
        "crowd": "id pose",
        "odom": "pose 3.095 0.000 -180.000 -0.990 0.000 0.000",
        "report": ""
    },
    {
        "clock": "19.2",
        "crowd": "id pose",
        "odom": "pose 2.996 0.000 -180.000 -0.990 0.000 0.000",
        "report": ""
    },
    {
        "clock": "19.3",
        "crowd": "id pose",
        "odom": "pose 2.897 0.000 -180.000 -0.990 0.000 0.000",
        "report": ""
    },
    {
        "clock": "19.4",
        "crowd": "id pose",
        "odom": "pose 2.798 0.000 -180.000 -0.990 0.000 0.000",
        "report": ""
    },
    {
        "clock": "19.5",
        "crowd": "id pose",
        "odom": "pose 2.699 0.000 -180.000 -0.990 0.000 0.000",
        "report": ""
    },
    {
        "clock": "19.6",
        "crowd": "id pose",
        "odom": "pose 2.600 0.000 -180.000 -0.990 0.000 0.000",
        "report": ""
    },
    {
        "clock": "19.7",
        "crowd": "id pose",
        "odom": "pose 2.501 0.000 -180.000 -0.990 0.000 0.000",
        "report": ""
    },
    {
        "clock": "19.8",
        "crowd": "id pose",
        "odom": "pose 2.402 0.000 -180.000 -0.990 0.000 0.000",
        "report": ""
    },
    {
        "clock": "19.9",
        "crowd": "id pose",
        "odom": "pose 2.303 0.000 -180.000 -0.990 0.000 0.000",
        "report": ""
    },
    {
        "clock": "20.0",
        "crowd": "id pose",
        "odom": "pose 2.204 0.000 -180.000 -0.990 0.000 0.000",
        "report": ""
    },
    {
        "clock": "20.1",
        "crowd": "id pose",
        "odom": "pose 2.105 0.000 -180.000 -0.990 0.000 0.000",
        "report": ""
    },
    {
        "clock": "20.2",
        "crowd": "id pose",
        "odom": "pose 2.006 0.000 -180.000 -0.990 0.000 0.000",
        "report": ""
    },
    {
        "clock": "20.3",
        "crowd": "id pose",
        "odom": "pose 1.907 0.000 -180.000 -0.990 0.000 0.000",
        "report": ""
    },
    {
        "clock": "20.4",
        "crowd": "id pose",
        "odom": "pose 1.808 0.000 -180.000 -0.990 0.000 0.000",
        "report": ""
    },
    {
        "clock": "20.5",
        "crowd": "id pose",
        "odom": "pose 1.709 0.000 -180.000 -0.990 0.000 0.000",
        "report": ""
    },
    {
        "clock": "20.6",
        "crowd": "id pose",
        "odom": "pose 1.610 0.000 -180.000 -0.990 0.000 0.000",
        "report": ""
    },
    {
        "clock": "20.7",
        "crowd": "id pose",
        "odom": "pose 1.511 0.000 -180.000 -0.990 0.000 0.000",
        "report": ""
    },
    {
        "clock": "20.8",
        "crowd": "id pose",
        "odom": "pose 1.412 0.000 -180.000 -0.990 0.000 0.000",
        "report": ""
    },
    {
        "clock": "20.9",
        "crowd": "id pose",
        "odom": "pose 1.313 0.000 -180.000 -0.990 0.000 0.000",
        "report": ""
    },
    {
        "clock": "21.0",
        "crowd": "id pose",
        "odom": "pose 1.214 0.000 -180.000 -0.990 0.000 0.000",
        "report": ""
    },
    {
        "clock": "21.1",
        "crowd": "id pose",
        "odom": "pose 1.115 0.000 -180.000 -0.990 0.000 0.000",
        "report": ""
    },
    {
        "clock": "21.2",
        "crowd": "id pose",
        "odom": "pose 1.016 0.000 -180.000 -0.990 0.000 0.000",
        "report": ""
    },
    {
        "clock": "21.3",
        "crowd": "id pose",
        "odom": "pose 0.917 0.000 -180.000 -0.990 0.000 0.000",
        "report": ""
    },
    {
        "clock": "21.4",
        "crowd": "id pose",
        "odom": "pose 0.818 0.000 -180.000 -0.990 0.000 0.000",
        "report": ""
    },
    {
        "clock": "21.5",
        "crowd": "id pose",
        "odom": "pose 0.719 0.000 -180.000 -0.990 0.000 0.000",
        "report": ""
    },
    {
        "clock": "21.6",
        "crowd": "id pose",
        "odom": "pose 0.620 0.000 -180.000 -0.990 0.000 0.000",
        "report": ""
    },
    {
        "clock": "21.7",
        "crowd": "id pose",
        "odom": "pose 0.521 0.000 -180.000 -0.990 0.000 0.000",
        "report": ""
    },
    {
        "clock": "21.8",
        "crowd": "id pose",
        "odom": "pose 0.422 0.000 -180.000 -0.990 0.000 0.000",
        "report": ""
    },
    {
        "clock": "21.9",
        "crowd": "id pose",
        "odom": "pose 0.323 0.000 -180.000 -0.990 0.000 0.000",
        "report": ""
    },
    {
        "clock": "22.0",
        "crowd": "id pose",
        "odom": "pose 0.224 0.000 -180.000 -0.990 0.000 0.000",
        "report": ""
    },
    {
        "clock": "22.1",
        "crowd": "id pose",
        "odom": "pose 0.125 0.000 -180.000 -0.990 0.000 0.000",
        "report": ""
    },
    {
        "clock": "22.2",
        "crowd": "id pose",
        "odom": "pose 0.026 0.000 -180.000 -0.990 0.000 0.000",
        "report": ""
    },
    {
        "clock": "22.3",
        "crowd": "id pose",
        "odom": "pose -0.073 0.000 -180.000 -0.990 0.000 0.000",
        "report": ""
    },
    {
        "clock": "22.4",
        "crowd": "id pose",
        "odom": "pose -0.172 0.000 -180.000 -0.990 0.000 0.000",
        "report": ""
    },
    {
        "clock": "22.5",
        "crowd": "id pose",
        "odom": "pose -0.271 0.000 -180.000 -0.990 0.000 0.000",
        "report": ""
    },
    {
        "clock": "22.6",
        "crowd": "id pose",
        "odom": "pose -0.370 0.000 -180.000 -0.990 0.000 0.000",
        "report": ""
    },
    {
        "clock": "22.7",
        "crowd": "id pose",
        "odom": "pose -0.469 0.000 -180.000 -0.990 0.000 0.000",
        "report": ""
    },
    {
        "clock": "22.8",
        "crowd": "id pose",
        "odom": "pose -0.568 0.000 -180.000 -0.990 0.000 0.000",
        "report": ""
    },
    {
        "clock": "22.9",
        "crowd": "id pose",
        "odom": "pose -0.667 0.000 -180.000 -0.990 0.000 0.000",
        "report": ""
    },
    {
        "clock": "23.0",
        "crowd": "id pose",
        "odom": "pose -0.766 0.000 -180.000 -0.990 0.000 0.000",
        "report": ""
    },
    {
        "clock": "23.1",
        "crowd": "id pose",
        "odom": "pose -0.865 0.000 -180.000 -0.990 0.000 0.000",
        "report": ""
    },
    {
        "clock": "23.2",
        "crowd": "id pose",
        "odom": "pose -0.964 0.000 -180.000 -0.990 0.000 0.000",
        "report": ""
    },
    {
        "clock": "23.3",
        "crowd": "id pose",
        "odom": "pose -1.063 0.000 -180.000 -0.990 0.000 0.000",
        "report": ""
    },
    {
        "clock": "23.4",
        "crowd": "id pose",
        "odom": "pose -1.162 0.000 -180.000 -0.990 0.000 0.000",
        "report": ""
    },
    {
        "clock": "23.5",
        "crowd": "id pose",
        "odom": "pose -1.261 0.000 -180.000 -0.990 0.000 0.000",
        "report": ""
    },
    {
        "clock": "23.6",
        "crowd": "id pose",
        "odom": "pose -1.360 0.000 -180.000 -0.990 0.000 0.000",
        "report": ""
    },
    {
        "clock": "23.7",
        "crowd": "id pose",
        "odom": "pose -1.459 0.000 -180.000 -0.990 0.000 0.000",
        "report": ""
    },
    {
        "clock": "23.8",
        "crowd": "id pose",
        "odom": "pose -1.558 0.000 -180.000 -0.990 0.000 0.000",
        "report": ""
    },
    {
        "clock": "23.9",
        "crowd": "id pose",
        "odom": "pose -1.657 0.000 -180.000 -0.990 0.000 0.000",
        "report": ""
    },
    {
        "clock": "24.0",
        "crowd": "id pose",
        "odom": "pose -1.756 0.000 -180.000 -0.990 0.000 0.000",
        "report": ""
    },
    {
        "clock": "24.1",
        "crowd": "id pose",
        "odom": "pose -1.855 0.000 -180.000 -0.990 0.000 0.000",
        "report": ""
    },
    {
        "clock": "24.2",
        "crowd": "id pose",
        "odom": "pose -1.954 0.000 -180.000 -0.990 0.000 0.000",
        "report": ""
    },
    {
        "clock": "24.3",
        "crowd": "id pose",
        "odom": "pose -2.053 0.000 -180.000 -0.990 0.000 0.000",
        "report": ""
    },
    {
        "clock": "24.4",
        "crowd": "id pose",
        "odom": "pose -2.152 0.000 -180.000 -0.990 0.000 0.000",
        "report": ""
    },
    {
        "clock": "24.5",
        "crowd": "id pose",
        "odom": "pose -2.251 0.000 -180.000 -0.990 0.000 0.000",
        "report": ""
    },
    {
        "clock": "24.6",
        "crowd": "id pose",
        "odom": "pose -2.350 0.000 -180.000 -0.990 0.000 0.000",
        "report": ""
    },
    {
        "clock": "24.7",
        "crowd": "id pose",
        "odom": "pose -2.449 0.000 -180.000 -0.990 0.000 0.000",
        "report": ""
    },
    {
        "clock": "24.8",
        "crowd": "id pose",
        "odom": "pose -2.548 0.000 -180.000 -0.990 0.000 0.000",
        "report": ""
    },
    {
        "clock": "24.9",
        "crowd": "id pose",
        "odom": "pose -2.647 0.000 -180.000 -0.990 0.000 0.000",
        "report": ""
    },
    {
        "clock": "25.0",
        "crowd": "id pose",
        "odom": "pose -2.746 0.000 -180.000 -0.990 0.000 0.000",
        "report": ""
    },
    {
        "clock": "25.1",
        "crowd": "id pose",
        "odom": "pose -2.845 0.000 -180.000 -0.990 0.000 0.000",
        "report": ""
    },
    {
        "clock": "25.2",
        "crowd": "id pose",
        "odom": "pose -2.944 0.000 -180.000 -0.990 0.000 0.000",
        "report": ""
    },
    {
        "clock": "25.3",
        "crowd": "id pose",
        "odom": "pose -3.043 0.000 -180.000 -0.990 0.000 0.000",
        "report": ""
    },
    {
        "clock": "25.4",
        "crowd": "id pose",
        "odom": "pose -3.142 0.000 -180.000 -0.990 0.000 0.000",
        "report": ""
    },
    {
        "clock": "25.5",
        "crowd": "id pose",
        "odom": "pose -3.241 0.000 -180.000 -0.990 0.000 0.000",
        "report": ""
    },
    {
        "clock": "25.6",
        "crowd": "id pose",
        "odom": "pose -3.340 0.000 -180.000 -0.990 0.000 0.000",
        "report": ""
    },
    {
        "clock": "25.7",
        "crowd": "id pose",
        "odom": "pose -3.439 0.000 -180.000 -0.990 0.000 0.000",
        "report": ""
    },
    {
        "clock": "25.8",
        "crowd": "id pose",
        "odom": "pose -3.538 0.000 -180.000 -0.990 0.000 0.000",
        "report": ""
    },
    {
        "clock": "25.9",
        "crowd": "id pose",
        "odom": "pose -3.637 0.000 -180.000 -0.990 0.000 0.000",
        "report": ""
    },
    {
        "clock": "26.0",
        "crowd": "id pose",
        "odom": "pose -3.737 0.000 -180.000 -0.990 0.000 0.000",
        "report": ""
    },
    {
        "clock": "26.1",
        "crowd": "id pose",
        "odom": "pose -3.836 0.000 -180.000 -0.990 0.000 0.000",
        "report": ""
    },
    {
        "clock": "26.2",
        "crowd": "id pose",
        "odom": "pose -3.935 0.000 -180.000 -0.990 0.000 0.000",
        "report": ""
    },
    {
        "clock": "26.3",
        "crowd": "id pose",
        "odom": "pose -4.034 0.000 -180.000 -0.990 0.000 0.000",
        "report": ""
    },
    {
        "clock": "26.4",
        "crowd": "id pose",
        "odom": "pose -4.133 0.000 -180.000 -0.990 0.000 0.000",
        "report": ""
    },
    {
        "clock": "26.5",
        "crowd": "id pose",
        "odom": "pose -4.232 0.000 -180.000 -0.990 0.000 0.000",
        "report": ""
    },
    {
        "clock": "26.6",
        "crowd": "id pose",
        "odom": "pose -4.331 0.000 -180.000 -0.990 0.000 0.000",
        "report": ""
    },
    {
        "clock": "26.7",
        "crowd": "id pose",
        "odom": "pose -4.430 0.000 -180.000 -0.990 0.000 0.000",
        "report": ""
    },
    {
        "clock": "26.8",
        "crowd": "id pose",
        "odom": "pose -4.529 0.000 -180.000 -0.990 0.000 0.000",
        "report": ""
    },
    {
        "clock": "26.9",
        "crowd": "id pose",
        "odom": "pose -4.628 0.000 -180.000 -0.990 0.000 0.000",
        "report": ""
    },
    {
        "clock": "27.0",
        "crowd": "id pose",
        "odom": "pose -4.727 0.000 -180.000 -0.990 0.000 0.000",
        "report": ""
    },
    {
        "clock": "27.1",
        "crowd": "id pose",
        "odom": "pose -4.826 0.000 -180.000 -0.990 0.000 0.000",
        "report": ""
    },
    {
        "clock": "27.2",
        "crowd": "id pose",
        "odom": "pose -4.925 0.000 -180.000 -0.990 0.000 0.000",
        "report": ""
    },
    {
        "clock": "27.3",
        "crowd": "id pose",
        "odom": "pose -5.024 0.000 -180.000 -0.990 0.000 0.000",
        "report": ""
    },
    {
        "clock": "27.4",
        "crowd": "id pose",
        "odom": "pose -5.123 0.000 -180.000 -0.990 0.000 0.000",
        "report": ""
    },
    {
        "clock": "27.5",
        "crowd": "id pose",
        "odom": "pose -5.222 0.000 -180.000 -0.990 0.000 0.000",
        "report": ""
    },
    {
        "clock": "27.6",
        "crowd": "id pose",
        "odom": "pose -5.321 0.000 -180.000 -0.990 0.000 0.000",
        "report": ""
    },
    {
        "clock": "27.7",
        "crowd": "id pose",
        "odom": "pose -5.420 0.000 -180.000 -0.990 0.000 0.000",
        "report": ""
    },
    {
        "clock": "27.8",
        "crowd": "id pose",
        "odom": "pose -5.519 0.000 -180.000 -0.990 0.000 0.000",
        "report": ""
    },
    {
        "clock": "27.9",
        "crowd": "id pose",
        "odom": "pose -5.618 0.000 -180.000 -0.990 0.000 0.000",
        "report": ""
    },
    {
        "clock": "28.0",
        "crowd": "id pose",
        "odom": "pose -5.717 0.000 -180.000 -0.990 0.000 0.000",
        "report": ""
    },
    {
        "clock": "28.1",
        "crowd": "id pose",
        "odom": "pose -5.816 0.000 -180.000 -0.990 0.000 0.000",
        "report": ""
    },
    {
        "clock": "28.2",
        "crowd": "id pose",
        "odom": "pose -5.915 0.000 -180.000 -0.990 0.000 0.000",
        "report": ""
    },
    {
        "clock": "28.3",
        "crowd": "id pose",
        "odom": "pose -6.014 0.000 -180.000 -0.990 0.000 0.000",
        "report": ""
    },
    {
        "clock": "28.4",
        "crowd": "id pose",
        "odom": "pose -6.113 0.000 -180.000 -0.990 0.000 0.000",
        "report": ""
    },
    {
        "clock": "28.5",
        "crowd": "id pose",
        "odom": "pose -6.212 0.000 -180.000 -0.990 0.000 0.000",
        "report": ""
    },
    {
        "clock": "28.6",
        "crowd": "id pose",
        "odom": "pose -6.311 0.000 -180.000 -0.990 0.000 0.000",
        "report": ""
    },
    {
        "clock": "28.7",
        "crowd": "id pose",
        "odom": "pose -6.410 0.000 -180.000 -0.990 0.000 0.000",
        "report": ""
    },
    {
        "clock": "28.8",
        "crowd": "id pose",
        "odom": "pose -6.509 0.000 -180.000 -0.990 0.000 0.000",
        "report": ""
    },
    {
        "clock": "28.9",
        "crowd": "id pose",
        "odom": "pose -6.608 0.000 -180.000 -0.990 0.000 0.000",
        "report": ""
    },
    {
        "clock": "29.0",
        "crowd": "id pose",
        "odom": "pose -6.707 0.000 -180.000 -0.990 0.000 0.000",
        "report": ""
    },
    {
        "clock": "29.1",
        "crowd": "id pose",
        "odom": "pose -6.806 0.000 -180.000 -0.990 0.000 0.000",
        "report": ""
    },
    {
        "clock": "29.2",
        "crowd": "id pose",
        "odom": "pose -6.905 0.000 -180.000 -0.990 0.000 0.000",
        "report": ""
    },
    {
        "clock": "29.3",
        "crowd": "id pose",
        "odom": "pose -7.004 0.000 -180.000 -0.990 0.000 0.000",
        "report": ""
    },
    {
        "clock": "29.4",
        "crowd": "id pose",
        "odom": "pose -7.103 0.000 -180.000 -0.990 0.000 0.000",
        "report": ""
    },
    {
        "clock": "29.5",
        "crowd": "id pose",
        "odom": "pose -7.202 0.000 -180.000 -0.990 0.000 0.000",
        "report": ""
    },
    {
        "clock": "29.6",
        "crowd": "id pose",
        "odom": "pose -7.301 0.000 -180.000 -0.990 0.000 0.000",
        "report": ""
    },
    {
        "clock": "29.7",
        "crowd": "id pose",
        "odom": "pose -7.400 0.000 -180.000 -0.990 0.000 0.000",
        "report": ""
    },
    {
        "clock": "29.8",
        "crowd": "id pose",
        "odom": "pose -7.499 0.000 -180.000 -0.990 0.000 0.000",
        "report": ""
    },
    {
        "clock": "29.9",
        "crowd": "id pose",
        "odom": "pose -7.598 0.000 -180.000 -0.990 0.000 0.000",
        "report": ""
    },
    {
        "clock": "30.0",
        "crowd": "id pose",
        "odom": "pose -7.697 0.000 -180.000 -0.990 0.000 0.000",
        "report": ""
    },
    {
        "clock": "30.1",
        "crowd": "id pose",
        "odom": "pose -7.796 0.000 -180.000 -0.990 0.000 0.000",
        "report": ""
    },
    {
        "clock": "30.2",
        "crowd": "id pose",
        "odom": "pose -7.895 0.000 -180.000 -0.990 0.000 0.000",
        "report": ""
    },
    {
        "clock": "30.3",
        "crowd": "id pose",
        "odom": "pose -7.994 0.000 -180.000 -0.990 0.000 0.000",
        "report": ""
    },
    {
        "clock": "30.4",
        "crowd": "id pose",
        "odom": "pose -8.093 0.000 -180.000 -0.990 0.000 0.000",
        "report": ""
    },
    {
        "clock": "30.5",
        "crowd": "id pose",
        "odom": "pose -8.192 0.000 -180.000 -0.990 0.000 0.000",
        "report": ""
    },
    {
        "clock": "30.6",
        "crowd": "id pose",
        "odom": "pose -8.291 0.000 -180.000 -0.990 0.000 0.000",
        "report": ""
    },
    {
        "clock": "30.7",
        "crowd": "id pose",
        "odom": "pose -8.390 0.000 -180.000 -0.990 0.000 0.000",
        "report": ""
    },
    {
        "clock": "30.8",
        "crowd": "id pose",
        "odom": "pose -8.489 0.000 -180.000 -0.990 0.000 0.000",
        "report": ""
    },
    {
        "clock": "30.9",
        "crowd": "id pose",
        "odom": "pose -8.588 0.000 -180.000 -0.990 0.000 0.000",
        "report": ""
    },
    {
        "clock": "31.0",
        "crowd": "id pose",
        "odom": "pose -8.687 0.000 -180.000 -0.990 0.000 0.000",
        "report": ""
    },
    {
        "clock": "31.1",
        "crowd": "id pose",
        "odom": "pose -8.786 0.000 -180.000 -0.990 0.000 0.000",
        "report": ""
    },
    {
        "clock": "31.2",
        "crowd": "id pose",
        "odom": "pose -8.885 0.000 -180.000 -0.990 0.000 0.000",
        "report": ""
    },
    {
        "clock": "31.3",
        "crowd": "id pose",
        "odom": "pose -8.984 0.000 -180.000 -0.990 0.000 0.000",
        "report": ""
    },
    {
        "clock": "31.4",
        "crowd": "id pose",
        "odom": "pose -9.083 0.000 -180.000 -0.990 0.000 0.000",
        "report": ""
    },
    {
        "clock": "31.5",
        "crowd": "id pose",
        "odom": "pose -9.182 0.000 -180.000 -0.990 0.000 0.000",
        "report": ""
    },
    {
        "clock": "31.6",
        "crowd": "id pose",
        "odom": "pose -9.281 0.000 -180.000 -0.990 0.000 0.000",
        "report": ""
    },
    {
        "clock": "31.7",
        "crowd": "id pose",
        "odom": "pose -9.380 0.000 -180.000 -0.990 0.000 0.000",
        "report": ""
    },
    {
        "clock": "31.8",
        "crowd": "id pose",
        "odom": "pose -9.479 0.000 -180.000 -0.990 0.000 0.000",
        "report": ""
    },
    {
        "clock": "31.9",
        "crowd": "id pose",
        "odom": "pose -9.578 0.000 -180.000 -0.990 0.000 0.000",
        "report": ""
    },
    {
        "clock": "32.0",
        "crowd": "id pose",
        "odom": "pose -9.677 0.000 -180.000 -0.990 0.000 0.000",
        "report": ""
    },
    {
        "clock": "32.1",
        "crowd": "id pose",
        "odom": "pose -9.776 0.000 -180.000 -0.990 0.000 0.000",
        "report": ""
    },
    {
        "clock": "32.2",
        "crowd": "id pose",
        "odom": "pose -9.875 0.000 -180.000 -0.990 0.000 0.000",
        "report": ""
    },
    {
        "clock": "32.3",
        "crowd": "id pose",
        "odom": "pose -9.974 0.000 -180.000 -0.990 0.000 0.000",
        "report": ""
    },
    {
        "clock": "32.4",
        "crowd": "id pose",
        "odom": "pose -10.073 0.000 -180.000 -0.990 0.000 0.000",
        "report": ""
    },
    {
        "clock": "32.5",
        "crowd": "id pose",
        "odom": "pose -10.172 0.000 -180.000 -0.990 0.000 0.000",
        "report": ""
    },
    {
        "clock": "32.6",
        "crowd": "id pose",
        "odom": "pose -10.271 0.000 -180.000 -0.990 0.000 0.000",
        "report": ""
    },
    {
        "clock": "32.7",
        "crowd": "id pose",
        "odom": "pose -10.370 0.000 -180.000 -0.990 0.000 0.000",
        "report": ""
    },
    {
        "clock": "32.8",
        "crowd": "id pose",
        "odom": "pose -10.469 0.000 -180.000 -0.990 0.000 0.000",
        "report": ""
    },
    {
        "clock": "32.9",
        "crowd": "id pose",
        "odom": "pose -10.568 0.000 -180.000 -0.990 0.000 0.000",
        "report": ""
    },
    {
        "clock": "33.0",
        "crowd": "id pose",
        "odom": "pose -10.667 0.000 -180.000 -0.990 0.000 0.000",
        "report": ""
    },
    {
        "clock": "33.1",
        "crowd": "id pose",
        "odom": "pose -10.766 0.000 -180.000 -0.990 0.000 0.000",
        "report": ""
    },
    {
        "clock": "33.2",
        "crowd": "id pose",
        "odom": "pose -10.865 0.000 -180.000 -0.990 0.000 0.000",
        "report": ""
    },
    {
        "clock": "33.3",
        "crowd": "id pose",
        "odom": "pose -10.964 0.000 -180.000 -0.990 0.000 0.000",
        "report": ""
    },
    {
        "clock": "33.4",
        "crowd": "id pose",
        "odom": "pose -11.063 0.000 -180.000 -0.990 0.000 0.000",
        "report": ""
    },
    {
        "clock": "33.5",
        "crowd": "id pose",
        "odom": "pose -11.162 0.000 -180.000 -0.990 0.000 0.000",
        "report": ""
    },
    {
        "clock": "33.6",
        "crowd": "id pose",
        "odom": "pose -11.261 0.000 -180.000 -0.990 0.000 0.000",
        "report": ""
    },
    {
        "clock": "33.7",
        "crowd": "id pose",
        "odom": "pose -11.360 0.000 -180.000 -0.990 0.000 0.000",
        "report": ""
    },
    {
        "clock": "33.8",
        "crowd": "id pose",
        "odom": "pose -11.459 0.000 -180.000 -0.990 0.000 0.000",
        "report": ""
    },
    {
        "clock": "33.9",
        "crowd": "id pose",
        "odom": "pose -11.558 0.000 -180.000 -0.990 0.000 0.000",
        "report": ""
    },
    {
        "clock": "34.0",
        "crowd": "id pose",
        "odom": "pose -11.657 0.000 -180.000 -0.990 0.000 0.000",
        "report": ""
    },
    {
        "clock": "34.1",
        "crowd": "id pose",
        "odom": "pose -11.756 0.000 -180.000 -0.990 0.000 0.000",
        "report": ""
    },
    {
        "clock": "34.2",
        "crowd": "id pose",
        "odom": "pose -11.855 0.000 -180.000 -0.990 0.000 0.000",
        "report": ""
    },
    {
        "clock": "34.3",
        "crowd": "id pose",
        "odom": "pose -11.954 0.000 -180.000 -0.990 0.000 0.000",
        "report": ""
    },
    {
        "clock": "34.4",
        "crowd": "id pose",
        "odom": "pose -12.053 0.000 -180.000 -0.990 0.000 0.000",
        "report": ""
    },
    {
        "clock": "34.5",
        "crowd": "id pose",
        "odom": "pose -12.152 0.000 -180.000 -0.990 0.000 0.000",
        "report": ""
    },
    {
        "clock": "34.6",
        "crowd": "id pose",
        "odom": "pose -12.251 0.000 -180.000 -0.990 0.000 0.000",
        "report": ""
    },
    {
        "clock": "34.7",
        "crowd": "id pose",
        "odom": "pose -12.350 0.000 -180.000 -0.990 0.000 0.000",
        "report": ""
    },
    {
        "clock": "34.8",
        "crowd": "id pose",
        "odom": "pose -12.449 0.000 -180.000 -0.990 0.000 0.000",
        "report": ""
    },
    {
        "clock": "34.9",
        "crowd": "id pose",
        "odom": "pose -12.548 0.000 -180.000 -0.990 0.000 0.000",
        "report": ""
    },
    {
        "clock": "35.0",
        "crowd": "id pose",
        "odom": "pose -12.647 0.000 -180.000 -0.990 0.000 0.000",
        "report": ""
    },
    {
        "clock": "35.1",
        "crowd": "id pose",
        "odom": "pose -12.746 0.000 -180.000 -0.990 0.000 0.000",
        "report": ""
    },
    {
        "clock": "35.2",
        "crowd": "id pose",
        "odom": "pose -12.845 0.000 -180.000 -0.990 0.000 0.000",
        "report": ""
    },
    {
        "clock": "35.3",
        "crowd": "id pose",
        "odom": "pose -12.944 0.000 -180.000 -0.990 0.000 0.000",
        "report": ""
    },
    {
        "clock": "35.4",
        "crowd": "id pose",
        "odom": "pose -13.043 0.000 -180.000 -0.990 0.000 0.000",
        "report": ""
    },
    {
        "clock": "35.5",
        "crowd": "id pose",
        "odom": "pose -13.142 0.000 -180.000 -0.990 0.000 0.000",
        "report": ""
    },
    {
        "clock": "35.6",
        "crowd": "id pose",
        "odom": "pose -13.241 0.000 -180.000 -0.990 0.000 0.000",
        "report": ""
    },
    {
        "clock": "35.7",
        "crowd": "id pose",
        "odom": "pose -13.340 0.000 -180.000 -0.990 0.000 0.000",
        "report": ""
    },
    {
        "clock": "35.8",
        "crowd": "id pose",
        "odom": "pose -13.439 0.000 -180.000 -0.990 0.000 0.000",
        "report": ""
    },
    {
        "clock": "35.9",
        "crowd": "id pose",
        "odom": "pose -13.538 0.000 -180.000 -0.990 0.000 0.000",
        "report": ""
    },
    {
        "clock": "36.0",
        "crowd": "id pose",
        "odom": "pose -13.637 0.000 -180.000 -0.990 0.000 0.000",
        "report": ""
    },
    {
        "clock": "36.1",
        "crowd": "id pose",
        "odom": "pose -13.736 0.000 -180.000 -0.990 0.000 0.000",
        "report": ""
    },
    {
        "clock": "36.2",
        "crowd": "id pose",
        "odom": "pose -13.835 0.000 -180.000 -0.990 0.000 0.000",
        "report": ""
    },
    {
        "clock": "36.3",
        "crowd": "id pose",
        "odom": "pose -13.934 0.000 -180.000 -0.990 0.000 0.000",
        "report": ""
    },
    {
        "clock": "36.4",
        "crowd": "id pose",
        "odom": "pose -14.033 0.000 -180.000 -0.990 0.000 0.000",
        "report": ""
    },
    {
        "clock": "36.5",
        "crowd": "id pose",
        "odom": "pose -14.132 0.000 -180.000 -0.990 0.000 0.000",
        "report": ""
    },
    {
        "clock": "36.6",
        "crowd": "id pose",
        "odom": "pose -14.231 0.000 -180.000 -0.990 0.000 0.000",
        "report": ""
    },
    {
        "clock": "36.7",
        "crowd": "id pose",
        "odom": "pose -14.330 0.000 -180.000 -0.990 0.000 0.000",
        "report": ""
    },
    {
        "clock": "36.8",
        "crowd": "id pose",
        "odom": "pose -14.429 0.000 -180.000 -0.990 0.000 0.000",
        "report": ""
    },
    {
        "clock": "36.9",
        "crowd": "id pose",
        "odom": "pose -14.528 0.000 -180.000 -0.990 0.000 0.000",
        "report": ""
    },
    {
        "clock": "37.0",
        "crowd": "id pose",
        "odom": "pose -14.627 0.000 -180.000 -0.990 0.000 0.000",
        "report": ""
    },
    {
        "clock": "37.1",
        "crowd": "id pose",
        "odom": "pose -14.726 0.000 -180.000 -0.990 0.000 0.000",
        "report": ""
    },
    {
        "clock": "37.2",
        "crowd": "id pose",
        "odom": "pose -14.825 0.000 -180.000 -0.990 0.000 0.000",
        "report": ""
    },
    {
        "clock": "37.3",
        "crowd": "id pose",
        "odom": "pose -14.924 0.000 -180.000 -0.990 0.000 0.000",
        "report": ""
    },
    {
        "clock": "37.4",
        "crowd": "id pose",
        "odom": "pose -15.023 0.000 -180.000 -0.990 0.000 0.000",
        "report": ""
    },
    {
        "clock": "37.5",
        "crowd": "id pose",
        "odom": "pose -15.122 0.000 -180.000 -0.990 0.000 0.000",
        "report": ""
    },
    {
        "clock": "37.6",
        "crowd": "id pose",
        "odom": "pose -15.221 0.000 -180.000 -0.990 0.000 0.000",
        "report": ""
    },
    {
        "clock": "37.7",
        "crowd": "id pose",
        "odom": "pose -15.320 0.000 -180.000 -0.990 0.000 0.000",
        "report": ""
    },
    {
        "clock": "37.8",
        "crowd": "id pose",
        "odom": "pose -15.419 0.000 -180.000 -0.990 0.000 0.000",
        "report": ""
    },
    {
        "clock": "37.9",
        "crowd": "id pose",
        "odom": "pose -15.518 0.000 -180.000 -0.990 0.000 0.000",
        "report": ""
    },
    {
        "clock": "38.0",
        "crowd": "id pose",
        "odom": "pose -15.617 0.000 -180.000 -0.990 0.000 0.000",
        "report": ""
    },
    {
        "clock": "38.1",
        "crowd": "id pose",
        "odom": "pose -15.716 0.000 -180.000 -0.990 0.000 0.000",
        "report": ""
    },
    {
        "clock": "38.2",
        "crowd": "id pose",
        "odom": "pose -15.815 0.000 -180.000 -0.990 0.000 0.000",
        "report": ""
    },
    {
        "clock": "38.3",
        "crowd": "id pose",
        "odom": "pose -15.914 0.000 -180.000 -0.990 0.000 0.000",
        "report": ""
    },
    {
        "clock": "38.4",
        "crowd": "id pose",
        "odom": "pose -16.013 0.000 -180.000 -0.990 0.000 0.000",
        "report": ""
    },
    {
        "clock": "38.5",
        "crowd": "id pose",
        "odom": "pose -16.112 0.000 -180.000 -0.990 0.000 0.000",
        "report": ""
    },
    {
        "clock": "38.6",
        "crowd": "id pose",
        "odom": "pose -16.211 0.000 -180.000 -0.990 0.000 0.000",
        "report": ""
    },
    {
        "clock": "38.7",
        "crowd": "id pose",
        "odom": "pose -16.311 0.000 -180.000 -0.990 0.000 0.000",
        "report": ""
    },
    {
        "clock": "38.8",
        "crowd": "id pose",
        "odom": "pose -16.410 0.000 -180.000 -0.990 0.000 0.000",
        "report": ""
    },
    {
        "clock": "38.9",
        "crowd": "id pose",
        "odom": "pose -16.509 0.000 -180.000 -0.990 0.000 0.000",
        "report": ""
    },
    {
        "clock": "39.0",
        "crowd": "id pose",
        "odom": "pose -16.608 0.000 -180.000 -0.990 0.000 0.000",
        "report": ""
    },
    {
        "clock": "39.1",
        "crowd": "id pose",
        "odom": "pose -16.707 0.000 -180.000 -0.990 0.000 0.000",
        "report": ""
    },
    {
        "clock": "39.2",
        "crowd": "id pose",
        "odom": "pose -16.806 0.000 -180.000 -0.990 0.000 0.000",
        "report": ""
    },
    {
        "clock": "39.3",
        "crowd": "id pose",
        "odom": "pose -16.905 0.000 -180.000 -0.990 0.000 0.000",
        "report": ""
    },
    {
        "clock": "39.4",
        "crowd": "id pose",
        "odom": "pose -17.004 0.000 -180.000 -0.990 0.000 0.000",
        "report": ""
    },
    {
        "clock": "39.5",
        "crowd": "id pose",
        "odom": "pose -17.103 0.000 -180.000 -0.990 0.000 0.000",
        "report": ""
    },
    {
        "clock": "39.6",
        "crowd": "id pose",
        "odom": "pose -17.202 0.000 -180.000 -0.990 0.000 0.000",
        "report": ""
    },
    {
        "clock": "39.7",
        "crowd": "id pose",
        "odom": "pose -17.301 0.000 -180.000 -0.990 0.000 0.000",
        "report": ""
    },
    {
        "clock": "39.8",
        "crowd": "id pose",
        "odom": "pose -17.400 0.000 -180.000 -0.990 0.000 0.000",
        "report": ""
    },
    {
        "clock": "39.9",
        "crowd": "id pose",
        "odom": "pose -17.499 0.000 -180.000 -0.990 0.000 0.000",
        "report": ""
    },
    {
        "clock": "40.0",
        "crowd": "id pose",
        "odom": "pose -17.598 0.000 -180.000 -0.990 0.000 0.000",
        "report": ""
    },
    {
        "clock": "40.1",
        "crowd": "id pose",
        "odom": "pose -17.697 0.000 -180.000 -0.990 0.000 0.000",
        "report": ""
    },
    {
        "clock": "40.2",
        "crowd": "id pose",
        "odom": "pose -17.796 0.000 -180.000 -0.990 0.000 0.000",
        "report": ""
    },
    {
        "clock": "40.3",
        "crowd": "id pose",
        "odom": "pose -17.895 0.000 -180.000 -0.990 0.000 0.000",
        "report": ""
    },
    {
        "clock": "40.4",
        "crowd": "id pose",
        "odom": "pose -17.994 0.000 -180.000 -0.990 0.000 0.000",
        "report": ""
    },
    {
        "clock": "40.5",
        "crowd": "id pose",
        "odom": "pose -18.093 0.000 -180.000 -0.990 0.000 0.000",
        "report": ""
    },
    {
        "clock": "40.6",
        "crowd": "id pose",
        "odom": "pose -18.192 0.000 179.771 -0.990 0.004 3597.626",
        "report": ""
    },
    {
        "clock": "40.7",
        "crowd": "id pose",
        "odom": "pose -18.291 0.000 -179.542 -0.990 -0.008 -3593.179",
        "report": ""
    },
    {
        "clock": "40.8",
        "crowd": "id pose",
        "odom": "pose -18.390 -0.002 -178.854 -0.990 -0.020 6.876",
        "report": ""
    },
    {
        "clock": "40.9",
        "crowd": "id pose",
        "odom": "pose -18.489 -0.006 -178.167 -0.990 -0.032 6.875",
        "report": ""
    },
    {
        "clock": "41.0",
        "crowd": "id pose",
        "odom": "pose -18.588 -0.010 -177.479 -0.989 -0.044 6.875",
        "report": ""
    },
    {
        "clock": "41.1",
        "crowd": "id pose",
        "odom": "pose -18.686 -0.014 -177.708 -0.989 -0.040 -2.291",
        "report": ""
    },
    {
        "clock": "41.2",
        "crowd": "id pose",
        "odom": "pose -18.784 -0.018 -177.594 -0.979 -0.041 1.146",
        "report": ""
    },
    {
        "clock": "41.3",
        "crowd": "id pose",
        "odom": "pose -18.880 -0.022 -177.594 -0.952 -0.040 0.000",
        "report": ""
    },
    {
        "clock": "41.4",
        "crowd": "id pose",
        "odom": "pose -18.971 -0.026 -177.594 -0.914 -0.038 0.000",
        "report": ""
    },
    {
        "clock": "41.5",
        "crowd": "id pose",
        "odom": "pose -19.058 -0.030 -177.479 -0.870 -0.038 1.146",
        "report": ""
    },
    {
        "clock": "41.6",
        "crowd": "id pose",
        "odom": "pose -19.140 -0.033 -177.364 -0.823 -0.038 1.146",
        "report": ""
    },
    {
        "clock": "41.7",
        "crowd": "id pose",
        "odom": "pose -19.218 -0.037 -177.594 -0.777 -0.033 -2.292",
        "report": ""
    },
    {
        "clock": "41.8",
        "crowd": "id pose",
        "odom": "pose -19.291 -0.040 -177.594 -0.730 -0.031 0.000",
        "report": ""
    },
    {
        "clock": "41.9",
        "crowd": "id pose",
        "odom": "pose -19.359 -0.043 -177.708 -0.685 -0.027 -1.146",
        "report": ""
    },
    {
        "clock": "42.0",
        "crowd": "id pose",
        "odom": "pose -19.424 -0.045 -177.937 -0.643 -0.023 -2.293",
        "report": ""
    },
    {
        "clock": "42.1",
        "crowd": "id pose",
        "odom": "pose -19.484 -0.047 -178.052 -0.601 -0.020 -1.146",
        "report": ""
    },
    {
        "clock": "42.2",
        "crowd": "id pose",
        "odom": "pose -19.540 -0.049 -177.823 -0.560 -0.021 2.292",
        "report": ""
    },
    {
        "clock": "42.3",
        "crowd": "id pose",
        "odom": "pose -19.592 -0.051 -178.052 -0.523 -0.018 -2.291",
        "report": ""
    },
    {
        "clock": "42.4",
        "crowd": "id pose",
        "odom": "pose -19.641 -0.052 -178.740 -0.486 -0.011 -6.876",
        "report": ""
    },
    {
        "clock": "42.5",
        "crowd": "id pose",
        "odom": "pose -19.686 -0.053 -178.167 -0.451 -0.014 5.730",
        "report": ""
    },
    {
        "clock": "42.6",
        "crowd": "id pose",
        "odom": "pose -19.728 -0.054 -178.396 -0.420 -0.012 -2.291",
        "report": ""
    },
    {
        "clock": "42.7",
        "crowd": "id pose",
        "odom": "pose -19.767 -0.056 -177.937 -0.392 -0.014 4.584",
        "report": ""
    },
    {
        "clock": "42.8",
        "crowd": "id pose",
        "odom": "pose -19.804 -0.057 -178.739 -0.364 -0.008 -8.021",
        "report": ""
    },
    {
        "clock": "42.9",
        "crowd": "id pose",
        "odom": "pose -19.837 -0.058 -178.396 -0.337 -0.009 3.437",
        "report": ""
    },
    {
        "clock": "43.0",
        "crowd": "id pose",
        "odom": "pose -19.869 -0.059 -177.250 -0.313 -0.015 11.460",
        "report": ""
    },
    {
        "clock": "43.1",
        "crowd": "id pose",
        "odom": "pose -19.898 -0.061 -177.021 -0.291 -0.015 2.292",
        "report": ""
    },
    {
        "clock": "43.2",
        "crowd": "id pose",
        "odom": "pose -19.925 -0.061 -178.969 -0.271 -0.005 -19.482",
        "report": ""
    },
    {
        "clock": "43.3",
        "crowd": "id pose",
        "odom": "pose -19.950 -0.062 -178.854 -0.253 -0.005 1.146",
        "report": ""
    },
    {
        "clock": "43.4",
        "crowd": "id pose",
        "odom": "pose -19.974 -0.063 -176.333 -0.236 -0.015 25.209",
        "report": ""
    },
    {
        "clock": "43.5",
        "crowd": "id pose",
        "odom": "pose -19.996 -0.064 -176.791 -0.221 -0.012 -4.584",
        "report": ""
    },
    {
        "clock": "43.6",
        "crowd": "id pose",
        "odom": "pose -20.016 -0.067 -171.864 -0.206 -0.029 49.273",
        "report": ""
    }
]